{
  "classifierPath" : "meta::pure::metamodel::type::Class",
  "content" : {
    "_type" : "class",
    "name" : "AdjustedDate",
    "package" : "cdm::synonymSources::fpml::adjustableOrAdjustedDateChoice",
    "properties" : [ {
      "multiplicity" : {
        "lowerBound" : 1,
        "upperBound" : 1
      },
      "name" : "adjustedDate",
      "taggedValues" : [ {
        "tag" : {
          "profile" : "meta::pure::profiles::doc",
          "value" : "doc"
        },
        "value" : "The date once the adjustment has been performed. (Note that this date may change if the business center holidays change)."
      } ],
      "type" : "cdm::synonymSources::fpml::IdentifiedDate"
    } ],
    "superTypes" : [ "cdm::synonymSources::fpml::AdjustableOrAdjustedDate" ]
  }
}