{
  "classifierPath" : "meta::pure::metamodel::type::Class",
  "content" : {
    "_type" : "class",
    "name" : "AccessConditions",
    "package" : "cdm::model",
    "properties" : [ {
      "multiplicity" : {
        "lowerBound" : 2,
        "upperBound" : 2
      },
      "name" : "partyElection",
      "taggedValues" : [ {
        "tag" : {
          "profile" : "meta::pure::profiles::doc",
          "value" : "doc"
        },
        "value" : "The parties' Access Condition (Initial Margin CSA) or a Specified Condition (Variation Margin CSA) election."
      } ],
      "type" : "cdm::model::AccessConditionsElections"
    }, {
      "multiplicity" : {
        "lowerBound" : 0
      },
      "name" : "additionalTerminationEvent",
      "taggedValues" : [ {
        "tag" : {
          "profile" : "meta::pure::profiles::doc",
          "value" : "doc"
        },
        "value" : "Additional Termination Events applicable to the agreement."
      } ],
      "type" : "cdm::model::AdditionalTerminationEvent"
    } ],
    "taggedValues" : [ {
      "tag" : {
        "profile" : "meta::pure::profiles::doc",
        "value" : "doc"
      },
      "value" : "A class to specify each party's election with respect to the Termination Events that will be deemed an Access Condition (Initial Margin CSA) or a Specified Condition (Variation Margin CSA). ISDA 2016 English Law Credit Support Deed for Initial Margin, paragraph 13, General Principles, (e)(ii). | ISDA 2016 Japanese Law Credit Support Annex for Initial Margin, paragraph 13, General Principles, (f)(ii). | ISDA 2016 New York Law Credit Support Annex for Initial Margin, paragraph 13, General Principles, (e)(ii). | ISDA 2016 Credit Support Annex for Variation Margin, paragraph 13, (e): Conditions Precedent and Secured Party’s Rights and Remedies."
    } ]
  }
}