{
  "classifierPath" : "meta::pure::metamodel::type::Class",
  "content" : {
    "_type" : "class",
    "name" : "AdditionalFixedPayments",
    "package" : "cdm::model",
    "properties" : [ {
      "multiplicity" : {
        "lowerBound" : 0,
        "upperBound" : 1
      },
      "name" : "interestShortfallReimbursement",
      "taggedValues" : [ {
        "tag" : {
          "profile" : "meta::pure::profiles::doc",
          "value" : "doc"
        },
        "value" : "An additional Fixed Payment Event. Corresponds to the payment by or on behalf of the Issuer of an actual interest amount in respect to the reference obligation that is greater than the expected interest amount. ISDA 2003 Term: Interest Shortfall Reimbursement."
      } ],
      "type" : "Boolean"
    }, {
      "multiplicity" : {
        "lowerBound" : 0,
        "upperBound" : 1
      },
      "name" : "principalShortfallReimbursement",
      "taggedValues" : [ {
        "tag" : {
          "profile" : "meta::pure::profiles::doc",
          "value" : "doc"
        },
        "value" : "An additional Fixed Payment Event. Corresponds to the payment by or on behalf of the Issuer of an actual principal amount in respect to the reference obligation that is greater than the expected principal amount. ISDA 2003 Term: Principal Shortfall Reimbursement."
      } ],
      "type" : "Boolean"
    }, {
      "multiplicity" : {
        "lowerBound" : 0,
        "upperBound" : 1
      },
      "name" : "writedownReimbursement",
      "taggedValues" : [ {
        "tag" : {
          "profile" : "meta::pure::profiles::doc",
          "value" : "doc"
        },
        "value" : "An Additional Fixed Payment. Corresponds to the payment by or on behalf of the issuer of an amount in respect to the reference obligation in reduction of the prior writedowns. ISDA 2003 Term: Writedown Reimbursement."
      } ],
      "type" : "Boolean"
    } ],
    "taggedValues" : [ {
      "tag" : {
        "profile" : "meta::pure::profiles::doc",
        "value" : "doc"
      },
      "value" : "A class to specify the events that will give rise to the payment additional fixed payments."
    } ]
  }
}