{
  "classifierPath" : "meta::pure::metamodel::type::Class",
  "content" : {
    "_type" : "class",
    "constraints" : [ {
      "functionDefinition" : {
        "_type" : "lambda",
        "body" : [ {
          "_type" : "func",
          "function" : "if",
          "parameters" : [ {
            "_type" : "func",
            "function" : "isNotEmpty",
            "parameters" : [ {
              "_type" : "property",
              "parameters" : [ {
                "_type" : "property",
                "parameters" : [ {
                  "_type" : "property",
                  "parameters" : [ {
                    "_type" : "property",
                    "parameters" : [ {
                      "_type" : "property",
                      "parameters" : [ {
                        "_type" : "var",
                        "name" : "this"
                      } ],
                      "property" : "lineage"
                    } ],
                    "property" : "tradeReference"
                  } ],
                  "property" : "tradableProduct"
                } ],
                "property" : "product"
              } ],
              "property" : "security"
            } ]
          }, {
            "_type" : "lambda",
            "body" : [ {
              "_type" : "func",
              "function" : "or",
              "parameters" : [ {
                "_type" : "func",
                "function" : "contains",
                "parameters" : [ {
                  "_type" : "property",
                  "parameters" : [ {
                    "_type" : "property",
                    "parameters" : [ {
                      "_type" : "var",
                      "name" : "this"
                    } ],
                    "property" : "partyRole"
                  } ],
                  "property" : "role"
                }, {
                  "_type" : "property",
                  "parameters" : [ {
                    "_type" : "enum",
                    "fullPath" : "cdm::model::PartyRoleEnum"
                  } ],
                  "property" : "Buyer"
                } ]
              }, {
                "_type" : "func",
                "function" : "contains",
                "parameters" : [ {
                  "_type" : "property",
                  "parameters" : [ {
                    "_type" : "property",
                    "parameters" : [ {
                      "_type" : "var",
                      "name" : "this"
                    } ],
                    "property" : "partyRole"
                  } ],
                  "property" : "role"
                }, {
                  "_type" : "property",
                  "parameters" : [ {
                    "_type" : "enum",
                    "fullPath" : "cdm::model::PartyRoleEnum"
                  } ],
                  "property" : "Seller"
                } ]
              } ]
            } ],
            "parameters" : [ ]
          }, {
            "_type" : "lambda",
            "body" : [ {
              "_type" : "boolean",
              "multiplicity" : {
                "lowerBound" : 1,
                "upperBound" : 1
              },
              "values" : [ true ]
            } ],
            "parameters" : [ ]
          } ]
        } ],
        "parameters" : [ ]
      },
      "name" : "BothBuyerAndSellerPartyRolesMustExist"
    } ],
    "name" : "Affirmation",
    "package" : "cdm::model",
    "properties" : [ {
      "multiplicity" : {
        "lowerBound" : 1
      },
      "name" : "identifier",
      "taggedValues" : [ {
        "tag" : {
          "profile" : "meta::pure::profiles::doc",
          "value" : "doc"
        },
        "value" : "The identifier(s) associated with the trade and resulting confirmation."
      } ],
      "type" : "cdm::model::Identifier"
    }, {
      "multiplicity" : {
        "lowerBound" : 1
      },
      "name" : "party",
      "taggedValues" : [ {
        "tag" : {
          "profile" : "meta::pure::profiles::doc",
          "value" : "doc"
        },
        "value" : "The parties associated with the trade."
      } ],
      "type" : "cdm::model::Party"
    }, {
      "multiplicity" : {
        "lowerBound" : 1
      },
      "name" : "partyRole",
      "taggedValues" : [ {
        "tag" : {
          "profile" : "meta::pure::profiles::doc",
          "value" : "doc"
        },
        "value" : "The role(s) that party(ies) may have in relation to the trade"
      } ],
      "type" : "cdm::model::PartyRole"
    }, {
      "multiplicity" : {
        "lowerBound" : 0,
        "upperBound" : 1
      },
      "name" : "lineage",
      "taggedValues" : [ {
        "tag" : {
          "profile" : "meta::pure::profiles::doc",
          "value" : "doc"
        },
        "value" : "The lineage attribute provides a linkage to previous lifecycle events and associated data."
      } ],
      "type" : "cdm::model::Lineage"
    }, {
      "multiplicity" : {
        "lowerBound" : 1,
        "upperBound" : 1
      },
      "name" : "status",
      "type" : "cdm::model::AffirmationStatusEnum"
    } ],
    "taggedValues" : [ {
      "tag" : {
        "profile" : "meta::pure::profiles::doc",
        "value" : "doc"
      },
      "value" : "A class to specify a trade affirmation."
    } ]
  }
}