{
  "classifierPath" : "meta::pure::metamodel::type::Class",
  "content" : {
    "_type" : "class",
    "name" : "AncillaryParty",
    "package" : "cdm::model",
    "properties" : [ {
      "multiplicity" : {
        "lowerBound" : 1,
        "upperBound" : 1
      },
      "name" : "role",
      "taggedValues" : [ {
        "tag" : {
          "profile" : "meta::pure::profiles::doc",
          "value" : "doc"
        },
        "value" : "Specifies the AncillaryRoleEnum that is associated to the party reference. An ancillary party is any involved party that is not one of the two principal parties to the transaction."
      } ],
      "type" : "cdm::model::AncillaryRoleEnum"
    }, {
      "multiplicity" : {
        "lowerBound" : 1
      },
      "name" : "partyReference",
      "stereotypes" : [ {
        "profile" : "cdm::model::metadata",
        "value" : "reference"
      } ],
      "taggedValues" : [ {
        "tag" : {
          "profile" : "meta::pure::profiles::doc",
          "value" : "doc"
        },
        "value" : "Specifies the party, or parties, associated to the ancillary role."
      } ],
      "type" : "cdm::model::Party"
    }, {
      "multiplicity" : {
        "lowerBound" : 0,
        "upperBound" : 1
      },
      "name" : "onBehalfOf",
      "taggedValues" : [ {
        "tag" : {
          "profile" : "meta::pure::profiles::doc",
          "value" : "doc"
        },
        "value" : "Optionally specifies the counterparty that the ancillary party is acting on behalf of."
      } ],
      "type" : "cdm::model::CounterpartyRoleEnum"
    } ],
    "taggedValues" : [ {
      "tag" : {
        "profile" : "meta::pure::profiles::doc",
        "value" : "doc"
      },
      "value" : "Defines an ancillary role enumerated value with an associated party reference. The product is agnostic to the actual parties involved in the transaction, with the party references abstracted away from the product definition and replaced by the AncillaryRoleEnum. The AncillaryRoleEnum can then be positioned in the product and this AncillaryParty type, which is positioned outside of the product definition, allows the AncillaryRoleEnum to be associated with an actual party reference."
    } ]
  }
}