{
  "classifierPath" : "meta::pure::metamodel::type::Enumeration",
  "content" : {
    "_type" : "Enumeration",
    "name" : "AssetTypeEnum",
    "package" : "cdm::model",
    "values" : [ {
      "taggedValues" : [ {
        "tag" : {
          "profile" : "meta::pure::profiles::doc",
          "value" : "doc"
        },
        "value" : "Negotiable financial instrument of monetary value with an issue ownership position"
      } ],
      "value" : "Security"
    }, {
      "taggedValues" : [ {
        "tag" : {
          "profile" : "meta::pure::profiles::doc",
          "value" : "doc"
        },
        "value" : "Cash in a currency form"
      } ],
      "value" : "Cash"
    }, {
      "taggedValues" : [ {
        "tag" : {
          "profile" : "meta::pure::profiles::doc",
          "value" : "doc"
        },
        "value" : "A basic good used in commerce that is interchangeable with other goods of the same type."
      } ],
      "value" : "Commodity"
    }, {
      "taggedValues" : [ {
        "tag" : {
          "profile" : "meta::pure::profiles::doc",
          "value" : "doc"
        },
        "value" : "Other Collateral Products"
      } ],
      "value" : "Other"
    } ]
  }
}