{
  "classifierPath" : "meta::pure::metamodel::type::Class",
  "content" : {
    "_type" : "class",
    "name" : "AssetCriteria",
    "package" : "cdm::model",
    "properties" : [ {
      "multiplicity" : {
        "lowerBound" : 0
      },
      "name" : "collateralAssetType",
      "taggedValues" : [ {
        "tag" : {
          "profile" : "meta::pure::profiles::doc",
          "value" : "doc"
        },
        "value" : "Filter based on the asset product type."
      } ],
      "type" : "cdm::model::AssetType"
    }, {
      "multiplicity" : {
        "lowerBound" : 0
      },
      "name" : "assetCountryOfOrigin",
      "stereotypes" : [ {
        "profile" : "cdm::model::metadata",
        "value" : "scheme"
      } ],
      "taggedValues" : [ {
        "tag" : {
          "profile" : "meta::pure::profiles::doc",
          "value" : "doc"
        },
        "value" : "Filter based on the issuing entity country of origin."
      } ],
      "type" : "String"
    }, {
      "multiplicity" : {
        "lowerBound" : 0
      },
      "name" : "denominatedCurrency",
      "stereotypes" : [ {
        "profile" : "cdm::model::metadata",
        "value" : "scheme"
      } ],
      "taggedValues" : [ {
        "tag" : {
          "profile" : "meta::pure::profiles::doc",
          "value" : "doc"
        },
        "value" : "Filter based on the underlying asset denominated currency."
      } ],
      "type" : "String"
    }, {
      "multiplicity" : {
        "lowerBound" : 0
      },
      "name" : "agencyRating",
      "taggedValues" : [ {
        "tag" : {
          "profile" : "meta::pure::profiles::doc",
          "value" : "doc"
        },
        "value" : "Agency rating based on default risk and creditors claim in event of default associated with specific instrument."
      } ],
      "type" : "cdm::model::AgencyRatingCriteria"
    }, {
      "multiplicity" : {
        "lowerBound" : 0,
        "upperBound" : 1
      },
      "name" : "maturityType",
      "taggedValues" : [ {
        "tag" : {
          "profile" : "meta::pure::profiles::doc",
          "value" : "doc"
        },
        "value" : "Specifies whether the maturity range is the remaining or original maturity."
      } ],
      "type" : "cdm::model::MaturityTypeEnum"
    }, {
      "multiplicity" : {
        "lowerBound" : 0,
        "upperBound" : 1
      },
      "name" : "maturityRange",
      "taggedValues" : [ {
        "tag" : {
          "profile" : "meta::pure::profiles::doc",
          "value" : "doc"
        },
        "value" : "Filter based on the underlying asset maturity."
      } ],
      "type" : "cdm::model::PeriodRange"
    }, {
      "multiplicity" : {
        "lowerBound" : 0
      },
      "name" : "productIdentifier",
      "taggedValues" : [ {
        "tag" : {
          "profile" : "meta::pure::profiles::doc",
          "value" : "doc"
        },
        "value" : "Filter based on specific instrument identifiers (e.g. specific ISINs, CUSIPs etc)."
      } ],
      "type" : "cdm::model::ProductIdentifier"
    }, {
      "multiplicity" : {
        "lowerBound" : 0
      },
      "name" : "productTaxonomy",
      "taggedValues" : [ {
        "tag" : {
          "profile" : "meta::pure::profiles::doc",
          "value" : "doc"
        },
        "value" : "The product taxonomy value(s) associated with a product."
      } ],
      "type" : "cdm::model::ProductTaxonomy"
    }, {
      "multiplicity" : {
        "lowerBound" : 0,
        "upperBound" : 1
      },
      "name" : "domesticCurrencyIssued",
      "taggedValues" : [ {
        "tag" : {
          "profile" : "meta::pure::profiles::doc",
          "value" : "doc"
        },
        "value" : "Identifies that the Security must be denominated in the domestic currency of the issuer."
      } ],
      "type" : "Boolean"
    }, {
      "multiplicity" : {
        "lowerBound" : 0,
        "upperBound" : 1
      },
      "name" : "listing",
      "taggedValues" : [ {
        "tag" : {
          "profile" : "meta::pure::profiles::doc",
          "value" : "doc"
        },
        "value" : "Specifies the exchange, index or sector specific to listing of a security."
      } ],
      "type" : "cdm::model::ListingType"
    } ],
    "taggedValues" : [ {
      "tag" : {
        "profile" : "meta::pure::profiles::doc",
        "value" : "doc"
      },
      "value" : "Criteria used to specify eligible collateral assets."
    } ]
  }
}