{
  "classifierPath" : "meta::pure::metamodel::type::Class",
  "content" : {
    "_type" : "class",
    "constraints" : [ {
      "functionDefinition" : {
        "_type" : "lambda",
        "body" : [ {
          "_type" : "func",
          "function" : "or",
          "parameters" : [ {
            "_type" : "func",
            "function" : "or",
            "parameters" : [ {
              "_type" : "func",
              "function" : "and",
              "parameters" : [ {
                "_type" : "func",
                "function" : "isEmpty",
                "parameters" : [ {
                  "_type" : "property",
                  "parameters" : [ {
                    "_type" : "var",
                    "name" : "this"
                  } ],
                  "property" : "averagingDateTimes"
                } ]
              }, {
                "_type" : "func",
                "function" : "isEmpty",
                "parameters" : [ {
                  "_type" : "property",
                  "parameters" : [ {
                    "_type" : "var",
                    "name" : "this"
                  } ],
                  "property" : "averagingObservations"
                } ]
              } ]
            }, {
              "_type" : "func",
              "function" : "and",
              "parameters" : [ {
                "_type" : "func",
                "function" : "isNotEmpty",
                "parameters" : [ {
                  "_type" : "property",
                  "parameters" : [ {
                    "_type" : "var",
                    "name" : "this"
                  } ],
                  "property" : "averagingDateTimes"
                } ]
              }, {
                "_type" : "func",
                "function" : "isEmpty",
                "parameters" : [ {
                  "_type" : "property",
                  "parameters" : [ {
                    "_type" : "var",
                    "name" : "this"
                  } ],
                  "property" : "averagingObservations"
                } ]
              } ]
            } ]
          }, {
            "_type" : "func",
            "function" : "and",
            "parameters" : [ {
              "_type" : "func",
              "function" : "isNotEmpty",
              "parameters" : [ {
                "_type" : "property",
                "parameters" : [ {
                  "_type" : "var",
                  "name" : "this"
                } ],
                "property" : "averagingObservations"
              } ]
            }, {
              "_type" : "func",
              "function" : "isEmpty",
              "parameters" : [ {
                "_type" : "property",
                "parameters" : [ {
                  "_type" : "var",
                  "name" : "this"
                } ],
                "property" : "averagingDateTimes"
              } ]
            } ]
          } ]
        } ],
        "parameters" : [ ]
      },
      "name" : "AveragingPeriod_choice"
    } ],
    "name" : "AveragingPeriod",
    "package" : "cdm::model",
    "properties" : [ {
      "multiplicity" : {
        "lowerBound" : 0
      },
      "name" : "schedule",
      "taggedValues" : [ {
        "tag" : {
          "profile" : "meta::pure::profiles::doc",
          "value" : "doc"
        },
        "value" : "A schedule for generating averaging observation dates."
      } ],
      "type" : "cdm::model::AveragingSchedule"
    }, {
      "multiplicity" : {
        "lowerBound" : 0,
        "upperBound" : 1
      },
      "name" : "averagingDateTimes",
      "taggedValues" : [ {
        "tag" : {
          "profile" : "meta::pure::profiles::doc",
          "value" : "doc"
        },
        "value" : "An unweighted list of averaging observation date and times."
      } ],
      "type" : "cdm::model::DateTimeList"
    }, {
      "multiplicity" : {
        "lowerBound" : 0,
        "upperBound" : 1
      },
      "name" : "averagingObservations",
      "taggedValues" : [ {
        "tag" : {
          "profile" : "meta::pure::profiles::doc",
          "value" : "doc"
        },
        "value" : "A weighted list of averaging observation date and times."
      } ],
      "type" : "cdm::model::AveragingObservationList"
    }, {
      "multiplicity" : {
        "lowerBound" : 0,
        "upperBound" : 1
      },
      "name" : "marketDisruption",
      "stereotypes" : [ {
        "profile" : "cdm::model::metadata",
        "value" : "scheme"
      } ],
      "taggedValues" : [ {
        "tag" : {
          "profile" : "meta::pure::profiles::doc",
          "value" : "doc"
        },
        "value" : "The market disruption event as defined by ISDA 2002 Definitions."
      } ],
      "type" : "cdm::model::MarketDisruptionEnum"
    } ],
    "taggedValues" : [ {
      "tag" : {
        "profile" : "meta::pure::profiles::doc",
        "value" : "doc"
      },
      "value" : "Period over which an average value is taken."
    } ]
  }
}