{
  "classifierPath" : "meta::pure::metamodel::type::Class",
  "content" : {
    "_type" : "class",
    "name" : "BondPriceAndYieldModel",
    "package" : "cdm::model",
    "properties" : [ {
      "multiplicity" : {
        "lowerBound" : 0,
        "upperBound" : 1
      },
      "name" : "cleanOrDirtyPrice",
      "taggedValues" : [ {
        "tag" : {
          "profile" : "meta::pure::profiles::doc",
          "value" : "doc"
        },
        "value" : "Either the clean or dirty price of the bond."
      } ],
      "type" : "cdm::model::CleanOrDirtyPrice"
    }, {
      "multiplicity" : {
        "lowerBound" : 0,
        "upperBound" : 1
      },
      "name" : "relativePrice",
      "taggedValues" : [ {
        "tag" : {
          "profile" : "meta::pure::profiles::doc",
          "value" : "doc"
        },
        "value" : "Bond price relative to a Benchmark."
      } ],
      "type" : "cdm::model::RelativePrice"
    }, {
      "multiplicity" : {
        "lowerBound" : 0,
        "upperBound" : 1
      },
      "name" : "yieldToMaturity",
      "taggedValues" : [ {
        "tag" : {
          "profile" : "meta::pure::profiles::doc",
          "value" : "doc"
        },
        "value" : "Price specified as a yield to maturity."
      } ],
      "type" : "Float"
    }, {
      "multiplicity" : {
        "lowerBound" : 0,
        "upperBound" : 1
      },
      "name" : "inflationFactor",
      "taggedValues" : [ {
        "tag" : {
          "profile" : "meta::pure::profiles::doc",
          "value" : "doc"
        },
        "value" : "The inflation factor is specified for inflation-linked products which require some additional elements to calculate prices correctly."
      } ],
      "type" : "Float"
    }, {
      "multiplicity" : {
        "lowerBound" : 0,
        "upperBound" : 1
      },
      "name" : "allInPrice",
      "taggedValues" : [ {
        "tag" : {
          "profile" : "meta::pure::profiles::doc",
          "value" : "doc"
        },
        "value" : "Bond all-in-price which is a price that includes all relevant price adjustments (i.e. accrued interest, haircut or margin ratio, inflation factor,etc.). It expresses a price in terms of percentage of nominal amount."
      } ],
      "type" : "Float"
    } ],
    "taggedValues" : [ {
      "tag" : {
        "profile" : "meta::pure::profiles::doc",
        "value" : "doc"
      },
      "value" : "Bond price and yield valuation model for the security leg in a securities financing transaction, closely modelled onto the BondPriceAndYield.model in FpML."
    } ]
  }
}