{
  "classifierPath" : "meta::pure::metamodel::type::Class",
  "content" : {
    "_type" : "class",
    "name" : "BusinessDateRange",
    "package" : "cdm::model",
    "properties" : [ {
      "multiplicity" : {
        "lowerBound" : 1,
        "upperBound" : 1
      },
      "name" : "businessDayConvention",
      "taggedValues" : [ {
        "tag" : {
          "profile" : "meta::pure::profiles::doc",
          "value" : "doc"
        },
        "value" : "The convention for adjusting a date if it would otherwise fall on a day that is not a business day, as specified by an ISDA convention (e.g. Following, Precedent)."
      } ],
      "type" : "cdm::model::BusinessDayConventionEnum"
    }, {
      "multiplicity" : {
        "lowerBound" : 0,
        "upperBound" : 1
      },
      "name" : "businessCenters",
      "taggedValues" : [ {
        "tag" : {
          "profile" : "meta::pure::profiles::doc",
          "value" : "doc"
        },
        "value" : "The business center(s), specified either explicitly or by reference to those specified somewhere else in the instance document."
      } ],
      "type" : "cdm::model::BusinessCenters"
    } ],
    "superTypes" : [ "cdm::model::DateRange" ],
    "taggedValues" : [ {
      "tag" : {
        "profile" : "meta::pure::profiles::doc",
        "value" : "doc"
      },
      "value" : "A class defining a range of contiguous business days by defining an unadjusted first date, an unadjusted last date and a business day convention and business centers for adjusting the first and last dates if they would otherwise fall on a non business day in the specified business centers. The days between the first and last date must also be good business days in the specified centers to be counted in the range."
    } ]
  }
}