{
  "classifierPath" : "meta::pure::metamodel::type::Class",
  "content" : {
    "_type" : "class",
    "name" : "BuyerSeller",
    "package" : "cdm::model",
    "properties" : [ {
      "multiplicity" : {
        "lowerBound" : 1,
        "upperBound" : 1
      },
      "name" : "buyer",
      "taggedValues" : [ {
        "tag" : {
          "profile" : "meta::pure::profiles::doc",
          "value" : "doc"
        },
        "value" : "Buyer party that can be resolved as one of the two principal parties to the transaction. The party that buys this instrument, i.e. pays for this instrument and receives the rights defined by it. ISDA 2002 Equity Definitions section 1.18: `Buyer` means the party specified as such in the related Confirmation. | ISDA 2006 Definitions article 12.1 (b)(i) relating to a Swaption: 'Buyer' means the party that will, on each Premium Payment Date, pay to Seller the Premium | ISDA 2006 Definitions article 12.1 (b)(ii) relating to Swap Transactions with applicable Early Termination: the party specified as such in the related Confirmation, or the Exercising Party if neither party is specified | ISDA 2006 Definitions article 12.1 (b)(iii) relating to any other Option Transaction: the party specified as such in the related Confirmation. | ISDA 2014 Credit Definition article 1.4: `Buyer` means the Fixed Rate Payer."
      } ],
      "type" : "cdm::model::CounterpartyRoleEnum"
    }, {
      "multiplicity" : {
        "lowerBound" : 1,
        "upperBound" : 1
      },
      "name" : "seller",
      "taggedValues" : [ {
        "tag" : {
          "profile" : "meta::pure::profiles::doc",
          "value" : "doc"
        },
        "value" : "Seller party that can be resolved as one of the two principal parties to the transaction. The party that sells ('writes') this instrument, i.e. that grants the rights defined by this instrument and in return receives a payment for it. ISDA 2002 Equity Definitions section 1.19: `Seller` means the party specified as such in the related Confirmation. | ISDA 2006 Definitions article 12.1 (a)(i) relating to a Swaption: 'Seller' means the party the party specified as such or as writer in the related Confirmation | ISDA 2006 Definitions article 12.1 (a)(ii) relating to Swap Transactions with applicable Early Termination: the party specified as such or as writer in the related Confirmation or, if neither party is specified as such, the Non-exercising Party | ISDA 2006 Definitions article 12.1 (a)(iii) relating to any other Option Transaction: the party specified as such in the related Confirmation. | ISDA 2014 Credit Definition article 1.4: `Seller` means the Floating Rate Payer."
      } ],
      "type" : "cdm::model::CounterpartyRoleEnum"
    } ],
    "taggedValues" : [ {
      "tag" : {
        "profile" : "meta::pure::profiles::doc",
        "value" : "doc"
      },
      "value" : "This class corresponds to the FpML BuyerSeller.model construct."
    } ]
  }
}