{
  "classifierPath" : "meta::pure::metamodel::type::Class",
  "content" : {
    "_type" : "class",
    "name" : "CalculationCurrencyElection",
    "package" : "cdm::model",
    "properties" : [ {
      "multiplicity" : {
        "lowerBound" : 1,
        "upperBound" : 1
      },
      "name" : "party",
      "taggedValues" : [ {
        "tag" : {
          "profile" : "meta::pure::profiles::doc",
          "value" : "doc"
        },
        "value" : "The party which the SIMM Calculation Currency qualification applies to."
      } ],
      "type" : "cdm::model::CounterpartyRoleEnum"
    }, {
      "multiplicity" : {
        "lowerBound" : 1,
        "upperBound" : 1
      },
      "name" : "isBaseCurrency",
      "taggedValues" : [ {
        "tag" : {
          "profile" : "meta::pure::profiles::doc",
          "value" : "doc"
        },
        "value" : "The SIMM Calculation Currency (also known as SIMM Reporting Currency) means the Base Currency when True. It means a different currency when False. In that latter case, the SIMM Calculation Currency is specified as part of the currency attribute."
      } ],
      "type" : "Boolean"
    }, {
      "multiplicity" : {
        "lowerBound" : 0,
        "upperBound" : 1
      },
      "name" : "currency",
      "stereotypes" : [ {
        "profile" : "cdm::model::metadata",
        "value" : "scheme"
      } ],
      "taggedValues" : [ {
        "tag" : {
          "profile" : "meta::pure::profiles::doc",
          "value" : "doc"
        },
        "value" : "The currency in which the ISDA SIMM Calculation is denominated, when different from the Base Currency. The list of valid currencies is not presently positioned as an enumeration as part of the CDM because that scope is limited to the values specified by ISDA and FpML. As a result, implementers have to make reference to the relevant standard, such as the ISO 4217 standard for currency codes."
      } ],
      "type" : "String"
    } ],
    "taggedValues" : [ {
      "tag" : {
        "profile" : "meta::pure::profiles::doc",
        "value" : "doc"
      },
      "value" : "A class to specify the ISDA SIMM Calculation Currency as either the Base Currency or an alternative currency. ISDA 2016 CSA for Initial Margin, Paragraph 13, General Principles (ee)(3). | ISDA 2018 CSA for Initial Margin, Paragraph 13, General Principles (ee)(3)."
    } ]
  }
}