{
  "classifierPath" : "meta::pure::metamodel::type::Class",
  "content" : {
    "_type" : "class",
    "constraints" : [ {
      "functionDefinition" : {
        "_type" : "lambda",
        "body" : [ {
          "_type" : "func",
          "function" : "or",
          "parameters" : [ {
            "_type" : "func",
            "function" : "or",
            "parameters" : [ {
              "_type" : "func",
              "function" : "and",
              "parameters" : [ {
                "_type" : "func",
                "function" : "isEmpty",
                "parameters" : [ {
                  "_type" : "property",
                  "parameters" : [ {
                    "_type" : "var",
                    "name" : "this"
                  } ],
                  "property" : "cashSettlementAmount"
                } ]
              }, {
                "_type" : "func",
                "function" : "isEmpty",
                "parameters" : [ {
                  "_type" : "property",
                  "parameters" : [ {
                    "_type" : "var",
                    "name" : "this"
                  } ],
                  "property" : "recoveryFactor"
                } ]
              } ]
            }, {
              "_type" : "func",
              "function" : "and",
              "parameters" : [ {
                "_type" : "func",
                "function" : "isNotEmpty",
                "parameters" : [ {
                  "_type" : "property",
                  "parameters" : [ {
                    "_type" : "var",
                    "name" : "this"
                  } ],
                  "property" : "cashSettlementAmount"
                } ]
              }, {
                "_type" : "func",
                "function" : "isEmpty",
                "parameters" : [ {
                  "_type" : "property",
                  "parameters" : [ {
                    "_type" : "var",
                    "name" : "this"
                  } ],
                  "property" : "recoveryFactor"
                } ]
              } ]
            } ]
          }, {
            "_type" : "func",
            "function" : "and",
            "parameters" : [ {
              "_type" : "func",
              "function" : "isNotEmpty",
              "parameters" : [ {
                "_type" : "property",
                "parameters" : [ {
                  "_type" : "var",
                  "name" : "this"
                } ],
                "property" : "recoveryFactor"
              } ]
            }, {
              "_type" : "func",
              "function" : "isEmpty",
              "parameters" : [ {
                "_type" : "property",
                "parameters" : [ {
                  "_type" : "var",
                  "name" : "this"
                } ],
                "property" : "cashSettlementAmount"
              } ]
            } ]
          } ]
        } ],
        "parameters" : [ ]
      },
      "name" : "CashSettlementTerms_choice"
    }, {
      "functionDefinition" : {
        "_type" : "lambda",
        "body" : [ {
          "_type" : "func",
          "function" : "if",
          "parameters" : [ {
            "_type" : "func",
            "function" : "isNotEmpty",
            "parameters" : [ {
              "_type" : "property",
              "parameters" : [ {
                "_type" : "var",
                "name" : "this"
              } ],
              "property" : "cashSettlementBusinessDays"
            } ]
          }, {
            "_type" : "lambda",
            "body" : [ {
              "_type" : "func",
              "function" : "greaterThanEqual",
              "parameters" : [ {
                "_type" : "property",
                "parameters" : [ {
                  "_type" : "var",
                  "name" : "this"
                } ],
                "property" : "cashSettlementBusinessDays"
              }, {
                "_type" : "integer",
                "multiplicity" : {
                  "lowerBound" : 1,
                  "upperBound" : 1
                },
                "values" : [ 0 ]
              } ]
            } ],
            "parameters" : [ ]
          }, {
            "_type" : "lambda",
            "body" : [ {
              "_type" : "boolean",
              "multiplicity" : {
                "lowerBound" : 1,
                "upperBound" : 1
              },
              "values" : [ true ]
            } ],
            "parameters" : [ ]
          } ]
        } ],
        "parameters" : [ ]
      },
      "name" : "CashSettlementTerms_cashSettlementBusinessDays"
    }, {
      "functionDefinition" : {
        "_type" : "lambda",
        "body" : [ {
          "_type" : "func",
          "function" : "if",
          "parameters" : [ {
            "_type" : "func",
            "function" : "isNotEmpty",
            "parameters" : [ {
              "_type" : "property",
              "parameters" : [ {
                "_type" : "var",
                "name" : "this"
              } ],
              "property" : "recoveryFactor"
            } ]
          }, {
            "_type" : "lambda",
            "body" : [ {
              "_type" : "func",
              "function" : "and",
              "parameters" : [ {
                "_type" : "func",
                "function" : "greaterThanEqual",
                "parameters" : [ {
                  "_type" : "property",
                  "parameters" : [ {
                    "_type" : "var",
                    "name" : "this"
                  } ],
                  "property" : "recoveryFactor"
                }, {
                  "_type" : "float",
                  "multiplicity" : {
                    "lowerBound" : 1,
                    "upperBound" : 1
                  },
                  "values" : [ 0 ]
                } ]
              }, {
                "_type" : "func",
                "function" : "lessThanEqual",
                "parameters" : [ {
                  "_type" : "property",
                  "parameters" : [ {
                    "_type" : "var",
                    "name" : "this"
                  } ],
                  "property" : "recoveryFactor"
                }, {
                  "_type" : "float",
                  "multiplicity" : {
                    "lowerBound" : 1,
                    "upperBound" : 1
                  },
                  "values" : [ 1 ]
                } ]
              } ]
            } ],
            "parameters" : [ ]
          }, {
            "_type" : "lambda",
            "body" : [ {
              "_type" : "boolean",
              "multiplicity" : {
                "lowerBound" : 1,
                "upperBound" : 1
              },
              "values" : [ true ]
            } ],
            "parameters" : [ ]
          } ]
        } ],
        "parameters" : [ ]
      },
      "name" : "CashSettlementTerms_recoveryFactor"
    }, {
      "functionDefinition" : {
        "_type" : "lambda",
        "body" : [ {
          "_type" : "func",
          "function" : "if",
          "parameters" : [ {
            "_type" : "func",
            "function" : "and",
            "parameters" : [ {
              "_type" : "func",
              "function" : "and",
              "parameters" : [ {
                "_type" : "func",
                "function" : "isNotEmpty",
                "parameters" : [ {
                  "_type" : "property",
                  "parameters" : [ {
                    "_type" : "var",
                    "name" : "this"
                  } ],
                  "property" : "quotationAmount"
                } ]
              }, {
                "_type" : "func",
                "function" : "isNotEmpty",
                "parameters" : [ {
                  "_type" : "property",
                  "parameters" : [ {
                    "_type" : "var",
                    "name" : "this"
                  } ],
                  "property" : "minimumQuotationAmout"
                } ]
              } ]
            }, {
              "_type" : "func",
              "function" : "equal",
              "parameters" : [ {
                "_type" : "property",
                "parameters" : [ {
                  "_type" : "property",
                  "parameters" : [ {
                    "_type" : "var",
                    "name" : "this"
                  } ],
                  "property" : "quotationAmount"
                } ],
                "property" : "currency"
              }, {
                "_type" : "property",
                "parameters" : [ {
                  "_type" : "property",
                  "parameters" : [ {
                    "_type" : "var",
                    "name" : "this"
                  } ],
                  "property" : "minimumQuotationAmout"
                } ],
                "property" : "currency"
              } ]
            } ]
          }, {
            "_type" : "lambda",
            "body" : [ {
              "_type" : "func",
              "function" : "greaterThan",
              "parameters" : [ {
                "_type" : "property",
                "parameters" : [ {
                  "_type" : "property",
                  "parameters" : [ {
                    "_type" : "var",
                    "name" : "this"
                  } ],
                  "property" : "quotationAmount"
                } ],
                "property" : "amount"
              }, {
                "_type" : "property",
                "parameters" : [ {
                  "_type" : "property",
                  "parameters" : [ {
                    "_type" : "var",
                    "name" : "this"
                  } ],
                  "property" : "minimumQuotationAmout"
                } ],
                "property" : "amount"
              } ]
            } ],
            "parameters" : [ ]
          }, {
            "_type" : "lambda",
            "body" : [ {
              "_type" : "boolean",
              "multiplicity" : {
                "lowerBound" : 1,
                "upperBound" : 1
              },
              "values" : [ true ]
            } ],
            "parameters" : [ ]
          } ]
        } ],
        "parameters" : [ ]
      },
      "name" : "FpML_cd_37"
    } ],
    "name" : "CashSettlementTerms",
    "package" : "cdm::model",
    "properties" : [ {
      "multiplicity" : {
        "lowerBound" : 0,
        "upperBound" : 1
      },
      "name" : "valuationDate",
      "taggedValues" : [ {
        "tag" : {
          "profile" : "meta::pure::profiles::doc",
          "value" : "doc"
        },
        "value" : "The number of business days after conditions to settlement have been satisfied when the calculation agent obtains a price quotation on the Reference Obligation for purposes of cash settlement. There may be one or more valuation dates. This is typically specified if the cash settlement amount is not a fixed amount. ISDA 2003 Term: Valuation Date."
      } ],
      "type" : "cdm::model::ValuationDate"
    }, {
      "multiplicity" : {
        "lowerBound" : 0,
        "upperBound" : 1
      },
      "name" : "valuationTime",
      "taggedValues" : [ {
        "tag" : {
          "profile" : "meta::pure::profiles::doc",
          "value" : "doc"
        },
        "value" : "The time of day in the specified business center when the calculation agent seeks quotations for an amount of the reference obligation for purposes of cash settlement. ISDA 2003 Term: Valuation Time."
      } ],
      "type" : "cdm::model::BusinessCenterTime"
    }, {
      "multiplicity" : {
        "lowerBound" : 0,
        "upperBound" : 1
      },
      "name" : "quotationMethod",
      "taggedValues" : [ {
        "tag" : {
          "profile" : "meta::pure::profiles::doc",
          "value" : "doc"
        },
        "value" : "The type of price quotations to be requested from dealers when determining the market value of the reference obligation for purposes of cash settlement. For example, Bid, Offer or Mid-market. ISDA 2003 Term: Quotation Method."
      } ],
      "type" : "cdm::model::QuotationRateTypeEnum"
    }, {
      "multiplicity" : {
        "lowerBound" : 0,
        "upperBound" : 1
      },
      "name" : "quotationAmount",
      "taggedValues" : [ {
        "tag" : {
          "profile" : "meta::pure::profiles::doc",
          "value" : "doc"
        },
        "value" : "In the determination of a cash settlement amount, if weighted average quotations are to be obtained, the quotation amount specifies an upper limit to the outstanding principal balance of the reference obligation for which the quote should be obtained. If not specified, the ISDA definitions provide for a fallback amount equal to the floating rate payer calculation amount. ISDA 2003 Term: Quotation Amount."
      } ],
      "type" : "cdm::model::Money"
    }, {
      "multiplicity" : {
        "lowerBound" : 0,
        "upperBound" : 1
      },
      "name" : "minimumQuotationAmout",
      "taggedValues" : [ {
        "tag" : {
          "profile" : "meta::pure::profiles::doc",
          "value" : "doc"
        },
        "value" : "In the determination of a cash settlement amount, if weighted average quotations are to be obtained, the minimum quotation amount specifies a minimum intended threshold amount of outstanding principal balance of the reference obligation for which the quote should be obtained. If not specified, the ISDA definitions provide for a fallback amount of the lower of either USD 1,000,000 (or its equivalent in the relevant obligation currency) or the quotation amount. ISDA 2003 Term: Minimum Quotation Amount."
      } ],
      "type" : "cdm::model::Money"
    }, {
      "multiplicity" : {
        "lowerBound" : 0,
        "upperBound" : 1
      },
      "name" : "dealer",
      "taggedValues" : [ {
        "tag" : {
          "profile" : "meta::pure::profiles::doc",
          "value" : "doc"
        },
        "value" : "A dealer from whom quotations are obtained by the calculation agent on the reference obligation for purposes of cash settlement. ISDA 2003 Term: Dealer."
      } ],
      "type" : "String"
    }, {
      "multiplicity" : {
        "lowerBound" : 0,
        "upperBound" : 1
      },
      "name" : "cashSettlementBusinessDays",
      "taggedValues" : [ {
        "tag" : {
          "profile" : "meta::pure::profiles::doc",
          "value" : "doc"
        },
        "value" : "The number of business days used in the determination of the cash settlement payment date. If a cash settlement amount is specified, the cash settlement payment date will be this number of business days following the calculation of the final price. If a cash settlement amount is not specified, the cash settlement payment date will be this number of business days after all conditions to settlement are satisfied. ISDA 2003 Term: Cash Settlement Date."
      } ],
      "type" : "Integer"
    }, {
      "multiplicity" : {
        "lowerBound" : 0,
        "upperBound" : 1
      },
      "name" : "cashSettlementAmount",
      "taggedValues" : [ {
        "tag" : {
          "profile" : "meta::pure::profiles::doc",
          "value" : "doc"
        },
        "value" : "The amount paid by the seller to the buyer for cash settlement on the cash settlement date. If not otherwise specified, would typically be calculated as 100 (or the Reference Price) minus the price of the Reference Obligation (all expressed as a percentage) times Floating Rate Payer Calculation Amount. ISDA 2003 Term: Cash Settlement Amount."
      } ],
      "type" : "cdm::model::Money"
    }, {
      "multiplicity" : {
        "lowerBound" : 0,
        "upperBound" : 1
      },
      "name" : "recoveryFactor",
      "taggedValues" : [ {
        "tag" : {
          "profile" : "meta::pure::profiles::doc",
          "value" : "doc"
        },
        "value" : "Used for fixed recovery, specifies the recovery level, determined at contract formation, to be applied on a default. Used to calculate the amount paid by the seller to the buyer for cash settlement on the cash settlement date. Amount calculation is (1 minus the Recovery Factor) multiplied by the Floating Rate Payer Calculation Amount. The currency will be derived from the Floating Rate Payer Calculation Amount."
      } ],
      "type" : "Float"
    }, {
      "multiplicity" : {
        "lowerBound" : 0,
        "upperBound" : 1
      },
      "name" : "fixedSettlement",
      "taggedValues" : [ {
        "tag" : {
          "profile" : "meta::pure::profiles::doc",
          "value" : "doc"
        },
        "value" : "Used for Recovery Lock, to indicate whether fixed Settlement is Applicable or Not Applicable. If Buyer fails to deliver an effective Notice of Physical Settlement on or before the Buyer NOPS Cut-off Date, and if Seller fails to deliver an effective Seller NOPS on or before the Seller NOPS Cut-off Date, then either: (a) if Fixed Settlement is specified in the related Confirmation as not applicable, then the Seller NOPS Cut-off Date shall be the Termination Date; or (b) if Fixed Settlement is specified in the related Confirmation as applicable, then: (i) if the Fixed Settlement Amount is a positive number, Seller shall, subject to Section 3.1 (except for the requirement of satisfaction of the Notice of Physical Settlement Condition to Settlement), pay the Fixed Settlement Amount to Buyer on the Fixed Settlement Payment Date; and (ii) if the Fixed Settlement Amount is a negative number, Buyer shall, subject to Section 3.1 (except for the requirement of satisfaction of the Notice of Physical Settlement Condition to Settlement), pay the absolute value of the Fixed Settlement Amount to Seller on the Fixed Settlement Payment Date."
      } ],
      "type" : "Boolean"
    }, {
      "multiplicity" : {
        "lowerBound" : 0,
        "upperBound" : 1
      },
      "name" : "accruedInterest",
      "taggedValues" : [ {
        "tag" : {
          "profile" : "meta::pure::profiles::doc",
          "value" : "doc"
        },
        "value" : "Indicates whether accrued interest is included (true) or not (false). For cash settlement this specifies whether quotations should be obtained inclusive or not of accrued interest. For physical settlement this specifies whether the buyer should deliver the obligation with an outstanding principal balance that includes or excludes accrued interest. ISDA 2003 Term: Include/Exclude Accrued Interest."
      } ],
      "type" : "Boolean"
    }, {
      "multiplicity" : {
        "lowerBound" : 0,
        "upperBound" : 1
      },
      "name" : "valuationMethod",
      "taggedValues" : [ {
        "tag" : {
          "profile" : "meta::pure::profiles::doc",
          "value" : "doc"
        },
        "value" : "The ISDA defined methodology for determining the final price of the reference obligation for purposes of cash settlement. (ISDA 2003 Term: Valuation Method). For example, Market, Highest etc."
      } ],
      "type" : "cdm::model::ValuationMethodEnum"
    } ],
    "superTypes" : [ "cdm::model::SettlementBase" ],
    "taggedValues" : [ {
      "tag" : {
        "profile" : "meta::pure::profiles::doc",
        "value" : "doc"
      },
      "value" : "In FpML, PhysicalSettlementTerms and CashSettlementTerms extend SettlementTerms. In the CDM, this extension paradigm has not been used because SettlementTerms class has been used for purposes related to securities transactions, while it is not used as such in the FpML standard (i.e. only as an abstract construct."
    } ]
  }
}