{
  "classifierPath" : "meta::pure::metamodel::type::Class",
  "content" : {
    "_type" : "class",
    "name" : "CashTransferComponent",
    "package" : "cdm::model",
    "properties" : [ {
      "multiplicity" : {
        "lowerBound" : 1,
        "upperBound" : 1
      },
      "name" : "payerReceiver",
      "taggedValues" : [ {
        "tag" : {
          "profile" : "meta::pure::profiles::doc",
          "value" : "doc"
        },
        "value" : "The payer and receiver party information."
      } ],
      "type" : "cdm::model::PartyReferencePayerReceiver"
    }, {
      "multiplicity" : {
        "lowerBound" : 1,
        "upperBound" : 1
      },
      "name" : "amount",
      "taggedValues" : [ {
        "tag" : {
          "profile" : "meta::pure::profiles::doc",
          "value" : "doc"
        },
        "value" : "The currency amount."
      } ],
      "type" : "cdm::model::Money"
    }, {
      "multiplicity" : {
        "lowerBound" : 0,
        "upperBound" : 1
      },
      "name" : "cashflowType",
      "taggedValues" : [ {
        "tag" : {
          "profile" : "meta::pure::profiles::doc",
          "value" : "doc"
        },
        "value" : "The qualification of the type of cashflow, when not inferred from a derived through lineage e.g. brokerage fee, premium, upfront fee etc."
      } ],
      "type" : "cdm::model::CashflowTypeEnum"
    }, {
      "multiplicity" : {
        "lowerBound" : 0
      },
      "name" : "breakdown",
      "taggedValues" : [ {
        "tag" : {
          "profile" : "meta::pure::profiles::doc",
          "value" : "doc"
        },
        "value" : "The cash transfer breakdown, when the transfer corresponds to a net amount across several components which breakdown is deemed relevant (e.g. the net cash transfer related to several contracts, or to the net proceeds across several payout components)."
      } ],
      "type" : "cdm::model::CashTransferBreakdown"
    } ],
    "superTypes" : [ "cdm::model::TransferBase" ]
  }
}