{
  "classifierPath" : "meta::pure::metamodel::type::Class",
  "content" : {
    "_type" : "class",
    "name" : "CollateralProvisions",
    "package" : "cdm::model",
    "properties" : [ {
      "multiplicity" : {
        "lowerBound" : 1,
        "upperBound" : 1
      },
      "name" : "collateralType",
      "taggedValues" : [ {
        "tag" : {
          "profile" : "meta::pure::profiles::doc",
          "value" : "doc"
        },
        "value" : "Cash or NonCash collateral"
      } ],
      "type" : "cdm::model::CollateralTypeEnum"
    }, {
      "multiplicity" : {
        "lowerBound" : 0,
        "upperBound" : 1
      },
      "name" : "marginPercentage",
      "taggedValues" : [ {
        "tag" : {
          "profile" : "meta::pure::profiles::doc",
          "value" : "doc"
        },
        "value" : "Specification of the valuation treatment for the specified collateral."
      } ],
      "type" : "cdm::model::CollateralValuationPercentage"
    }, {
      "multiplicity" : {
        "lowerBound" : 0
      },
      "name" : "eligibleCollateral",
      "taggedValues" : [ {
        "tag" : {
          "profile" : "meta::pure::profiles::doc",
          "value" : "doc"
        },
        "value" : "The eligible collateral as specified in relation to the transaction."
      } ],
      "type" : "cdm::model::EligibleCollateralSchedule"
    } ],
    "taggedValues" : [ {
      "tag" : {
        "profile" : "meta::pure::profiles::doc",
        "value" : "doc"
      },
      "value" : "Contains collateral attributes which can also inherit information from a master agreement."
    } ]
  }
}