{
  "classifierPath" : "meta::pure::metamodel::type::Enumeration",
  "content" : {
    "_type" : "Enumeration",
    "name" : "CommodityInformationPublisherEnum",
    "package" : "cdm::model",
    "taggedValues" : [ {
      "tag" : {
        "profile" : "meta::pure::profiles::doc",
        "value" : "doc"
      },
      "value" : "Defines a publication in which the price can be found. (e.g Gas Daily, Platts Bloomberg."
    } ],
    "values" : [ {
      "value" : "Argus"
    }, {
      "value" : "ArgusMcCloskeys"
    }, {
      "value" : "ArgusAmericasCrudeReport"
    } ]
  }
}