{
  "classifierPath" : "meta::pure::metamodel::type::Class",
  "content" : {
    "_type" : "class",
    "name" : "ConcentrationLimit",
    "package" : "cdm::model",
    "properties" : [ {
      "multiplicity" : {
        "lowerBound" : 0,
        "upperBound" : 1
      },
      "name" : "concentrationLimitType",
      "taggedValues" : [ {
        "tag" : {
          "profile" : "meta::pure::profiles::doc",
          "value" : "doc"
        },
        "value" : "The type of concentration limit to be applied."
      } ],
      "type" : "cdm::model::ConcentrationLimitTypeEnum"
    }, {
      "multiplicity" : {
        "lowerBound" : 0
      },
      "name" : "concentrationLimitCriteria",
      "taggedValues" : [ {
        "tag" : {
          "profile" : "meta::pure::profiles::doc",
          "value" : "doc"
        },
        "value" : "A set of criteria to describe specific assets that the concentration limits apply to."
      } ],
      "type" : "cdm::model::ConcentrationLimitCriteria"
    }, {
      "multiplicity" : {
        "lowerBound" : 0,
        "upperBound" : 1
      },
      "name" : "valueCap",
      "taggedValues" : [ {
        "tag" : {
          "profile" : "meta::pure::profiles::doc",
          "value" : "doc"
        },
        "value" : "value of collateral limit cap-represented as a numerical value"
      } ],
      "type" : "cdm::model::Money"
    }, {
      "multiplicity" : {
        "lowerBound" : 0,
        "upperBound" : 1
      },
      "name" : "percentageCap",
      "taggedValues" : [ {
        "tag" : {
          "profile" : "meta::pure::profiles::doc",
          "value" : "doc"
        },
        "value" : "perecentage of collateral limit cap-represented as a decimal number - example 25% is 0.25"
      } ],
      "type" : "Float"
    } ],
    "taggedValues" : [ {
      "tag" : {
        "profile" : "meta::pure::profiles::doc",
        "value" : "doc"
      },
      "value" : "A class to describe concentration limits that may be applicable to eligible collateral criteria."
    } ]
  }
}