{
  "classifierPath" : "meta::pure::metamodel::type::Class",
  "content" : {
    "_type" : "class",
    "name" : "ContractualProduct",
    "package" : "cdm::model",
    "properties" : [ {
      "multiplicity" : {
        "lowerBound" : 0,
        "upperBound" : 1
      },
      "name" : "productIdentification",
      "taggedValues" : [ {
        "tag" : {
          "profile" : "meta::pure::profiles::doc",
          "value" : "doc"
        },
        "value" : "The product identification value(s) that might be associated with a contractual product. The CDM provides the ability to associate several product identification methods with a product."
      } ],
      "type" : "cdm::model::ProductIdentification"
    }, {
      "multiplicity" : {
        "lowerBound" : 0
      },
      "name" : "productTaxonomy",
      "taggedValues" : [ {
        "tag" : {
          "profile" : "meta::pure::profiles::doc",
          "value" : "doc"
        },
        "value" : "The product taxonomy value(s) associated with a contractual product."
      } ],
      "type" : "cdm::model::ProductTaxonomy"
    }, {
      "multiplicity" : {
        "lowerBound" : 1,
        "upperBound" : 1
      },
      "name" : "economicTerms",
      "taggedValues" : [ {
        "tag" : {
          "profile" : "meta::pure::profiles::doc",
          "value" : "doc"
        },
        "value" : "The economic terms associated with a contractual product, i.e. the set of features that are price-forming."
      } ],
      "type" : "cdm::model::EconomicTerms"
    } ],
    "stereotypes" : [ {
      "profile" : "cdm::model::metadata",
      "value" : "key"
    }, {
      "profile" : "cdm::model::metadata",
      "value" : "template"
    } ],
    "taggedValues" : [ {
      "tag" : {
        "profile" : "meta::pure::profiles::doc",
        "value" : "doc"
      },
      "value" : "A class to specify the contractual products' economic terms, alongside their product identification and product taxonomy. The contractual product class is meant to be used across the pre-execution, execution and (as part of the Contract) post-execution lifecycle contexts."
    } ]
  }
}