{
  "classifierPath" : "meta::pure::metamodel::type::Class",
  "content" : {
    "_type" : "class",
    "constraints" : [ {
      "functionDefinition" : {
        "_type" : "lambda",
        "body" : [ {
          "_type" : "func",
          "function" : "if",
          "parameters" : [ {
            "_type" : "func",
            "function" : "equal",
            "parameters" : [ {
              "_type" : "property",
              "parameters" : [ {
                "_type" : "var",
                "name" : "this"
              } ],
              "property" : "creditSupportProviderTerms"
            }, {
              "_type" : "property",
              "parameters" : [ {
                "_type" : "enum",
                "fullPath" : "cdm::model::CreditSupportProviderTermsEnum"
              } ],
              "property" : "Specified"
            } ]
          }, {
            "_type" : "lambda",
            "body" : [ {
              "_type" : "func",
              "function" : "isNotEmpty",
              "parameters" : [ {
                "_type" : "property",
                "parameters" : [ {
                  "_type" : "var",
                  "name" : "this"
                } ],
                "property" : "creditSupportProvider"
              } ]
            } ],
            "parameters" : [ ]
          }, {
            "_type" : "lambda",
            "body" : [ {
              "_type" : "boolean",
              "multiplicity" : {
                "lowerBound" : 1,
                "upperBound" : 1
              },
              "values" : [ true ]
            } ],
            "parameters" : [ ]
          } ]
        } ],
        "parameters" : [ ]
      },
      "name" : "creditSupportProvider"
    } ],
    "name" : "CreditSupportProviderElection",
    "package" : "cdm::model",
    "properties" : [ {
      "multiplicity" : {
        "lowerBound" : 1,
        "upperBound" : 1
      },
      "name" : "party",
      "taggedValues" : [ {
        "tag" : {
          "profile" : "meta::pure::profiles::doc",
          "value" : "doc"
        },
        "value" : "The elective party"
      } ],
      "type" : "cdm::model::Party"
    }, {
      "multiplicity" : {
        "lowerBound" : 1,
        "upperBound" : 1
      },
      "name" : "creditSupportProviderTerms",
      "taggedValues" : [ {
        "tag" : {
          "profile" : "meta::pure::profiles::doc",
          "value" : "doc"
        },
        "value" : "Specification of the Credit Support Provider terms."
      } ],
      "type" : "cdm::model::CreditSupportProviderTermsEnum"
    }, {
      "multiplicity" : {
        "lowerBound" : 0
      },
      "name" : "creditSupportProvider",
      "taggedValues" : [ {
        "tag" : {
          "profile" : "meta::pure::profiles::doc",
          "value" : "doc"
        },
        "value" : "The specifed Credit Support Provider(s), if any."
      } ],
      "type" : "cdm::model::LegalEntity"
    }, {
      "multiplicity" : {
        "lowerBound" : 0,
        "upperBound" : 1
      },
      "name" : "bespokeCreditSuppportProvider",
      "taggedValues" : [ {
        "tag" : {
          "profile" : "meta::pure::profiles::doc",
          "value" : "doc"
        },
        "value" : "..."
      } ],
      "type" : "String"
    } ],
    "taggedValues" : [ {
      "tag" : {
        "profile" : "meta::pure::profiles::doc",
        "value" : "doc"
      },
      "value" : "The party election of Credit Support Provider(s), if any."
    } ]
  }
}