{
  "classifierPath" : "meta::pure::metamodel::type::Class",
  "content" : {
    "_type" : "class",
    "name" : "CreditSupportObligations",
    "package" : "cdm::model",
    "properties" : [ {
      "multiplicity" : {
        "lowerBound" : 0,
        "upperBound" : 1
      },
      "name" : "deliveryAmount",
      "taggedValues" : [ {
        "tag" : {
          "profile" : "meta::pure::profiles::doc",
          "value" : "doc"
        },
        "value" : "Delivery Amount (VM) has the meaning specified in Paragraph 3(a), unless otherwise specified here."
      } ],
      "type" : "String"
    }, {
      "multiplicity" : {
        "lowerBound" : 0,
        "upperBound" : 1
      },
      "name" : "returnAmount",
      "taggedValues" : [ {
        "tag" : {
          "profile" : "meta::pure::profiles::doc",
          "value" : "doc"
        },
        "value" : "Return Amount (VM) has the meaning specified in Paragraph 3(a), unless otherwise specified here."
      } ],
      "type" : "String"
    }, {
      "multiplicity" : {
        "lowerBound" : 0,
        "upperBound" : 1
      },
      "name" : "marginApproach",
      "taggedValues" : [ {
        "tag" : {
          "profile" : "meta::pure::profiles::doc",
          "value" : "doc"
        },
        "value" : "The selection of Margin Approach applicable to the agreement."
      } ],
      "type" : "cdm::model::MarginApproach"
    }, {
      "multiplicity" : {
        "lowerBound" : 0,
        "upperBound" : 1
      },
      "name" : "otherEligibleSupport",
      "taggedValues" : [ {
        "tag" : {
          "profile" : "meta::pure::profiles::doc",
          "value" : "doc"
        },
        "value" : "The Other Eligible Support election. If not specified, this election is deemed as not applicable."
      } ],
      "type" : "String"
    }, {
      "multiplicity" : {
        "lowerBound" : 1,
        "upperBound" : 1
      },
      "name" : "threshold",
      "taggedValues" : [ {
        "tag" : {
          "profile" : "meta::pure::profiles::doc",
          "value" : "doc"
        },
        "value" : "The amount of net exposure that a party is willing to bear in relation to the other party before it requires asking for collateral. ISDA 2016 English Law Credit Support Deed for Initial Margin, paragraph 13, General Principles, (c)(vi)(A): Threshold. | ISDA 2016 Japanese Law Credit Support Annex for Initial Margin, paragraph 13, General Principles, (d)(vi)(A): Threshold. | ISDA 2016 New York Law Credit Support Annex for Initial Margin, paragraph 13, General Principles, (c)(vi)(A): Threshold."
      } ],
      "type" : "cdm::model::Threshold"
    }, {
      "multiplicity" : {
        "lowerBound" : 1,
        "upperBound" : 1
      },
      "name" : "minimumTransferAmount",
      "taggedValues" : [ {
        "tag" : {
          "profile" : "meta::pure::profiles::doc",
          "value" : "doc"
        },
        "value" : "The net amount of exposure reached before collateral has to be posted or returned. ISDA 2016 English Law Credit Support Deed for Initial Margin, paragraph 13, General Principles, (c)(vi)(B): Minimum Transfer Amount. | ISDA 2016 Japanese Law Credit Support Annex for Initial Margin, paragraph 13, General Principles, (d)(vi)(B): Minimum Transfer Amount. | ISDA 2016 New York Law Credit Support Annex for Initial Margin, paragraph 13, General Principles, (c)(vi)(B): Minimum Transfer Amount."
      } ],
      "type" : "cdm::model::MinimumTransferAmount"
    }, {
      "multiplicity" : {
        "lowerBound" : 0,
        "upperBound" : 1
      },
      "name" : "rounding",
      "taggedValues" : [ {
        "tag" : {
          "profile" : "meta::pure::profiles::doc",
          "value" : "doc"
        },
        "value" : "The rounding methodology applicable to the Delivery Amount and the Return Amount in terms of nearest integral multiple of Base Currency units. ISDA 2016 English Law Credit Support Deed for Initial Margin, paragraph 13, General Principles, (c)(vi)(C): Rounding. | ISDA 2016 Japanese Law Credit Support Annex for Initial Margin, paragraph 13, General Principles, (d)(vi)(C): Rounding. | ISDA 2016 New York Law Credit Support Annex for Initial Margin, paragraph 13, General Principles, (c)(vi)(C): Rounding."
      } ],
      "type" : "cdm::model::CollateralRounding"
    }, {
      "multiplicity" : {
        "lowerBound" : 0,
        "upperBound" : 1
      },
      "name" : "bespokeTransferTiming",
      "taggedValues" : [ {
        "tag" : {
          "profile" : "meta::pure::profiles::doc",
          "value" : "doc"
        },
        "value" : "The time by which the transfer of collateral must take place when different from the Regular Settlement Day as a result of parties' election."
      } ],
      "type" : "cdm::model::BespokeTransferTiming"
    }, {
      "multiplicity" : {
        "lowerBound" : 0,
        "upperBound" : 1
      },
      "name" : "creditSupportObligationsVariationMargin",
      "taggedValues" : [ {
        "tag" : {
          "profile" : "meta::pure::profiles::doc",
          "value" : "doc"
        },
        "value" : "The specification of Credit Support Obligations applicable to Variation Margin agreements."
      } ],
      "type" : "cdm::model::CreditSupportObligationsVariationMargin"
    } ],
    "taggedValues" : [ {
      "tag" : {
        "profile" : "meta::pure::profiles::doc",
        "value" : "doc"
      },
      "value" : "A class to specify the Credit Support Obligations applicable to the Initial Margin Credit Support Annex and which are common among the English, Japanese and New York governing laws. This excludes the Other Eligible Support election (which only applies to the Japanese Law and New York Law agreements) and the Transfer Timing election (which only applies to the English Law and the New York Law agreements). ISDA 2016 English Law Credit Support Deed for Initial Margin, paragraph 13, General Principles, (c): Credit Support Obligations. | ISDA 2016 Japanese Law Credit Support Annex for Initial Margin, paragraph 13, General Principles, (d): Credit Support Obligations. | ISDA 2016 New York Law Credit Support Annex for Initial Margin, paragraph 13, General Principles, (c): Credit Support Obligations."
    } ]
  }
}