{
  "classifierPath" : "meta::pure::metamodel::type::Class",
  "content" : {
    "_type" : "class",
    "name" : "CrossCurrencyMethod",
    "package" : "cdm::model",
    "properties" : [ {
      "multiplicity" : {
        "lowerBound" : 0
      },
      "name" : "cashSettlementReferenceBanks",
      "taggedValues" : [ {
        "tag" : {
          "profile" : "meta::pure::profiles::doc",
          "value" : "doc"
        },
        "value" : "A container for a set of institutions that may be called upon to provide rate quotations as part of the method to determine the applicable cash settlement amount. If institutions are not specified, it is assumed that reference institutions will be agreed between the parties on the exercise date, or in the case of swap transaction to which mandatory early termination is applicable, the cash settlement valuation date."
      } ],
      "type" : "cdm::model::CashSettlementReferenceBanks"
    }, {
      "multiplicity" : {
        "lowerBound" : 1,
        "upperBound" : 2
      },
      "name" : "cashSettlementCurrency",
      "stereotypes" : [ {
        "profile" : "cdm::model::metadata",
        "value" : "scheme"
      } ],
      "taggedValues" : [ {
        "tag" : {
          "profile" : "meta::pure::profiles::doc",
          "value" : "doc"
        },
        "value" : "The currency, or currencies, in which the cash settlement amount(s) will be calculated and settled. While the order in which the currencies are stated is unimportant, the cash settlement currency or currencies must correspond to one or both of the constituent currencies of the swap transaction. The list of valid currencies is not presently positioned as an enumeration as part of the CDM because that scope is limited to the values specified by ISDA and FpML. As a result, implementers have to make reference to the relevant standard, such as the ISO 4217 standard for currency codes."
      } ],
      "type" : "String"
    }, {
      "multiplicity" : {
        "lowerBound" : 1,
        "upperBound" : 1
      },
      "name" : "quotationRateType",
      "taggedValues" : [ {
        "tag" : {
          "profile" : "meta::pure::profiles::doc",
          "value" : "doc"
        },
        "value" : "Which rate quote is to be observed, either Bid, Mid, Offer or Exercising Party Pays. The meaning of Exercising Party Pays is defined in the 2000 ISDA Definitions, Section 17.2. Certain Definitions Relating to Cash Settlement, paragraph (j)."
      } ],
      "type" : "cdm::model::QuotationRateTypeEnum"
    } ],
    "taggedValues" : [ {
      "tag" : {
        "profile" : "meta::pure::profiles::doc",
        "value" : "doc"
      },
      "value" : "A data to:  represent the cash settlement method defined in the 2006 ISDA Definitions, Section 18.3. Cash Settlement Methods, paragraph (g) (published in Supplement number 28)."
    } ]
  }
}