{
  "classifierPath" : "meta::pure::metamodel::type::Class",
  "content" : {
    "_type" : "class",
    "name" : "CustodianRiskElection",
    "package" : "cdm::model",
    "properties" : [ {
      "multiplicity" : {
        "lowerBound" : 0,
        "upperBound" : 1
      },
      "name" : "party",
      "taggedValues" : [ {
        "tag" : {
          "profile" : "meta::pure::profiles::doc",
          "value" : "doc"
        },
        "value" : "The elective party."
      } ],
      "type" : "cdm::model::CounterpartyRoleEnum"
    }, {
      "multiplicity" : {
        "lowerBound" : 1,
        "upperBound" : 1
      },
      "name" : "isSpecified",
      "taggedValues" : [ {
        "tag" : {
          "profile" : "meta::pure::profiles::doc",
          "value" : "doc"
        },
        "value" : "The qualification as to whether the risk is deemed as Specified."
      } ],
      "type" : "Boolean"
    }, {
      "multiplicity" : {
        "lowerBound" : 0,
        "upperBound" : 1
      },
      "name" : "qualification",
      "taggedValues" : [ {
        "tag" : {
          "profile" : "meta::pure::profiles::doc",
          "value" : "doc"
        },
        "value" : "The Custodian Risk (English Law and New York Law ISDA CSA) or Collateral Manager Risk (Japanese Law ISDA CSA) qualification. This attribute is optional because the Custodian Risk provision can be deemed as 'Specified', although not be qualified through this attribute."
      } ],
      "type" : "String"
    } ],
    "taggedValues" : [ {
      "tag" : {
        "profile" : "meta::pure::profiles::doc",
        "value" : "doc"
      },
      "value" : "A class to specify the Custodian Risk (English Law and New York Law ISDA CSA) and the Collateral Manager Risk (Japanese Law ISDA CSA) election. | ISDA 2016 English Law Credit Support Deed for Initial Margin, paragraph 13, General Principles, (n)(ii): Custodian (IM) Risk. | ISDA 2018 English Law Credit Support Deed for Initial Margin, paragraph 13, General Principles, (n)(ii): Custodian (IM) Risk. | ISDA 2016 Japanese Law Credit Support Annex for Initial Margin, paragraph 13, General Principles, (m)(i): Collateral Manager Risk. | ISDA 2016 New York Law Credit Support Annex for Initial Margin, paragraph 13, General Principles, (n)(ii): Custodian (IM) Risk."
    } ]
  }
}