{
  "classifierPath" : "meta::pure::metamodel::type::Class",
  "content" : {
    "_type" : "class",
    "name" : "DateRelativeToCalculationPeriodDates",
    "package" : "cdm::model",
    "properties" : [ {
      "multiplicity" : {
        "lowerBound" : 1
      },
      "name" : "calculationPeriodDatesReference",
      "stereotypes" : [ {
        "profile" : "cdm::model::metadata",
        "value" : "reference"
      } ],
      "taggedValues" : [ {
        "tag" : {
          "profile" : "meta::pure::profiles::doc",
          "value" : "doc"
        },
        "value" : "A set of href pointers to calculation period dates defined somewhere else in the document."
      } ],
      "type" : "cdm::model::CalculationPeriodDates"
    } ],
    "taggedValues" : [ {
      "tag" : {
        "profile" : "meta::pure::profiles::doc",
        "value" : "doc"
      },
      "value" : "A data to:  provide the ability to point to multiple payment nodes in the document through the unbounded paymentDatesReference."
    } ]
  }
}