{
  "classifierPath" : "meta::pure::metamodel::type::Enumeration",
  "content" : {
    "_type" : "Enumeration",
    "name" : "DayCountFractionEnum",
    "package" : "cdm::model",
    "taggedValues" : [ {
      "tag" : {
        "profile" : "meta::pure::profiles::doc",
        "value" : "doc"
      },
      "value" : "The enumerated values to specify the day count fraction."
    } ],
    "values" : [ {
      "taggedValues" : [ {
        "tag" : {
          "profile" : "meta::pure::profiles::doc",
          "value" : "doc"
        },
        "value" : "Per 2006 ISDA Definitions, Section 4.16. Day Count Fraction, paragraph (e) or Annex to the 2000 ISDA Definitions (June 2000 Version), Section 4.16. Day Count Fraction, paragraph (d)."
      } ],
      "value" : "ACT_360"
    }, {
      "taggedValues" : [ {
        "tag" : {
          "profile" : "meta::pure::profiles::doc",
          "value" : "doc"
        },
        "value" : "Per 2006 ISDA Definitions, Section 4.16. Day Count Fraction, paragraph (i)."
      } ],
      "value" : "ACT_365L"
    }, {
      "taggedValues" : [ {
        "tag" : {
          "profile" : "meta::pure::profiles::doc",
          "value" : "doc"
        },
        "value" : "Per 2006 ISDA Definitions, Section 4.16. Day Count Fraction, paragraph (d) or Annex to the 2000 ISDA Definitions (June 2000 Version), Section 4.16. Day Count Fraction, paragraph (c)."
      } ],
      "value" : "ACT_365_FIXED"
    }, {
      "taggedValues" : [ {
        "tag" : {
          "profile" : "meta::pure::profiles::doc",
          "value" : "doc"
        },
        "value" : "The Fixed/Floating Amount will be calculated in accordance with the 'BASE EXACT/EXACT' day count fraction, as defined in the 'Definitions Communes plusieurs Additifs Techniques' published by the Association Francaise des Banques in September 1994."
      } ],
      "value" : "ACT_ACT_AFB"
    }, {
      "taggedValues" : [ {
        "tag" : {
          "profile" : "meta::pure::profiles::doc",
          "value" : "doc"
        },
        "value" : "Per 2006 ISDA Definitions, Section 4.16. Day Count Fraction, paragraph (c). This day count fraction code is applicable for transactions booked under the 2006 ISDA Definitions. Transactions under the 2000 ISDA Definitions should use the ACT/ACT.ISMA code instead."
      } ],
      "value" : "ACT_ACT_ICMA"
    }, {
      "taggedValues" : [ {
        "tag" : {
          "profile" : "meta::pure::profiles::doc",
          "value" : "doc"
        },
        "value" : "Per 2006 ISDA Definitions, Section 4.16. Day Count Fraction, paragraph (b) or Annex to the 2000 ISDA Definitions (June 2000 Version), Section 4.16. Day Count Fraction, paragraph (b). Note that going from FpML 2.0 Recommendation to the FpML 3.0 Trial Recommendation the code in FpML 2.0 'ACT/365.ISDA' became 'ACT/ACT.ISDA'."
      } ],
      "value" : "ACT_ACT_ISDA"
    }, {
      "taggedValues" : [ {
        "tag" : {
          "profile" : "meta::pure::profiles::doc",
          "value" : "doc"
        },
        "value" : "The number of Business Days in the Calculation Period or Compounding Period in respect of which payment is being made divided by 252."
      } ],
      "value" : "BUS_252"
    }, {
      "taggedValues" : [ {
        "tag" : {
          "profile" : "meta::pure::profiles::doc",
          "value" : "doc"
        },
        "value" : "Per 2006 ISDA Definitions, Section 4.16. Day Count Fraction, paragraph (a) or Annex to the 2000 ISDA Definitions (June 2000 Version), Section 4.16. Day Count Fraction, paragraph (a)."
      } ],
      "value" : "_1_1"
    }, {
      "taggedValues" : [ {
        "tag" : {
          "profile" : "meta::pure::profiles::doc",
          "value" : "doc"
        },
        "value" : "Per 2006 ISDA Definitions, Section 4.16. Day Count Fraction, paragraph (g) or Annex to the 2000 ISDA Definitions (June 2000 Version), Section 4.16. Day Count Fraction, paragraph (f). Note that the algorithm defined for this day count fraction has changed between the 2000 ISDA Definitions and 2006 ISDA Definitions. See Introduction to the 2006 ISDA Definitions for further information relating to this change."
      } ],
      "value" : "_30E_360"
    }, {
      "taggedValues" : [ {
        "tag" : {
          "profile" : "meta::pure::profiles::doc",
          "value" : "doc"
        },
        "value" : "Per 2006 ISDA Definitions, Section 4.16. Day Count Fraction, paragraph (h). Note the algorithm for this day count fraction under the 2006 ISDA Definitions is designed to yield the same results in practice as the version of the 30E/360 day count fraction defined in the 2000 ISDA Definitions. See Introduction to the 2006 ISDA Definitions for further information relating to this change."
      } ],
      "value" : "_30E_360_ISDA"
    }, {
      "taggedValues" : [ {
        "tag" : {
          "profile" : "meta::pure::profiles::doc",
          "value" : "doc"
        },
        "value" : "Per 2006 ISDA Definitions, Section 4.16. Day Count Fraction, paragraph (f) or Annex to the 2000 ISDA Definitions (June 2000 Version), Section 4.16. Day Count Fraction, paragraph (e)."
      } ],
      "value" : "_30_360"
    }, {
      "taggedValues" : [ {
        "tag" : {
          "profile" : "meta::pure::profiles::doc",
          "value" : "doc"
        },
        "value" : "Per 2006 ISDA Definitions Supplement number 43, Day Count Fraction, if 'RBA Bond Basis (quarter)' is specified, 0.25. However, Actual/Actual (ISDA) applies to each of the first Calculation Period and the final Calculation Period if such Calculation Period is less than three months"
      } ],
      "value" : "RBA_BOND_BASIS_QUARTER"
    }, {
      "taggedValues" : [ {
        "tag" : {
          "profile" : "meta::pure::profiles::doc",
          "value" : "doc"
        },
        "value" : "Per 2006 ISDA Definitions Supplement number 43, Day Count Fraction, if 'RBA Bond Basis (semi-annual)' is specified, 0.5. However, Actual/Actual (ISDA) applies to each of the first Calculation Period and the final Calculation Period if such Calculation Period is less than six months"
      } ],
      "value" : "RBA_BOND_BASIS_SEMI_ANNUAL"
    }, {
      "taggedValues" : [ {
        "tag" : {
          "profile" : "meta::pure::profiles::doc",
          "value" : "doc"
        },
        "value" : "Per 2006 ISDA Definitions Supplement number 43, Day Count Fraction, (k)\tif 'RBA Bond Basis (semi-annual)' is specified, 0.5. However, Actual/Actual (ISDA) applies to each of the first Calculation Period and the final Calculation Period if such Calculation Period is less than six months"
      } ],
      "value" : "RBA_BOND_BASIS_ANNUAL"
    } ]
  }
}