{
  "classifierPath" : "meta::pure::metamodel::type::Enumeration",
  "content" : {
    "_type" : "Enumeration",
    "name" : "DeliveryAmountElectionEnum",
    "package" : "cdm::model",
    "taggedValues" : [ {
      "tag" : {
        "profile" : "meta::pure::profiles::doc",
        "value" : "doc"
      },
      "value" : "The enumerated values to specify the application of Interest Amount with respect to the Delivery Amount through standard language. ISDA 2016 Japanese Law Credit Support Annex for Initial Margin, paragraph 13, General Principles, (n)(ii)."
    } ],
    "values" : [ {
      "taggedValues" : [ {
        "tag" : {
          "profile" : "meta::pure::profiles::doc",
          "value" : "doc"
        },
        "value" : "The delivery only includes `Transfer on last Local Business Day`. ISDA 2016 Japanese Law Credit Support Annex for Initial Margin, paragraph 13, General Principles, (n)(ii)."
      } ],
      "value" : "LastLocalBusinessDay"
    }, {
      "taggedValues" : [ {
        "tag" : {
          "profile" : "meta::pure::profiles::doc",
          "value" : "doc"
        },
        "value" : "The delivery includes both `Transfer on last Local Business Day` and `Transfer a Delivery Amount (IM) consisting of cash on any Local Business Day.`"
      } ],
      "value" : "LastAndAnyLocalBusinessDay"
    } ]
  }
}