{
  "classifierPath" : "meta::pure::metamodel::type::Enumeration",
  "content" : {
    "_type" : "Enumeration",
    "name" : "DiscountingTypeEnum",
    "package" : "cdm::model",
    "taggedValues" : [ {
      "tag" : {
        "profile" : "meta::pure::profiles::doc",
        "value" : "doc"
      },
      "value" : "The enumerated values to specify the method of calculating discounted payment amounts. This enumerations combines the FpML DiscountingTypeEnum and FraDiscountingEnum enumerations."
    } ],
    "values" : [ {
      "taggedValues" : [ {
        "tag" : {
          "profile" : "meta::pure::profiles::doc",
          "value" : "doc"
        },
        "value" : "As specified by the 2006 ISDA Definitions, Section 8.4. Discounting, paragraph (a)."
      } ],
      "value" : "Standard"
    }, {
      "taggedValues" : [ {
        "tag" : {
          "profile" : "meta::pure::profiles::doc",
          "value" : "doc"
        },
        "value" : "As specified by the 2006 ISDA Definitions, Section 8.4. Discounting, paragraph (b)."
      } ],
      "value" : "FRA"
    }, {
      "taggedValues" : [ {
        "tag" : {
          "profile" : "meta::pure::profiles::doc",
          "value" : "doc"
        },
        "value" : "As specified by the 2006 ISDA Definitions, Section 8.4. Discounting, paragraph (e)."
      } ],
      "value" : "FRAYield"
    }, {
      "taggedValues" : [ {
        "tag" : {
          "profile" : "meta::pure::profiles::doc",
          "value" : "doc"
        },
        "value" : "As specified by the the Australian Financial Markets Association (AFMA) OTC Financial Product Conventions. This discounting method should not be used for a trade documented under a legal framework where the 2006 ISDA Definitions have been incorporated."
      } ],
      "value" : "AFMA"
    } ]
  }
}