{
  "classifierPath" : "meta::pure::metamodel::type::Class",
  "content" : {
    "_type" : "class",
    "name" : "DistributionAndInterestPayment",
    "package" : "cdm::model",
    "properties" : [ {
      "multiplicity" : {
        "lowerBound" : 1
      },
      "name" : "interestRate",
      "taggedValues" : [ {
        "tag" : {
          "profile" : "meta::pure::profiles::doc",
          "value" : "doc"
        },
        "value" : "The interest rate associated with initial or variation margin collateral, depending upon the type of credit agreement that this election is associated with. ISDA 2016 Japanese Law Credit Support Annex for Initial Margin, paragraph 13, General Principles, (n)(i): Interest Rate (IM). | ISDA 2016 Credit Support Annex for Variation Margin, paragraph 13, (i)(i): Interest Rate (VM)."
      } ],
      "type" : "cdm::model::EligibleCurrencyInterestRate"
    }, {
      "multiplicity" : {
        "lowerBound" : 1,
        "upperBound" : 1
      },
      "name" : "interestPaymentTransfer",
      "taggedValues" : [ {
        "tag" : {
          "profile" : "meta::pure::profiles::doc",
          "value" : "doc"
        },
        "value" : "The Interest Payment Transfer is applicable when True. ISDA 2016 Japanese Law Credit Support Annex for Initial Margin, paragraph 13, General Principles, (n)(ii): Transfer of Interest Payment (IM) or application of Interest Amount (IM). | ISDA 2016 Credit Support Annex for Variation Margin, paragraph 13, (i)(ii): Transfer of Interest Payment (VM) or application of Interest Amount (VM)."
      } ],
      "type" : "Boolean"
    }, {
      "multiplicity" : {
        "lowerBound" : 1,
        "upperBound" : 1
      },
      "name" : "interestPaymentNetting",
      "taggedValues" : [ {
        "tag" : {
          "profile" : "meta::pure::profiles::doc",
          "value" : "doc"
        },
        "value" : "The Interest Payment Netting is applicable when True. ISDA 2016 Japanese Law Credit Support Annex for Initial Margin, paragraph 13, General Principles, (n)(ii): Transfer of Interest Payment (IM) or application of Interest Amount (IM). | ISDA 2016 Credit Support Annex for Variation Margin, paragraph 13, (i)(ii): Transfer of Interest Payment (VM) or application of Interest Amount (VM)."
      } ],
      "type" : "Boolean"
    }, {
      "multiplicity" : {
        "lowerBound" : 1,
        "upperBound" : 1
      },
      "name" : "interestAmount",
      "taggedValues" : [ {
        "tag" : {
          "profile" : "meta::pure::profiles::doc",
          "value" : "doc"
        },
        "value" : "The application of Interest Amount with respect to the Delivery Amount and the Return Amount. ISDA 2016 Japanese Law Credit Support Annex for Initial Margin, paragraph 13, General Principles, (n)(ii)."
      } ],
      "type" : "cdm::model::InterestAmount"
    }, {
      "multiplicity" : {
        "lowerBound" : 1,
        "upperBound" : 1
      },
      "name" : "interestAdjustment",
      "taggedValues" : [ {
        "tag" : {
          "profile" : "meta::pure::profiles::doc",
          "value" : "doc"
        },
        "value" : "To election to specify whether the Interest Adjustment is applicable and what its periodicity is. ISDA 2016 Japanese Law Credit Support Annex for Initial Margin, paragraph 13, General Principles, (n)(ii). | ISDA 2016 Credit Support Annex for Variation Margin, paragraph 13, (i)(ii): Transfer of Interest Payment (VM) or application of Interest Amount (VM)."
      } ],
      "type" : "cdm::model::InterestAdjustment"
    }, {
      "multiplicity" : {
        "lowerBound" : 1,
        "upperBound" : 1
      },
      "name" : "negativeInterest",
      "taggedValues" : [ {
        "tag" : {
          "profile" : "meta::pure::profiles::doc",
          "value" : "doc"
        },
        "value" : "Negative Interest is applicable when True, and not applicable when False. ISDA 2016 Japanese Law Credit Support Annex for Initial Margin, paragraph 13, General Principles, (n)(iii): Other Interest Elections. | ISDA 2016 Credit Support Annex for Variation Margin, paragraph 13, (i)(iii): Other Interest Elections."
      } ],
      "type" : "Boolean"
    }, {
      "multiplicity" : {
        "lowerBound" : 1,
        "upperBound" : 1
      },
      "name" : "dailyInterestCompounding",
      "taggedValues" : [ {
        "tag" : {
          "profile" : "meta::pure::profiles::doc",
          "value" : "doc"
        },
        "value" : "Daily interest compounding is applicable when True, and not applicable when False. ISDA 2016 Japanese Law Credit Support Annex for Initial Margin, paragraph 13, General Principles, (n)(iii): Other Interest Elections. | ISDA 2016 Credit Support Annex for Variation Margin, paragraph 13, (i)(iii): Other Interest Elections."
      } ],
      "type" : "Boolean"
    }, {
      "multiplicity" : {
        "lowerBound" : 0,
        "upperBound" : 1
      },
      "name" : "alternativeProvision",
      "taggedValues" : [ {
        "tag" : {
          "profile" : "meta::pure::profiles::doc",
          "value" : "doc"
        },
        "value" : "When the alternative provision clause is specified, it means that the ISDA CSA Japanese Law provisions specified in Paragraph 6(c)(ii) don't apply and are overwritten by this election. When it is not specified, it means that the ISDA CSA Japanese Law provisions specified in Paragraph 6(c)(ii) apply. ISDA 2016 Japanese Law Credit Support Annex for Initial Margin, paragraph 13, General Principles, (n)(iv): Alternative to Interest Amount (IM) and Interest Payment (IM). | ISDA 2016 Credit Support Annex for Variation Margin, paragraph 13, (i)(iv): Alternative to Interest Amount (VM) and Interest Payment (VM)."
      } ],
      "type" : "String"
    } ],
    "taggedValues" : [ {
      "tag" : {
        "profile" : "meta::pure::profiles::doc",
        "value" : "doc"
      },
      "value" : "A class to specify the Distributions and Interest Payment provisions applicable to the Japanese Law ISDA 2016 CSA for Initial Margin and the New York Law ISDA 2016 CSA for Variation Margin. ISDA 2016 Japanese Law Credit Support Annex for Initial Margin, paragraph 13, General Principles, (n): Distributions and Interest Payment (IM). | ISDA 2016 Credit Support Annex for Variation Margin, paragraph 13, (i): Distributions and Interest Payment (VM)."
    } ]
  }
}