{
  "classifierPath" : "meta::pure::metamodel::type::Class",
  "content" : {
    "_type" : "class",
    "name" : "EquitySwapMasterConfirmation2018",
    "package" : "cdm::model",
    "properties" : [ {
      "multiplicity" : {
        "lowerBound" : 1,
        "upperBound" : 1
      },
      "name" : "typeOfSwapElection",
      "taggedValues" : [ {
        "tag" : {
          "profile" : "meta::pure::profiles::doc",
          "value" : "doc"
        },
        "value" : "Part 1 Section 4, 'Dividend Obligations', of the 2018 ISDA CDM Equity Confirmation, Para 4.2 'Dividend Returns': The Type Of Swap Election shall be 'Total Return', unless otherwise specified (as alternative 'Price Return') in the Transaction Supplement."
      } ],
      "type" : "cdm::model::ReturnTypeEnum"
    }, {
      "multiplicity" : {
        "lowerBound" : 1,
        "upperBound" : 1
      },
      "name" : "pricingMethodElection",
      "taggedValues" : [ {
        "tag" : {
          "profile" : "meta::pure::profiles::doc",
          "value" : "doc"
        },
        "value" : "Part 1 Section 5, 'Pricing', of the 2018 ISDA CDM Equity Confirmation, Para 5.1, 'Determining Prices': Each price in relation to a Pricing Date shall be determined pursuant to the specified Pricing Method. The relevant price specified under the column header 'Price' for a corresponding Pricing Date specified under the column header 'Pricing Date' shall be determined using the corresponding method specified under the column header 'Pricing Method'. Pricing Method for the final Equity Valuation Date shall be specified by the Final EVD Pricing Election and Pricing Method for any other Equity Valaution Date shall be 'Securities Close Pricing (Official)'"
      } ],
      "type" : "cdm::model::PriceReturnTerms"
    }, {
      "multiplicity" : {
        "lowerBound" : 1,
        "upperBound" : 1
      },
      "name" : "linearInterpolationElection",
      "taggedValues" : [ {
        "tag" : {
          "profile" : "meta::pure::profiles::doc",
          "value" : "doc"
        },
        "value" : "Part 1 Section 3, 'Floating Obligations', of the 2018 ISDA CDM Equity Confirmation. Para 3.3, 'Linear Interpolation': If the initial Calculation Period is not equal to the Designated Maturity, then the Linear Interpolation Election shall be as specified in the Relationship Supplement, unless otherwise specified in the Transaction Supplement."
      } ],
      "type" : "cdm::model::InterpolationMethodEnum"
    }, {
      "multiplicity" : {
        "lowerBound" : 1,
        "upperBound" : 1
      },
      "name" : "settlementTerms",
      "taggedValues" : [ {
        "tag" : {
          "profile" : "meta::pure::profiles::doc",
          "value" : "doc"
        },
        "value" : "Part 1 Section 8, 'Settlement', of the 2018 ISDA CDM Equity Confirmation for Security Equity Swap. All Settlements are in Cash."
      } ],
      "type" : "cdm::model::SettlementTerms"
    }, {
      "multiplicity" : {
        "lowerBound" : 1,
        "upperBound" : 1
      },
      "name" : "equityCalculationPeriod",
      "taggedValues" : [ {
        "tag" : {
          "profile" : "meta::pure::profiles::doc",
          "value" : "doc"
        },
        "value" : "The parameters used to generate the 'Equity Valuation Dates' schedule, including the Effective Date and Termination Date for the Swap."
      } ],
      "type" : "cdm::model::CalculationPeriodDates"
    }, {
      "multiplicity" : {
        "lowerBound" : 1,
        "upperBound" : 1
      },
      "name" : "equityCashSettlementDates",
      "taggedValues" : [ {
        "tag" : {
          "profile" : "meta::pure::profiles::doc",
          "value" : "doc"
        },
        "value" : "The parameters used to generate the payment date schedule, relative to the equityCalculationPeriod. Part 1 Section 12, 'Definitions', of the 2018 ISDA CDM Equity Confirmation. Para 73: 'Equity Cash Settlement Date' means each date falling one Settlement Cycle after an Equity Valuation Date; provided that if any such date is not a Settlement Currency Business Day, then such date shall be adjusted per Following Day Adjustment."
      } ],
      "type" : "cdm::model::PaymentDates"
    } ],
    "superTypes" : [ "cdm::model::EquityMasterConfirmation" ],
    "taggedValues" : [ {
      "tag" : {
        "profile" : "meta::pure::profiles::doc",
        "value" : "doc"
      },
      "value" : "Specification for the General Terms and Relationship Supplement Elections as provided in the 2018 ISDA CDM Equity Confirmation for Security Equity Swap."
    } ]
  }
}