{
  "classifierPath" : "meta::pure::metamodel::type::Class",
  "content" : {
    "_type" : "class",
    "name" : "EquityValuation",
    "package" : "cdm::model",
    "properties" : [ {
      "multiplicity" : {
        "lowerBound" : 0,
        "upperBound" : 1
      },
      "name" : "price",
      "taggedValues" : [ {
        "tag" : {
          "profile" : "meta::pure::profiles::doc",
          "value" : "doc"
        },
        "value" : "Specifies the price used for valuation."
      } ],
      "type" : "cdm::model::Price"
    }, {
      "multiplicity" : {
        "lowerBound" : 1,
        "upperBound" : 1
      },
      "name" : "determinationMethod",
      "taggedValues" : [ {
        "tag" : {
          "profile" : "meta::pure::profiles::doc",
          "value" : "doc"
        },
        "value" : "Specifies the method according to which an amount or a date is determined."
      } ],
      "type" : "cdm::model::DeterminationMethodEnum"
    }, {
      "multiplicity" : {
        "lowerBound" : 0,
        "upperBound" : 1
      },
      "name" : "valuationDates",
      "taggedValues" : [ {
        "tag" : {
          "profile" : "meta::pure::profiles::doc",
          "value" : "doc"
        },
        "value" : "2018 ISDA CDM Equity Confirmation for Security Equity Swap: Pricing Date"
      } ],
      "type" : "cdm::model::AdjustableRelativeOrPeriodicDates"
    }, {
      "multiplicity" : {
        "lowerBound" : 0,
        "upperBound" : 1
      },
      "name" : "valuationDate",
      "taggedValues" : [ {
        "tag" : {
          "profile" : "meta::pure::profiles::doc",
          "value" : "doc"
        },
        "value" : "2018 ISDA CDM Equity Confirmation for Security Equity Swap: Pricing Date"
      } ],
      "type" : "cdm::model::AdjustableOrRelativeDate"
    }, {
      "multiplicity" : {
        "lowerBound" : 0,
        "upperBound" : 1
      },
      "name" : "valuationTime",
      "taggedValues" : [ {
        "tag" : {
          "profile" : "meta::pure::profiles::doc",
          "value" : "doc"
        },
        "value" : "The specific time of day at which the calculation agent values the underlying. The SpecificTime is the only case when the valuationTime (time + business center location – e.g. 10:00:00 USNY) should be provided. You should be able to provide just the valuationTime without valuationTimeType, which infer that this is a specific time."
      } ],
      "type" : "cdm::model::BusinessCenterTime"
    }, {
      "multiplicity" : {
        "lowerBound" : 0,
        "upperBound" : 1
      },
      "name" : "valuationTimeType",
      "taggedValues" : [ {
        "tag" : {
          "profile" : "meta::pure::profiles::doc",
          "value" : "doc"
        },
        "value" : "The time of day at which the calculation agent values the underlying, for example the official closing time of the exchange."
      } ],
      "type" : "cdm::model::TimeTypeEnum"
    } ],
    "taggedValues" : [ {
      "tag" : {
        "profile" : "meta::pure::profiles::doc",
        "value" : "doc"
      },
      "value" : "Defines how and when an equity option or equity swap is to be valued."
    } ]
  }
}