{
  "classifierPath" : "meta::pure::metamodel::type::Enumeration",
  "content" : {
    "_type" : "Enumeration",
    "name" : "ExerciseNoticeGiverEnum",
    "package" : "cdm::model",
    "taggedValues" : [ {
      "tag" : {
        "profile" : "meta::pure::profiles::doc",
        "value" : "doc"
      },
      "value" : "Defines the principal party to the trade that has the right to exercise."
    } ],
    "values" : [ {
      "taggedValues" : [ {
        "tag" : {
          "profile" : "meta::pure::profiles::doc",
          "value" : "doc"
        },
        "value" : "Specifies that only the option buyer has the right to exercise."
      } ],
      "value" : "Buyer"
    }, {
      "taggedValues" : [ {
        "tag" : {
          "profile" : "meta::pure::profiles::doc",
          "value" : "doc"
        },
        "value" : "Specifies that only the option seller has the right to exercise."
      } ],
      "value" : "Seller"
    }, {
      "taggedValues" : [ {
        "tag" : {
          "profile" : "meta::pure::profiles::doc",
          "value" : "doc"
        },
        "value" : "Specifies that both the option buyer and option seller has the right to exercise."
      } ],
      "value" : "Both"
    }, {
      "taggedValues" : [ {
        "tag" : {
          "profile" : "meta::pure::profiles::doc",
          "value" : "doc"
        },
        "value" : "Specifies that the Master Agreement defines the principal party to the trade that has the right to exercise."
      } ],
      "value" : "AsSpecifiedInMasterAgreement"
    } ]
  }
}