{
  "classifierPath" : "meta::pure::metamodel::type::Enumeration",
  "content" : {
    "_type" : "Enumeration",
    "name" : "ExternalProductTypeSourceEnum",
    "package" : "cdm::model",
    "taggedValues" : [ {
      "tag" : {
        "profile" : "meta::pure::profiles::doc",
        "value" : "doc"
      },
      "value" : "Provides the enumerated values to identify the source or scheme for the type of product."
    } ],
    "values" : [ {
      "taggedValues" : [ {
        "tag" : {
          "profile" : "meta::pure::profiles::doc",
          "value" : "doc"
        },
        "value" : "Denots a product type used in FpML, defined at the following location http://www.fpml.org/coding-scheme/product-taxonomy"
      } ],
      "value" : "FpMLProductType"
    }, {
      "taggedValues" : [ {
        "tag" : {
          "profile" : "meta::pure::profiles::doc",
          "value" : "doc"
        },
        "value" : "Issued by the members of the the Association of National Numbering Agencies (ANNA), the Classification of Financial Instrument (CFI) code is used to define and describe financial instruments as a uniform set of codes for all market participants."
      } ],
      "value" : "CFI"
    }, {
      "taggedValues" : [ {
        "tag" : {
          "profile" : "meta::pure::profiles::doc",
          "value" : "doc"
        },
        "value" : "Denotes a user-specific scheme or taxonomy or other external sources not listed here."
      } ],
      "value" : "Other"
    } ]
  }
}