{
  "classifierPath" : "meta::pure::metamodel::type::Class",
  "content" : {
    "_type" : "class",
    "constraints" : [ {
      "functionDefinition" : {
        "_type" : "lambda",
        "body" : [ {
          "_type" : "func",
          "function" : "if",
          "parameters" : [ {
            "_type" : "func",
            "function" : "isNotEmpty",
            "parameters" : [ {
              "_type" : "property",
              "parameters" : [ {
                "_type" : "property",
                "parameters" : [ {
                  "_type" : "property",
                  "parameters" : [ {
                    "_type" : "var",
                    "name" : "this"
                  } ],
                  "property" : "underlier"
                } ],
                "property" : "underlyingProduct"
              } ],
              "property" : "foreignExchange"
            } ]
          }, {
            "_type" : "lambda",
            "body" : [ {
              "_type" : "func",
              "function" : "or",
              "parameters" : [ {
                "_type" : "func",
                "function" : "and",
                "parameters" : [ {
                  "_type" : "func",
                  "function" : "and",
                  "parameters" : [ {
                    "_type" : "func",
                    "function" : "isNotEmpty",
                    "parameters" : [ {
                      "_type" : "property",
                      "parameters" : [ {
                        "_type" : "property",
                        "parameters" : [ {
                          "_type" : "var",
                          "name" : "this"
                        } ],
                        "property" : "settlementTerms"
                      } ],
                      "property" : "valueDate"
                    } ]
                  }, {
                    "_type" : "func",
                    "function" : "isEmpty",
                    "parameters" : [ {
                      "_type" : "property",
                      "parameters" : [ {
                        "_type" : "property",
                        "parameters" : [ {
                          "_type" : "property",
                          "parameters" : [ {
                            "_type" : "property",
                            "parameters" : [ {
                              "_type" : "property",
                              "parameters" : [ {
                                "_type" : "var",
                                "name" : "this"
                              } ],
                              "property" : "underlier"
                            } ],
                            "property" : "underlyingProduct"
                          } ],
                          "property" : "foreignExchange"
                        } ],
                        "property" : "exchangedCurrency1"
                      } ],
                      "property" : "cashflowDate"
                    } ]
                  } ]
                }, {
                  "_type" : "func",
                  "function" : "isEmpty",
                  "parameters" : [ {
                    "_type" : "property",
                    "parameters" : [ {
                      "_type" : "property",
                      "parameters" : [ {
                        "_type" : "property",
                        "parameters" : [ {
                          "_type" : "property",
                          "parameters" : [ {
                            "_type" : "property",
                            "parameters" : [ {
                              "_type" : "var",
                              "name" : "this"
                            } ],
                            "property" : "underlier"
                          } ],
                          "property" : "underlyingProduct"
                        } ],
                        "property" : "foreignExchange"
                      } ],
                      "property" : "exchangedCurrency2"
                    } ],
                    "property" : "cashflowDate"
                  } ]
                } ]
              }, {
                "_type" : "func",
                "function" : "and",
                "parameters" : [ {
                  "_type" : "func",
                  "function" : "and",
                  "parameters" : [ {
                    "_type" : "func",
                    "function" : "and",
                    "parameters" : [ {
                      "_type" : "func",
                      "function" : "isEmpty",
                      "parameters" : [ {
                        "_type" : "property",
                        "parameters" : [ {
                          "_type" : "property",
                          "parameters" : [ {
                            "_type" : "var",
                            "name" : "this"
                          } ],
                          "property" : "settlementTerms"
                        } ],
                        "property" : "valueDate"
                      } ]
                    }, {
                      "_type" : "func",
                      "function" : "isNotEmpty",
                      "parameters" : [ {
                        "_type" : "property",
                        "parameters" : [ {
                          "_type" : "property",
                          "parameters" : [ {
                            "_type" : "property",
                            "parameters" : [ {
                              "_type" : "property",
                              "parameters" : [ {
                                "_type" : "property",
                                "parameters" : [ {
                                  "_type" : "var",
                                  "name" : "this"
                                } ],
                                "property" : "underlier"
                              } ],
                              "property" : "underlyingProduct"
                            } ],
                            "property" : "foreignExchange"
                          } ],
                          "property" : "exchangedCurrency1"
                        } ],
                        "property" : "cashflowDate"
                      } ]
                    } ]
                  }, {
                    "_type" : "func",
                    "function" : "isNotEmpty",
                    "parameters" : [ {
                      "_type" : "property",
                      "parameters" : [ {
                        "_type" : "property",
                        "parameters" : [ {
                          "_type" : "property",
                          "parameters" : [ {
                            "_type" : "property",
                            "parameters" : [ {
                              "_type" : "property",
                              "parameters" : [ {
                                "_type" : "var",
                                "name" : "this"
                              } ],
                              "property" : "underlier"
                            } ],
                            "property" : "underlyingProduct"
                          } ],
                          "property" : "foreignExchange"
                        } ],
                        "property" : "exchangedCurrency2"
                      } ],
                      "property" : "cashflowDate"
                    } ]
                  } ]
                }, {
                  "_type" : "func",
                  "function" : "equal",
                  "parameters" : [ {
                    "_type" : "property",
                    "parameters" : [ {
                      "_type" : "property",
                      "parameters" : [ {
                        "_type" : "property",
                        "parameters" : [ {
                          "_type" : "property",
                          "parameters" : [ {
                            "_type" : "property",
                            "parameters" : [ {
                              "_type" : "var",
                              "name" : "this"
                            } ],
                            "property" : "underlier"
                          } ],
                          "property" : "underlyingProduct"
                        } ],
                        "property" : "foreignExchange"
                      } ],
                      "property" : "exchangedCurrency1"
                    } ],
                    "property" : "cashflowDate"
                  }, {
                    "_type" : "property",
                    "parameters" : [ {
                      "_type" : "property",
                      "parameters" : [ {
                        "_type" : "property",
                        "parameters" : [ {
                          "_type" : "property",
                          "parameters" : [ {
                            "_type" : "property",
                            "parameters" : [ {
                              "_type" : "var",
                              "name" : "this"
                            } ],
                            "property" : "underlier"
                          } ],
                          "property" : "underlyingProduct"
                        } ],
                        "property" : "foreignExchange"
                      } ],
                      "property" : "exchangedCurrency2"
                    } ],
                    "property" : "cashflowDate"
                  } ]
                } ]
              } ]
            } ],
            "parameters" : [ ]
          }, {
            "_type" : "lambda",
            "body" : [ {
              "_type" : "boolean",
              "multiplicity" : {
                "lowerBound" : 1,
                "upperBound" : 1
              },
              "values" : [ true ]
            } ],
            "parameters" : [ ]
          } ]
        } ],
        "parameters" : [ ]
      },
      "name" : "SettlementDate"
    }, {
      "functionDefinition" : {
        "_type" : "lambda",
        "body" : [ {
          "_type" : "func",
          "function" : "if",
          "parameters" : [ {
            "_type" : "func",
            "function" : "isNotEmpty",
            "parameters" : [ {
              "_type" : "property",
              "parameters" : [ {
                "_type" : "property",
                "parameters" : [ {
                  "_type" : "property",
                  "parameters" : [ {
                    "_type" : "var",
                    "name" : "this"
                  } ],
                  "property" : "underlier"
                } ],
                "property" : "underlyingProduct"
              } ],
              "property" : "foreignExchange"
            } ]
          }, {
            "_type" : "lambda",
            "body" : [ {
              "_type" : "func",
              "function" : "and",
              "parameters" : [ {
                "_type" : "func",
                "function" : "isEmpty",
                "parameters" : [ {
                  "_type" : "property",
                  "parameters" : [ {
                    "_type" : "property",
                    "parameters" : [ {
                      "_type" : "var",
                      "name" : "this"
                    } ],
                    "property" : "settlementTerms"
                  } ],
                  "property" : "cashSettlementTerms"
                } ]
              }, {
                "_type" : "func",
                "function" : "isEmpty",
                "parameters" : [ {
                  "_type" : "property",
                  "parameters" : [ {
                    "_type" : "property",
                    "parameters" : [ {
                      "_type" : "var",
                      "name" : "this"
                    } ],
                    "property" : "settlementTerms"
                  } ],
                  "property" : "physicalSettlementTerms"
                } ]
              } ]
            } ],
            "parameters" : [ ]
          }, {
            "_type" : "lambda",
            "body" : [ {
              "_type" : "boolean",
              "multiplicity" : {
                "lowerBound" : 1,
                "upperBound" : 1
              },
              "values" : [ true ]
            } ],
            "parameters" : [ ]
          } ]
        } ],
        "parameters" : [ ]
      },
      "name" : "FxSettlement"
    } ],
    "name" : "ForwardPayout",
    "package" : "cdm::model",
    "properties" : [ {
      "multiplicity" : {
        "lowerBound" : 1,
        "upperBound" : 1
      },
      "name" : "underlier",
      "taggedValues" : [ {
        "tag" : {
          "profile" : "meta::pure::profiles::doc",
          "value" : "doc"
        },
        "value" : "Underlying product that the forward is written on, which can be of any type: FX, a contractual product, a security, etc."
      } ],
      "type" : "cdm::model::Underlier"
    }, {
      "multiplicity" : {
        "lowerBound" : 1,
        "upperBound" : 1
      },
      "name" : "settlementTerms",
      "taggedValues" : [ {
        "tag" : {
          "profile" : "meta::pure::profiles::doc",
          "value" : "doc"
        },
        "value" : "Settlement terms for the underlier that include the settlement date, settlement method etc."
      } ],
      "type" : "cdm::model::OptionSettlement"
    } ],
    "taggedValues" : [ {
      "tag" : {
        "profile" : "meta::pure::profiles::doc",
        "value" : "doc"
      },
      "value" : "Represents a forward settling payout. The 'Underlier' attribute captures the underlying payout, which is settled according to the 'SettlementTerms' attribute. Both FX Spot and FX Forward should use this component."
    } ]
  }
}