{
  "classifierPath" : "meta::pure::metamodel::type::Class",
  "content" : {
    "_type" : "class",
    "name" : "FxInformationSource",
    "package" : "cdm::model",
    "properties" : [ {
      "multiplicity" : {
        "lowerBound" : 0,
        "upperBound" : 1
      },
      "name" : "fixingTime",
      "taggedValues" : [ {
        "tag" : {
          "profile" : "meta::pure::profiles::doc",
          "value" : "doc"
        },
        "value" : "The time that the fixing will be taken along with a business center to define the time zone."
      } ],
      "type" : "cdm::model::BusinessCenterTime"
    } ],
    "superTypes" : [ "cdm::model::InformationSource" ],
    "taggedValues" : [ {
      "tag" : {
        "profile" : "meta::pure::profiles::doc",
        "value" : "doc"
      },
      "value" : "Information source specific to Foreign Exchange products."
    } ]
  }
}