{
  "classifierPath" : "meta::pure::metamodel::type::Class",
  "content" : {
    "_type" : "class",
    "name" : "IneligibleCreditSupport",
    "package" : "cdm::model",
    "properties" : [ {
      "multiplicity" : {
        "lowerBound" : 0,
        "upperBound" : 1
      },
      "name" : "totalIneligibilityDate",
      "taggedValues" : [ {
        "tag" : {
          "profile" : "meta::pure::profiles::doc",
          "value" : "doc"
        },
        "value" : "Total Ineligibility Date has the meaning specified in Paragraph 11(g), unless otherwise specified here."
      } ],
      "type" : "String"
    }, {
      "multiplicity" : {
        "lowerBound" : 0,
        "upperBound" : 1
      },
      "name" : "transferIneligibilityDate",
      "taggedValues" : [ {
        "tag" : {
          "profile" : "meta::pure::profiles::doc",
          "value" : "doc"
        },
        "value" : "Transfer Ineligibility Date has the meaning specified in Paragraph 11(g), unless otherwise specified here."
      } ],
      "type" : "String"
    }, {
      "multiplicity" : {
        "lowerBound" : 0,
        "upperBound" : 2
      },
      "name" : "specifiedParty",
      "stereotypes" : [ {
        "profile" : "cdm::model::metadata",
        "value" : "reference"
      } ],
      "taggedValues" : [ {
        "tag" : {
          "profile" : "meta::pure::profiles::doc",
          "value" : "doc"
        },
        "value" : "The parties to which the provisions of Paragraph 11(g) of the ISDA 2016 Credit Support Annex for Variation Margin will apply to, as the Secured Party. ISDA 2016 Credit Support Annex for Variation Margin, paragraph 13, (c)(iii): Legally Ineligible Credit Support (VM)."
      } ],
      "type" : "cdm::model::Party"
    } ],
    "taggedValues" : [ {
      "tag" : {
        "profile" : "meta::pure::profiles::doc",
        "value" : "doc"
      },
      "value" : "A class to specify the parties to which the provisions of Paragraph 11(g) of the ISDA 2016 Credit Support Annex for Variation Margin will apply to. ISDA 2016 Credit Support Annex for Variation Margin, paragraph 13, (c)(iii): Legally Ineligible Credit Support (VM)."
    } ]
  }
}