{
  "classifierPath" : "meta::pure::metamodel::type::Class",
  "content" : {
    "_type" : "class",
    "name" : "IssuerCriteria",
    "package" : "cdm::model",
    "properties" : [ {
      "multiplicity" : {
        "lowerBound" : 0
      },
      "name" : "issuerType",
      "taggedValues" : [ {
        "tag" : {
          "profile" : "meta::pure::profiles::doc",
          "value" : "doc"
        },
        "value" : "Filter based on the type of entity issuing the asset."
      } ],
      "type" : "cdm::model::CollateralIssuerType"
    }, {
      "multiplicity" : {
        "lowerBound" : 0
      },
      "name" : "issuerCountryOfOrigin",
      "stereotypes" : [ {
        "profile" : "cdm::model::metadata",
        "value" : "scheme"
      } ],
      "taggedValues" : [ {
        "tag" : {
          "profile" : "meta::pure::profiles::doc",
          "value" : "doc"
        },
        "value" : "Filter based on the issuing entity country of origin, which is the same as filtering by eligible Sovereigns."
      } ],
      "type" : "String"
    }, {
      "multiplicity" : {
        "lowerBound" : 0
      },
      "name" : "issuerName",
      "taggedValues" : [ {
        "tag" : {
          "profile" : "meta::pure::profiles::doc",
          "value" : "doc"
        },
        "value" : "Filter based on the issuing entity name or LEI."
      } ],
      "type" : "cdm::model::LegalEntity"
    }, {
      "multiplicity" : {
        "lowerBound" : 0
      },
      "name" : "issuerAgencyRating",
      "taggedValues" : [ {
        "tag" : {
          "profile" : "meta::pure::profiles::doc",
          "value" : "doc"
        },
        "value" : "Agency rating based on default risk and creditors claim in event of default associated with asset issuer."
      } ],
      "type" : "cdm::model::AgencyRatingCriteria"
    }, {
      "multiplicity" : {
        "lowerBound" : 0
      },
      "name" : "sovereignAgencyRating",
      "taggedValues" : [ {
        "tag" : {
          "profile" : "meta::pure::profiles::doc",
          "value" : "doc"
        },
        "value" : "Agency rating based on default risk of country."
      } ],
      "type" : "cdm::model::AgencyRatingCriteria"
    }, {
      "multiplicity" : {
        "lowerBound" : 0,
        "upperBound" : 1
      },
      "name" : "counterpartyOwnIssuePermitted",
      "taggedValues" : [ {
        "tag" : {
          "profile" : "meta::pure::profiles::doc",
          "value" : "doc"
        },
        "value" : "Filter based on whether it is permitted for the the underlying asset to be issued by the posting entity or part of their corporate family."
      } ],
      "type" : "Boolean"
    } ],
    "taggedValues" : [ {
      "tag" : {
        "profile" : "meta::pure::profiles::doc",
        "value" : "doc"
      },
      "value" : "Criteria used to specify eligible collateral issuers."
    } ]
  }
}