{
  "classifierPath" : "meta::pure::metamodel::type::Class",
  "content" : {
    "_type" : "class",
    "constraints" : [ {
      "functionDefinition" : {
        "_type" : "lambda",
        "body" : [ {
          "_type" : "func",
          "function" : "if",
          "parameters" : [ {
            "_type" : "func",
            "function" : "isNotEmpty",
            "parameters" : [ {
              "_type" : "property",
              "parameters" : [ {
                "_type" : "var",
                "name" : "this"
              } ],
              "property" : "cashSettlement"
            } ]
          }, {
            "_type" : "lambda",
            "body" : [ {
              "_type" : "func",
              "function" : "isEmpty",
              "parameters" : [ {
                "_type" : "property",
                "parameters" : [ {
                  "_type" : "property",
                  "parameters" : [ {
                    "_type" : "var",
                    "name" : "this"
                  } ],
                  "property" : "cashSettlement"
                } ],
                "property" : "cashSettlementPaymentDate"
              } ]
            } ],
            "parameters" : [ ]
          }, {
            "_type" : "lambda",
            "body" : [ {
              "_type" : "boolean",
              "multiplicity" : {
                "lowerBound" : 1,
                "upperBound" : 1
              },
              "values" : [ true ]
            } ],
            "parameters" : [ ]
          } ]
        } ],
        "parameters" : [ ]
      },
      "name" : "FpML_ird_27"
    }, {
      "functionDefinition" : {
        "_type" : "lambda",
        "body" : [ {
          "_type" : "func",
          "function" : "if",
          "parameters" : [ {
            "_type" : "func",
            "function" : "isNotEmpty",
            "parameters" : [ {
              "_type" : "property",
              "parameters" : [ {
                "_type" : "property",
                "parameters" : [ {
                  "_type" : "var",
                  "name" : "this"
                } ],
                "property" : "calculationAgent"
              } ],
              "property" : "calculationAgentParty"
            } ]
          }, {
            "_type" : "lambda",
            "body" : [ {
              "_type" : "func",
              "function" : "equal",
              "parameters" : [ {
                "_type" : "property",
                "parameters" : [ {
                  "_type" : "property",
                  "parameters" : [ {
                    "_type" : "var",
                    "name" : "this"
                  } ],
                  "property" : "calculationAgent"
                } ],
                "property" : "calculationAgentParty"
              }, {
                "_type" : "property",
                "parameters" : [ {
                  "_type" : "enum",
                  "fullPath" : "cdm::model::AncillaryRoleEnum"
                } ],
                "property" : "CalculationAgentMandatoryEarlyTermination"
              } ]
            } ],
            "parameters" : [ ]
          }, {
            "_type" : "lambda",
            "body" : [ {
              "_type" : "boolean",
              "multiplicity" : {
                "lowerBound" : 1,
                "upperBound" : 1
              },
              "values" : [ true ]
            } ],
            "parameters" : [ ]
          } ]
        } ],
        "parameters" : [ ]
      },
      "name" : "MandatoryEarlyTerminationCalculationAgent"
    } ],
    "name" : "MandatoryEarlyTermination",
    "package" : "cdm::model",
    "properties" : [ {
      "multiplicity" : {
        "lowerBound" : 1,
        "upperBound" : 1
      },
      "name" : "mandatoryEarlyTerminationDate",
      "taggedValues" : [ {
        "tag" : {
          "profile" : "meta::pure::profiles::doc",
          "value" : "doc"
        },
        "value" : "The early termination date associated with a mandatory early termination of a swap."
      } ],
      "type" : "cdm::model::AdjustableDate"
    }, {
      "multiplicity" : {
        "lowerBound" : 1,
        "upperBound" : 1
      },
      "name" : "calculationAgent",
      "taggedValues" : [ {
        "tag" : {
          "profile" : "meta::pure::profiles::doc",
          "value" : "doc"
        },
        "value" : "The ISDA Calculation Agent responsible for performing duties associated with an optional early termination."
      } ],
      "type" : "cdm::model::CalculationAgent"
    }, {
      "multiplicity" : {
        "lowerBound" : 1,
        "upperBound" : 1
      },
      "name" : "cashSettlement",
      "taggedValues" : [ {
        "tag" : {
          "profile" : "meta::pure::profiles::doc",
          "value" : "doc"
        },
        "value" : "If specified, this means that cash settlement is applicable to the transaction and defines the parameters associated with the cash settlement procedure. If not specified, then physical settlement is applicable."
      } ],
      "type" : "cdm::model::OptionCashSettlement"
    }, {
      "multiplicity" : {
        "lowerBound" : 0,
        "upperBound" : 1
      },
      "name" : "mandatoryEarlyTerminationAdjustedDates",
      "taggedValues" : [ {
        "tag" : {
          "profile" : "meta::pure::profiles::doc",
          "value" : "doc"
        },
        "value" : "The adjusted dates associated with a mandatory early termination provision. These dates have been adjusted for any applicable business day convention."
      } ],
      "type" : "cdm::model::MandatoryEarlyTerminationAdjustedDates"
    } ],
    "stereotypes" : [ {
      "profile" : "cdm::model::metadata",
      "value" : "key"
    } ],
    "taggedValues" : [ {
      "tag" : {
        "profile" : "meta::pure::profiles::doc",
        "value" : "doc"
      },
      "value" : "A data to:  define an early termination provision for which exercise is mandatory."
    } ]
  }
}