{
  "classifierPath" : "meta::pure::metamodel::type::Enumeration",
  "content" : {
    "_type" : "Enumeration",
    "name" : "NationalizationOrInsolvencyOrDelistingEventEnum",
    "package" : "cdm::model",
    "taggedValues" : [ {
      "tag" : {
        "profile" : "meta::pure::profiles::doc",
        "value" : "doc"
      },
      "value" : "Defines the consequences of nationalization, insolvency and delisting events relating to the underlying."
    } ],
    "values" : [ {
      "taggedValues" : [ {
        "tag" : {
          "profile" : "meta::pure::profiles::doc",
          "value" : "doc"
        },
        "value" : "The parties may, but are not obliged, to terminate the transaction on mutually acceptable terms and if the terms are not agreed then the transaction continues."
      } ],
      "value" : "NegotiatedCloseout"
    }, {
      "taggedValues" : [ {
        "tag" : {
          "profile" : "meta::pure::profiles::doc",
          "value" : "doc"
        },
        "value" : "The trade is terminated."
      } ],
      "value" : "CancellationAndPayment"
    } ]
  }
}