{
  "classifierPath" : "meta::pure::metamodel::type::Class",
  "content" : {
    "_type" : "class",
    "constraints" : [ {
      "functionDefinition" : {
        "_type" : "lambda",
        "body" : [ {
          "_type" : "func",
          "function" : "greaterThanEqual",
          "parameters" : [ {
            "_type" : "property",
            "parameters" : [ {
              "_type" : "var",
              "name" : "this"
            } ],
            "property" : "stepValue"
          }, {
            "_type" : "float",
            "multiplicity" : {
              "lowerBound" : 1,
              "upperBound" : 1
            },
            "values" : [ 0 ]
          } ]
        } ],
        "parameters" : [ ]
      },
      "name" : "NonNegativeStep_stepValue"
    } ],
    "name" : "NonNegativeStep",
    "package" : "cdm::model",
    "properties" : [ {
      "multiplicity" : {
        "lowerBound" : 1,
        "upperBound" : 1
      },
      "name" : "stepDate",
      "taggedValues" : [ {
        "tag" : {
          "profile" : "meta::pure::profiles::doc",
          "value" : "doc"
        },
        "value" : "The date on which the associated stepValue becomes effective. This day may be subject to adjustment in accordance with a business day convention."
      } ],
      "type" : "Date"
    }, {
      "multiplicity" : {
        "lowerBound" : 1,
        "upperBound" : 1
      },
      "name" : "stepValue",
      "taggedValues" : [ {
        "tag" : {
          "profile" : "meta::pure::profiles::doc",
          "value" : "doc"
        },
        "value" : "The non-negative rate or amount which becomes effective on the associated stepDate. A rate of 5% would be represented as 0.05."
      } ],
      "type" : "Float"
    } ],
    "stereotypes" : [ {
      "profile" : "cdm::model::metadata",
      "value" : "key"
    } ],
    "taggedValues" : [ {
      "tag" : {
        "profile" : "meta::pure::profiles::doc",
        "value" : "doc"
      },
      "value" : "A class defining a step date and non-negative step value pair. This step definitions are used to define varying rate or amount schedules, e.g. a notional amortisation or a step-up coupon schedule."
    } ]
  }
}