{
  "classifierPath" : "meta::pure::metamodel::type::Class",
  "content" : {
    "_type" : "class",
    "constraints" : [ {
      "functionDefinition" : {
        "_type" : "lambda",
        "body" : [ {
          "_type" : "func",
          "function" : "or",
          "parameters" : [ {
            "_type" : "func",
            "function" : "or",
            "parameters" : [ {
              "_type" : "func",
              "function" : "or",
              "parameters" : [ {
                "_type" : "func",
                "function" : "and",
                "parameters" : [ {
                  "_type" : "func",
                  "function" : "and",
                  "parameters" : [ {
                    "_type" : "func",
                    "function" : "and",
                    "parameters" : [ {
                      "_type" : "func",
                      "function" : "isNotEmpty",
                      "parameters" : [ {
                        "_type" : "property",
                        "parameters" : [ {
                          "_type" : "var",
                          "name" : "this"
                        } ],
                        "property" : "rateOption"
                      } ]
                    }, {
                      "_type" : "func",
                      "function" : "isEmpty",
                      "parameters" : [ {
                        "_type" : "property",
                        "parameters" : [ {
                          "_type" : "var",
                          "name" : "this"
                        } ],
                        "property" : "commodity"
                      } ]
                    } ]
                  }, {
                    "_type" : "func",
                    "function" : "isEmpty",
                    "parameters" : [ {
                      "_type" : "property",
                      "parameters" : [ {
                        "_type" : "var",
                        "name" : "this"
                      } ],
                      "property" : "productIdentifier"
                    } ]
                  } ]
                }, {
                  "_type" : "func",
                  "function" : "isEmpty",
                  "parameters" : [ {
                    "_type" : "property",
                    "parameters" : [ {
                      "_type" : "var",
                      "name" : "this"
                    } ],
                    "property" : "currencyPair"
                  } ]
                } ]
              }, {
                "_type" : "func",
                "function" : "and",
                "parameters" : [ {
                  "_type" : "func",
                  "function" : "and",
                  "parameters" : [ {
                    "_type" : "func",
                    "function" : "and",
                    "parameters" : [ {
                      "_type" : "func",
                      "function" : "isNotEmpty",
                      "parameters" : [ {
                        "_type" : "property",
                        "parameters" : [ {
                          "_type" : "var",
                          "name" : "this"
                        } ],
                        "property" : "commodity"
                      } ]
                    }, {
                      "_type" : "func",
                      "function" : "isEmpty",
                      "parameters" : [ {
                        "_type" : "property",
                        "parameters" : [ {
                          "_type" : "var",
                          "name" : "this"
                        } ],
                        "property" : "rateOption"
                      } ]
                    } ]
                  }, {
                    "_type" : "func",
                    "function" : "isEmpty",
                    "parameters" : [ {
                      "_type" : "property",
                      "parameters" : [ {
                        "_type" : "var",
                        "name" : "this"
                      } ],
                      "property" : "productIdentifier"
                    } ]
                  } ]
                }, {
                  "_type" : "func",
                  "function" : "isEmpty",
                  "parameters" : [ {
                    "_type" : "property",
                    "parameters" : [ {
                      "_type" : "var",
                      "name" : "this"
                    } ],
                    "property" : "currencyPair"
                  } ]
                } ]
              } ]
            }, {
              "_type" : "func",
              "function" : "and",
              "parameters" : [ {
                "_type" : "func",
                "function" : "and",
                "parameters" : [ {
                  "_type" : "func",
                  "function" : "and",
                  "parameters" : [ {
                    "_type" : "func",
                    "function" : "isNotEmpty",
                    "parameters" : [ {
                      "_type" : "property",
                      "parameters" : [ {
                        "_type" : "var",
                        "name" : "this"
                      } ],
                      "property" : "productIdentifier"
                    } ]
                  }, {
                    "_type" : "func",
                    "function" : "isEmpty",
                    "parameters" : [ {
                      "_type" : "property",
                      "parameters" : [ {
                        "_type" : "var",
                        "name" : "this"
                      } ],
                      "property" : "rateOption"
                    } ]
                  } ]
                }, {
                  "_type" : "func",
                  "function" : "isEmpty",
                  "parameters" : [ {
                    "_type" : "property",
                    "parameters" : [ {
                      "_type" : "var",
                      "name" : "this"
                    } ],
                    "property" : "commodity"
                  } ]
                } ]
              }, {
                "_type" : "func",
                "function" : "isEmpty",
                "parameters" : [ {
                  "_type" : "property",
                  "parameters" : [ {
                    "_type" : "var",
                    "name" : "this"
                  } ],
                  "property" : "currencyPair"
                } ]
              } ]
            } ]
          }, {
            "_type" : "func",
            "function" : "and",
            "parameters" : [ {
              "_type" : "func",
              "function" : "and",
              "parameters" : [ {
                "_type" : "func",
                "function" : "and",
                "parameters" : [ {
                  "_type" : "func",
                  "function" : "isNotEmpty",
                  "parameters" : [ {
                    "_type" : "property",
                    "parameters" : [ {
                      "_type" : "var",
                      "name" : "this"
                    } ],
                    "property" : "currencyPair"
                  } ]
                }, {
                  "_type" : "func",
                  "function" : "isEmpty",
                  "parameters" : [ {
                    "_type" : "property",
                    "parameters" : [ {
                      "_type" : "var",
                      "name" : "this"
                    } ],
                    "property" : "rateOption"
                  } ]
                } ]
              }, {
                "_type" : "func",
                "function" : "isEmpty",
                "parameters" : [ {
                  "_type" : "property",
                  "parameters" : [ {
                    "_type" : "var",
                    "name" : "this"
                  } ],
                  "property" : "commodity"
                } ]
              } ]
            }, {
              "_type" : "func",
              "function" : "isEmpty",
              "parameters" : [ {
                "_type" : "property",
                "parameters" : [ {
                  "_type" : "var",
                  "name" : "this"
                } ],
                "property" : "productIdentifier"
              } ]
            } ]
          } ]
        } ],
        "parameters" : [ ]
      },
      "name" : "one_of_constraint"
    } ],
    "name" : "Observable",
    "package" : "cdm::model",
    "properties" : [ {
      "multiplicity" : {
        "lowerBound" : 0,
        "upperBound" : 1
      },
      "name" : "rateOption",
      "stereotypes" : [ {
        "profile" : "cdm::model::metadata",
        "value" : "location"
      } ],
      "taggedValues" : [ {
        "tag" : {
          "profile" : "meta::pure::profiles::doc",
          "value" : "doc"
        },
        "value" : "Specifies a floating rate index and tenor."
      } ],
      "type" : "cdm::model::FloatingRateOption"
    }, {
      "multiplicity" : {
        "lowerBound" : 0,
        "upperBound" : 1
      },
      "name" : "commodity",
      "taggedValues" : [ {
        "tag" : {
          "profile" : "meta::pure::profiles::doc",
          "value" : "doc"
        },
        "value" : "Identifies a commodity by referencing a product identifier."
      } ],
      "type" : "cdm::model::Commodity"
    }, {
      "multiplicity" : {
        "lowerBound" : 0
      },
      "name" : "productIdentifier",
      "taggedValues" : [ {
        "tag" : {
          "profile" : "meta::pure::profiles::doc",
          "value" : "doc"
        },
        "value" : "Comprises of an identifier and a source. The associated metadata key denotes the ability to associate a hash value to the ProductIdentifier instantiations for the purpose of model cross-referencing, in support of functionality such as the event effect and the lineage."
      } ],
      "type" : "cdm::model::ProductIdentifier"
    }, {
      "multiplicity" : {
        "lowerBound" : 0,
        "upperBound" : 1
      },
      "name" : "currencyPair",
      "taggedValues" : [ {
        "tag" : {
          "profile" : "meta::pure::profiles::doc",
          "value" : "doc"
        },
        "value" : "Describes the composition of a rate that has been quoted or is to be quoted, including the two currencies and the quotation relationship between the two currencies."
      } ],
      "type" : "cdm::model::QuotedCurrencyPair"
    }, {
      "multiplicity" : {
        "lowerBound" : 0,
        "upperBound" : 1
      },
      "name" : "optionReferenceType",
      "taggedValues" : [ {
        "tag" : {
          "profile" : "meta::pure::profiles::doc",
          "value" : "doc"
        },
        "value" : "The underlying contract which is referenced when determining the final settlement price of the instrument. Eg. Rolling Front Month Future; Spot etc."
      } ],
      "type" : "cdm::model::OptionReferenceTypeEnum"
    } ],
    "stereotypes" : [ {
      "profile" : "cdm::model::metadata",
      "value" : "key"
    } ],
    "taggedValues" : [ {
      "tag" : {
        "profile" : "meta::pure::profiles::doc",
        "value" : "doc"
      },
      "value" : "Specifies the object to be observed for a price, it could be an asset or a reference."
    } ]
  }
}