{
  "classifierPath" : "meta::pure::metamodel::type::Class",
  "content" : {
    "_type" : "class",
    "constraints" : [ {
      "functionDefinition" : {
        "_type" : "lambda",
        "body" : [ {
          "_type" : "func",
          "function" : "if",
          "parameters" : [ {
            "_type" : "func",
            "function" : "isNotEmpty",
            "parameters" : [ {
              "_type" : "property",
              "parameters" : [ {
                "_type" : "var",
                "name" : "this"
              } ],
              "property" : "optionEntitlement"
            } ]
          }, {
            "_type" : "lambda",
            "body" : [ {
              "_type" : "func",
              "function" : "greaterThanEqual",
              "parameters" : [ {
                "_type" : "property",
                "parameters" : [ {
                  "_type" : "var",
                  "name" : "this"
                } ],
                "property" : "optionEntitlement"
              }, {
                "_type" : "float",
                "multiplicity" : {
                  "lowerBound" : 1,
                  "upperBound" : 1
                },
                "values" : [ 0 ]
              } ]
            } ],
            "parameters" : [ ]
          }, {
            "_type" : "lambda",
            "body" : [ {
              "_type" : "boolean",
              "multiplicity" : {
                "lowerBound" : 1,
                "upperBound" : 1
              },
              "values" : [ true ]
            } ],
            "parameters" : [ ]
          } ]
        } ],
        "parameters" : [ ]
      },
      "name" : "PositiveOptionEntitlement"
    }, {
      "functionDefinition" : {
        "_type" : "lambda",
        "body" : [ {
          "_type" : "func",
          "function" : "if",
          "parameters" : [ {
            "_type" : "func",
            "function" : "isNotEmpty",
            "parameters" : [ {
              "_type" : "property",
              "parameters" : [ {
                "_type" : "var",
                "name" : "this"
              } ],
              "property" : "numberOfOptions"
            } ]
          }, {
            "_type" : "lambda",
            "body" : [ {
              "_type" : "func",
              "function" : "greaterThanEqual",
              "parameters" : [ {
                "_type" : "property",
                "parameters" : [ {
                  "_type" : "var",
                  "name" : "this"
                } ],
                "property" : "numberOfOptions"
              }, {
                "_type" : "float",
                "multiplicity" : {
                  "lowerBound" : 1,
                  "upperBound" : 1
                },
                "values" : [ 0 ]
              } ]
            } ],
            "parameters" : [ ]
          }, {
            "_type" : "lambda",
            "body" : [ {
              "_type" : "boolean",
              "multiplicity" : {
                "lowerBound" : 1,
                "upperBound" : 1
              },
              "values" : [ true ]
            } ],
            "parameters" : [ ]
          } ]
        } ],
        "parameters" : [ ]
      },
      "name" : "PositiveNumberOfOptions"
    } ],
    "name" : "OptionDenomination",
    "package" : "cdm::model",
    "properties" : [ {
      "multiplicity" : {
        "lowerBound" : 1,
        "upperBound" : 1
      },
      "name" : "optionEntitlement",
      "taggedValues" : [ {
        "tag" : {
          "profile" : "meta::pure::profiles::doc",
          "value" : "doc"
        },
        "value" : "The number of units of underlier per option comprised in the option transaction."
      } ],
      "type" : "Float"
    }, {
      "multiplicity" : {
        "lowerBound" : 0,
        "upperBound" : 1
      },
      "name" : "entitlementCurrency",
      "stereotypes" : [ {
        "profile" : "cdm::model::metadata",
        "value" : "scheme"
      } ],
      "taggedValues" : [ {
        "tag" : {
          "profile" : "meta::pure::profiles::doc",
          "value" : "doc"
        },
        "value" : "The currency in which the option is denominated. The list of valid currencies is not presently positioned as an enumeration as part of the CDM because that scope is limited to the values specified by ISDA and FpML. As a result, implementers have to make reference to the relevant standard, such as the ISO 4217 standard for currency codes."
      } ],
      "type" : "String"
    }, {
      "multiplicity" : {
        "lowerBound" : 0,
        "upperBound" : 1
      },
      "name" : "numberOfOptions",
      "taggedValues" : [ {
        "tag" : {
          "profile" : "meta::pure::profiles::doc",
          "value" : "doc"
        },
        "value" : "The number of options comprised in the option transaction."
      } ],
      "type" : "Float"
    } ],
    "taggedValues" : [ {
      "tag" : {
        "profile" : "meta::pure::profiles::doc",
        "value" : "doc"
      },
      "value" : "Class which corresponds to the FpML OptionDenomination.model group."
    } ]
  }
}