{
  "classifierPath" : "meta::pure::metamodel::type::Class",
  "content" : {
    "_type" : "class",
    "constraints" : [ {
      "functionDefinition" : {
        "_type" : "lambda",
        "body" : [ {
          "_type" : "func",
          "function" : "or",
          "parameters" : [ {
            "_type" : "func",
            "function" : "or",
            "parameters" : [ {
              "_type" : "func",
              "function" : "and",
              "parameters" : [ {
                "_type" : "func",
                "function" : "and",
                "parameters" : [ {
                  "_type" : "func",
                  "function" : "isNotEmpty",
                  "parameters" : [ {
                    "_type" : "property",
                    "parameters" : [ {
                      "_type" : "var",
                      "name" : "this"
                    } ],
                    "property" : "americanExercise"
                  } ]
                }, {
                  "_type" : "func",
                  "function" : "isEmpty",
                  "parameters" : [ {
                    "_type" : "property",
                    "parameters" : [ {
                      "_type" : "var",
                      "name" : "this"
                    } ],
                    "property" : "bermudaExercise"
                  } ]
                } ]
              }, {
                "_type" : "func",
                "function" : "isEmpty",
                "parameters" : [ {
                  "_type" : "property",
                  "parameters" : [ {
                    "_type" : "var",
                    "name" : "this"
                  } ],
                  "property" : "europeanExercise"
                } ]
              } ]
            }, {
              "_type" : "func",
              "function" : "and",
              "parameters" : [ {
                "_type" : "func",
                "function" : "and",
                "parameters" : [ {
                  "_type" : "func",
                  "function" : "isNotEmpty",
                  "parameters" : [ {
                    "_type" : "property",
                    "parameters" : [ {
                      "_type" : "var",
                      "name" : "this"
                    } ],
                    "property" : "bermudaExercise"
                  } ]
                }, {
                  "_type" : "func",
                  "function" : "isEmpty",
                  "parameters" : [ {
                    "_type" : "property",
                    "parameters" : [ {
                      "_type" : "var",
                      "name" : "this"
                    } ],
                    "property" : "americanExercise"
                  } ]
                } ]
              }, {
                "_type" : "func",
                "function" : "isEmpty",
                "parameters" : [ {
                  "_type" : "property",
                  "parameters" : [ {
                    "_type" : "var",
                    "name" : "this"
                  } ],
                  "property" : "europeanExercise"
                } ]
              } ]
            } ]
          }, {
            "_type" : "func",
            "function" : "and",
            "parameters" : [ {
              "_type" : "func",
              "function" : "and",
              "parameters" : [ {
                "_type" : "func",
                "function" : "isNotEmpty",
                "parameters" : [ {
                  "_type" : "property",
                  "parameters" : [ {
                    "_type" : "var",
                    "name" : "this"
                  } ],
                  "property" : "europeanExercise"
                } ]
              }, {
                "_type" : "func",
                "function" : "isEmpty",
                "parameters" : [ {
                  "_type" : "property",
                  "parameters" : [ {
                    "_type" : "var",
                    "name" : "this"
                  } ],
                  "property" : "americanExercise"
                } ]
              } ]
            }, {
              "_type" : "func",
              "function" : "isEmpty",
              "parameters" : [ {
                "_type" : "property",
                "parameters" : [ {
                  "_type" : "var",
                  "name" : "this"
                } ],
                "property" : "bermudaExercise"
              } ]
            } ]
          } ]
        } ],
        "parameters" : [ ]
      },
      "name" : "OptionalEarlyTerminationChoice"
    }, {
      "functionDefinition" : {
        "_type" : "lambda",
        "body" : [ {
          "_type" : "func",
          "function" : "if",
          "parameters" : [ {
            "_type" : "func",
            "function" : "isNotEmpty",
            "parameters" : [ {
              "_type" : "property",
              "parameters" : [ {
                "_type" : "property",
                "parameters" : [ {
                  "_type" : "var",
                  "name" : "this"
                } ],
                "property" : "exerciseNotice"
              } ],
              "property" : "exerciseNoticeReceiver"
            } ]
          }, {
            "_type" : "lambda",
            "body" : [ {
              "_type" : "func",
              "function" : "equal",
              "parameters" : [ {
                "_type" : "property",
                "parameters" : [ {
                  "_type" : "property",
                  "parameters" : [ {
                    "_type" : "var",
                    "name" : "this"
                  } ],
                  "property" : "exerciseNotice"
                } ],
                "property" : "exerciseNoticeReceiver"
              }, {
                "_type" : "property",
                "parameters" : [ {
                  "_type" : "enum",
                  "fullPath" : "cdm::model::AncillaryRoleEnum"
                } ],
                "property" : "ExerciseNoticeReceiverPartyOptionalEarlyTermination"
              } ]
            } ],
            "parameters" : [ ]
          }, {
            "_type" : "lambda",
            "body" : [ {
              "_type" : "boolean",
              "multiplicity" : {
                "lowerBound" : 1,
                "upperBound" : 1
              },
              "values" : [ true ]
            } ],
            "parameters" : [ ]
          } ]
        } ],
        "parameters" : [ ]
      },
      "name" : "OptionalEarlyTerminationExerciseNoticeReceiverParty"
    }, {
      "functionDefinition" : {
        "_type" : "lambda",
        "body" : [ {
          "_type" : "func",
          "function" : "if",
          "parameters" : [ {
            "_type" : "func",
            "function" : "isNotEmpty",
            "parameters" : [ {
              "_type" : "property",
              "parameters" : [ {
                "_type" : "property",
                "parameters" : [ {
                  "_type" : "var",
                  "name" : "this"
                } ],
                "property" : "calculationAgent"
              } ],
              "property" : "calculationAgentParty"
            } ]
          }, {
            "_type" : "lambda",
            "body" : [ {
              "_type" : "func",
              "function" : "equal",
              "parameters" : [ {
                "_type" : "property",
                "parameters" : [ {
                  "_type" : "property",
                  "parameters" : [ {
                    "_type" : "var",
                    "name" : "this"
                  } ],
                  "property" : "calculationAgent"
                } ],
                "property" : "calculationAgentParty"
              }, {
                "_type" : "property",
                "parameters" : [ {
                  "_type" : "enum",
                  "fullPath" : "cdm::model::AncillaryRoleEnum"
                } ],
                "property" : "CalculationAgentOptionalEarlyTermination"
              } ]
            } ],
            "parameters" : [ ]
          }, {
            "_type" : "lambda",
            "body" : [ {
              "_type" : "boolean",
              "multiplicity" : {
                "lowerBound" : 1,
                "upperBound" : 1
              },
              "values" : [ true ]
            } ],
            "parameters" : [ ]
          } ]
        } ],
        "parameters" : [ ]
      },
      "name" : "MandatoryEarlyTerminationCalculationAgent"
    } ],
    "name" : "OptionalEarlyTermination",
    "package" : "cdm::model",
    "properties" : [ {
      "multiplicity" : {
        "lowerBound" : 0,
        "upperBound" : 1
      },
      "name" : "singlePartyOption",
      "taggedValues" : [ {
        "tag" : {
          "profile" : "meta::pure::profiles::doc",
          "value" : "doc"
        },
        "value" : "If optional early termination is not available to both parties then this component specifies the buyer and seller of the option. In FpML, this attribute is of type SinglePsrtyOption, which actually consists of the BuyerSeller.model."
      } ],
      "type" : "cdm::model::BuyerSeller"
    }, {
      "multiplicity" : {
        "lowerBound" : 0,
        "upperBound" : 1
      },
      "name" : "americanExercise",
      "taggedValues" : [ {
        "tag" : {
          "profile" : "meta::pure::profiles::doc",
          "value" : "doc"
        },
        "value" : "American exercise. FpML implementations consists in an exercise substitution group."
      } ],
      "type" : "cdm::model::AmericanExercise"
    }, {
      "multiplicity" : {
        "lowerBound" : 0,
        "upperBound" : 1
      },
      "name" : "bermudaExercise",
      "taggedValues" : [ {
        "tag" : {
          "profile" : "meta::pure::profiles::doc",
          "value" : "doc"
        },
        "value" : "Bermuda exercise. FpML implementations consists in an exercise substitution group."
      } ],
      "type" : "cdm::model::BermudaExercise"
    }, {
      "multiplicity" : {
        "lowerBound" : 0,
        "upperBound" : 1
      },
      "name" : "europeanExercise",
      "taggedValues" : [ {
        "tag" : {
          "profile" : "meta::pure::profiles::doc",
          "value" : "doc"
        },
        "value" : "European exercise. FpML implementations consists in an exercise substitution group."
      } ],
      "type" : "cdm::model::EuropeanExercise"
    }, {
      "multiplicity" : {
        "lowerBound" : 0
      },
      "name" : "exerciseNotice",
      "taggedValues" : [ {
        "tag" : {
          "profile" : "meta::pure::profiles::doc",
          "value" : "doc"
        },
        "value" : "Definition of the party to whom notice of exercise should be given."
      } ],
      "type" : "cdm::model::ExerciseNotice"
    }, {
      "multiplicity" : {
        "lowerBound" : 0,
        "upperBound" : 1
      },
      "name" : "followUpConfirmation",
      "taggedValues" : [ {
        "tag" : {
          "profile" : "meta::pure::profiles::doc",
          "value" : "doc"
        },
        "value" : "A flag to indicate whether follow-up confirmation of exercise (written or electronic) is required following telephonic notice by the buyer to the seller or seller's agent."
      } ],
      "type" : "Boolean"
    }, {
      "multiplicity" : {
        "lowerBound" : 1,
        "upperBound" : 1
      },
      "name" : "calculationAgent",
      "taggedValues" : [ {
        "tag" : {
          "profile" : "meta::pure::profiles::doc",
          "value" : "doc"
        },
        "value" : "The ISDA Calculation Agent responsible for performing duties associated with an optional early termination."
      } ],
      "type" : "cdm::model::CalculationAgent"
    }, {
      "multiplicity" : {
        "lowerBound" : 1,
        "upperBound" : 1
      },
      "name" : "cashSettlement",
      "taggedValues" : [ {
        "tag" : {
          "profile" : "meta::pure::profiles::doc",
          "value" : "doc"
        },
        "value" : "If specified, this means that cash settlement is applicable to the transaction and defines the parameters associated with the cash settlement procedure. If not specified, then physical settlement is applicable."
      } ],
      "type" : "cdm::model::OptionCashSettlement"
    }, {
      "multiplicity" : {
        "lowerBound" : 0,
        "upperBound" : 1
      },
      "name" : "optionalEarlyTerminationAdjustedDates",
      "taggedValues" : [ {
        "tag" : {
          "profile" : "meta::pure::profiles::doc",
          "value" : "doc"
        },
        "value" : "An early termination provision to terminate the trade at fair value where one or both parties have the right to decide on termination."
      } ],
      "type" : "cdm::model::OptionalEarlyTerminationAdjustedDates"
    } ],
    "taggedValues" : [ {
      "tag" : {
        "profile" : "meta::pure::profiles::doc",
        "value" : "doc"
      },
      "value" : "A data defining:  an early termination provision where either or both parties have the right to exercise."
    } ]
  }
}