{
  "classifierPath" : "meta::pure::metamodel::type::Class",
  "content" : {
    "_type" : "class",
    "constraints" : [ {
      "functionDefinition" : {
        "_type" : "lambda",
        "body" : [ {
          "_type" : "func",
          "function" : "or",
          "parameters" : [ {
            "_type" : "func",
            "function" : "or",
            "parameters" : [ {
              "_type" : "func",
              "function" : "or",
              "parameters" : [ {
                "_type" : "func",
                "function" : "and",
                "parameters" : [ {
                  "_type" : "func",
                  "function" : "and",
                  "parameters" : [ {
                    "_type" : "func",
                    "function" : "and",
                    "parameters" : [ {
                      "_type" : "func",
                      "function" : "isNotEmpty",
                      "parameters" : [ {
                        "_type" : "property",
                        "parameters" : [ {
                          "_type" : "var",
                          "name" : "this"
                        } ],
                        "property" : "strikePrice"
                      } ]
                    }, {
                      "_type" : "func",
                      "function" : "isEmpty",
                      "parameters" : [ {
                        "_type" : "property",
                        "parameters" : [ {
                          "_type" : "var",
                          "name" : "this"
                        } ],
                        "property" : "strikeReference"
                      } ]
                    } ]
                  }, {
                    "_type" : "func",
                    "function" : "isEmpty",
                    "parameters" : [ {
                      "_type" : "property",
                      "parameters" : [ {
                        "_type" : "var",
                        "name" : "this"
                      } ],
                      "property" : "referenceSwapCurve"
                    } ]
                  } ]
                }, {
                  "_type" : "func",
                  "function" : "isEmpty",
                  "parameters" : [ {
                    "_type" : "property",
                    "parameters" : [ {
                      "_type" : "var",
                      "name" : "this"
                    } ],
                    "property" : "averagingStrikeFeature"
                  } ]
                } ]
              }, {
                "_type" : "func",
                "function" : "and",
                "parameters" : [ {
                  "_type" : "func",
                  "function" : "and",
                  "parameters" : [ {
                    "_type" : "func",
                    "function" : "and",
                    "parameters" : [ {
                      "_type" : "func",
                      "function" : "isNotEmpty",
                      "parameters" : [ {
                        "_type" : "property",
                        "parameters" : [ {
                          "_type" : "var",
                          "name" : "this"
                        } ],
                        "property" : "strikeReference"
                      } ]
                    }, {
                      "_type" : "func",
                      "function" : "isEmpty",
                      "parameters" : [ {
                        "_type" : "property",
                        "parameters" : [ {
                          "_type" : "var",
                          "name" : "this"
                        } ],
                        "property" : "strikePrice"
                      } ]
                    } ]
                  }, {
                    "_type" : "func",
                    "function" : "isEmpty",
                    "parameters" : [ {
                      "_type" : "property",
                      "parameters" : [ {
                        "_type" : "var",
                        "name" : "this"
                      } ],
                      "property" : "referenceSwapCurve"
                    } ]
                  } ]
                }, {
                  "_type" : "func",
                  "function" : "isEmpty",
                  "parameters" : [ {
                    "_type" : "property",
                    "parameters" : [ {
                      "_type" : "var",
                      "name" : "this"
                    } ],
                    "property" : "averagingStrikeFeature"
                  } ]
                } ]
              } ]
            }, {
              "_type" : "func",
              "function" : "and",
              "parameters" : [ {
                "_type" : "func",
                "function" : "and",
                "parameters" : [ {
                  "_type" : "func",
                  "function" : "and",
                  "parameters" : [ {
                    "_type" : "func",
                    "function" : "isNotEmpty",
                    "parameters" : [ {
                      "_type" : "property",
                      "parameters" : [ {
                        "_type" : "var",
                        "name" : "this"
                      } ],
                      "property" : "referenceSwapCurve"
                    } ]
                  }, {
                    "_type" : "func",
                    "function" : "isEmpty",
                    "parameters" : [ {
                      "_type" : "property",
                      "parameters" : [ {
                        "_type" : "var",
                        "name" : "this"
                      } ],
                      "property" : "strikePrice"
                    } ]
                  } ]
                }, {
                  "_type" : "func",
                  "function" : "isEmpty",
                  "parameters" : [ {
                    "_type" : "property",
                    "parameters" : [ {
                      "_type" : "var",
                      "name" : "this"
                    } ],
                    "property" : "strikeReference"
                  } ]
                } ]
              }, {
                "_type" : "func",
                "function" : "isEmpty",
                "parameters" : [ {
                  "_type" : "property",
                  "parameters" : [ {
                    "_type" : "var",
                    "name" : "this"
                  } ],
                  "property" : "averagingStrikeFeature"
                } ]
              } ]
            } ]
          }, {
            "_type" : "func",
            "function" : "and",
            "parameters" : [ {
              "_type" : "func",
              "function" : "and",
              "parameters" : [ {
                "_type" : "func",
                "function" : "and",
                "parameters" : [ {
                  "_type" : "func",
                  "function" : "isNotEmpty",
                  "parameters" : [ {
                    "_type" : "property",
                    "parameters" : [ {
                      "_type" : "var",
                      "name" : "this"
                    } ],
                    "property" : "averagingStrikeFeature"
                  } ]
                }, {
                  "_type" : "func",
                  "function" : "isEmpty",
                  "parameters" : [ {
                    "_type" : "property",
                    "parameters" : [ {
                      "_type" : "var",
                      "name" : "this"
                    } ],
                    "property" : "strikePrice"
                  } ]
                } ]
              }, {
                "_type" : "func",
                "function" : "isEmpty",
                "parameters" : [ {
                  "_type" : "property",
                  "parameters" : [ {
                    "_type" : "var",
                    "name" : "this"
                  } ],
                  "property" : "strikeReference"
                } ]
              } ]
            }, {
              "_type" : "func",
              "function" : "isEmpty",
              "parameters" : [ {
                "_type" : "property",
                "parameters" : [ {
                  "_type" : "var",
                  "name" : "this"
                } ],
                "property" : "referenceSwapCurve"
              } ]
            } ]
          } ]
        } ],
        "parameters" : [ ]
      },
      "name" : "one_of_constraint"
    } ],
    "name" : "OptionStrike",
    "package" : "cdm::model",
    "properties" : [ {
      "multiplicity" : {
        "lowerBound" : 0,
        "upperBound" : 1
      },
      "name" : "strikePrice",
      "taggedValues" : [ {
        "tag" : {
          "profile" : "meta::pure::profiles::doc",
          "value" : "doc"
        },
        "value" : "Defines the strike of an option in the form of a price that could be a cash price, interestRate, or other types."
      } ],
      "type" : "cdm::model::Price"
    }, {
      "multiplicity" : {
        "lowerBound" : 0,
        "upperBound" : 1
      },
      "name" : "strikeReference",
      "stereotypes" : [ {
        "profile" : "cdm::model::metadata",
        "value" : "reference"
      } ],
      "taggedValues" : [ {
        "tag" : {
          "profile" : "meta::pure::profiles::doc",
          "value" : "doc"
        },
        "value" : "Defines the strike of an option in reference to the spread of the underlying swap (typical practice in the case of an option on a credit single name swaps)."
      } ],
      "type" : "cdm::model::FixedRateSpecification"
    }, {
      "multiplicity" : {
        "lowerBound" : 0,
        "upperBound" : 1
      },
      "name" : "referenceSwapCurve",
      "taggedValues" : [ {
        "tag" : {
          "profile" : "meta::pure::profiles::doc",
          "value" : "doc"
        },
        "value" : "Defines the strike of an option when expressed by reference to a swap curve (Typically the case for a convertible bond option)."
      } ],
      "type" : "cdm::model::ReferenceSwapCurve"
    }, {
      "multiplicity" : {
        "lowerBound" : 0,
        "upperBound" : 1
      },
      "name" : "averagingStrikeFeature",
      "taggedValues" : [ {
        "tag" : {
          "profile" : "meta::pure::profiles::doc",
          "value" : "doc"
        },
        "value" : "Defines an option strike that is calculated from an average of observed market prices."
      } ],
      "type" : "cdm::model::AveragingStrikeFeature"
    } ],
    "taggedValues" : [ {
      "tag" : {
        "profile" : "meta::pure::profiles::doc",
        "value" : "doc"
      },
      "value" : "Defines the strike price of an option."
    } ]
  }
}