{
  "classifierPath" : "meta::pure::metamodel::type::Class",
  "content" : {
    "_type" : "class",
    "name" : "PayoutBase",
    "package" : "cdm::model",
    "properties" : [ {
      "multiplicity" : {
        "lowerBound" : 1,
        "upperBound" : 1
      },
      "name" : "payoutQuantity",
      "taggedValues" : [ {
        "tag" : {
          "profile" : "meta::pure::profiles::doc",
          "value" : "doc"
        },
        "value" : "Each payout leg must implement the quantity concept as a 'resolvable' type, which allows for different payout legs to be linked to each other (e.g. in the case of cross-curreny products)."
      } ],
      "type" : "cdm::model::ResolvablePayoutQuantity"
    } ],
    "taggedValues" : [ {
      "tag" : {
        "profile" : "meta::pure::profiles::doc",
        "value" : "doc"
      },
      "value" : "Base class that all payout types should extend. Use case is that some validation rules may need to apply across all payout types, for which the data rule can be written at the base class level"
    } ]
  }
}