{
  "classifierPath" : "meta::pure::metamodel::type::Class",
  "content" : {
    "_type" : "class",
    "name" : "PeriodicDates",
    "package" : "cdm::model",
    "properties" : [ {
      "multiplicity" : {
        "lowerBound" : 0,
        "upperBound" : 1
      },
      "name" : "startDate",
      "taggedValues" : [ {
        "tag" : {
          "profile" : "meta::pure::profiles::doc",
          "value" : "doc"
        },
        "value" : "The start date of the calculation period. FpML specifies that for interest rate swaps this date must only be specified if it is not equal to the effective date. It is always specified in the case of equity swaps and credit default swaps with periodic payments. This date may be subject to adjustment in accordance with a business day convention."
      } ],
      "type" : "cdm::model::AdjustableOrRelativeDate"
    }, {
      "multiplicity" : {
        "lowerBound" : 0,
        "upperBound" : 1
      },
      "name" : "endDate",
      "taggedValues" : [ {
        "tag" : {
          "profile" : "meta::pure::profiles::doc",
          "value" : "doc"
        },
        "value" : "The end date of the calculation period. FpML specifies that for interest rate swaps this date must only be specified if it is not equal to the termination date. It is always specified in the case of equity swaps with periodic payments. This date may be subject to adjustment in accordance with a business day convention."
      } ],
      "type" : "cdm::model::AdjustableOrRelativeDate"
    }, {
      "multiplicity" : {
        "lowerBound" : 0,
        "upperBound" : 1
      },
      "name" : "periodFrequency",
      "taggedValues" : [ {
        "tag" : {
          "profile" : "meta::pure::profiles::doc",
          "value" : "doc"
        },
        "value" : "The frequency at which calculation period end dates occur with the regular part of the calculation period schedule and their roll date convention."
      } ],
      "type" : "cdm::model::CalculationPeriodFrequency"
    }, {
      "multiplicity" : {
        "lowerBound" : 0,
        "upperBound" : 1
      },
      "name" : "periodDatesAdjustments",
      "taggedValues" : [ {
        "tag" : {
          "profile" : "meta::pure::profiles::doc",
          "value" : "doc"
        },
        "value" : "The specification of the business day convention and financial business centers used for adjusting any calculation period date if it would otherwise fall on a day that is not a business day in the specified business center."
      } ],
      "type" : "cdm::model::BusinessDayAdjustments"
    } ],
    "taggedValues" : [ {
      "tag" : {
        "profile" : "meta::pure::profiles::doc",
        "value" : "doc"
      },
      "value" : "A class for specifying a calculation period schedule."
    } ]
  }
}