{
  "classifierPath" : "meta::pure::metamodel::type::Class",
  "content" : {
    "_type" : "class",
    "name" : "Position",
    "package" : "cdm::model",
    "properties" : [ {
      "multiplicity" : {
        "lowerBound" : 1,
        "upperBound" : 1
      },
      "name" : "product",
      "taggedValues" : [ {
        "tag" : {
          "profile" : "meta::pure::profiles::doc",
          "value" : "doc"
        },
        "value" : "The product underlying the position, which can either be a contractual product or securities."
      } ],
      "type" : "cdm::model::Product"
    }, {
      "multiplicity" : {
        "lowerBound" : 1,
        "upperBound" : 1
      },
      "name" : "quantity",
      "taggedValues" : [ {
        "tag" : {
          "profile" : "meta::pure::profiles::doc",
          "value" : "doc"
        },
        "value" : "The quantity of the product, which can be a negative number in case of a short position."
      } ],
      "type" : "cdm::model::Quantity"
    }, {
      "multiplicity" : {
        "lowerBound" : 0,
        "upperBound" : 1
      },
      "name" : "cashBalance",
      "taggedValues" : [ {
        "tag" : {
          "profile" : "meta::pure::profiles::doc",
          "value" : "doc"
        },
        "value" : "The aggregate cost of proceeds"
      } ],
      "type" : "cdm::model::Money"
    }, {
      "multiplicity" : {
        "lowerBound" : 1,
        "upperBound" : 1
      },
      "name" : "positionStatus",
      "taggedValues" : [ {
        "tag" : {
          "profile" : "meta::pure::profiles::doc",
          "value" : "doc"
        },
        "value" : "Qualifier for the state of the Position, to distinguish if just executed, formed, already settled, closed etc."
      } ],
      "type" : "cdm::model::PositionStatusEnum"
    }, {
      "multiplicity" : {
        "lowerBound" : 1,
        "upperBound" : 1
      },
      "name" : "tradeReference",
      "stereotypes" : [ {
        "profile" : "cdm::model::metadata",
        "value" : "reference"
      } ],
      "taggedValues" : [ {
        "tag" : {
          "profile" : "meta::pure::profiles::doc",
          "value" : "doc"
        },
        "value" : "Reference to the Contract, in case product is contractual and the contract has been formed"
      } ],
      "type" : "cdm::model::Trade"
    } ],
    "taggedValues" : [ {
      "tag" : {
        "profile" : "meta::pure::profiles::doc",
        "value" : "doc"
      },
      "value" : "A Position describes how much of a given Product is being held and constitutes the atomic element of a Portfolio."
    } ]
  }
}