{
  "classifierPath" : "meta::pure::metamodel::type::Class",
  "content" : {
    "_type" : "class",
    "constraints" : [ {
      "functionDefinition" : {
        "_type" : "lambda",
        "body" : [ {
          "_type" : "func",
          "function" : "if",
          "parameters" : [ {
            "_type" : "func",
            "function" : "isNotEmpty",
            "parameters" : [ {
              "_type" : "property",
              "parameters" : [ {
                "_type" : "property",
                "parameters" : [ {
                  "_type" : "var",
                  "name" : "this"
                } ],
                "property" : "quantity"
              } ],
              "property" : "amount"
            } ]
          }, {
            "_type" : "lambda",
            "body" : [ {
              "_type" : "func",
              "function" : "greaterThan",
              "parameters" : [ {
                "_type" : "func",
                "function" : "toOne",
                "parameters" : [ {
                  "_type" : "property",
                  "parameters" : [ {
                    "_type" : "property",
                    "parameters" : [ {
                      "_type" : "var",
                      "name" : "this"
                    } ],
                    "property" : "quantity"
                  } ],
                  "property" : "amount"
                } ]
              }, {
                "_type" : "integer",
                "multiplicity" : {
                  "lowerBound" : 1,
                  "upperBound" : 1
                },
                "values" : [ 0 ]
              } ]
            } ],
            "parameters" : [ ]
          }, {
            "_type" : "lambda",
            "body" : [ {
              "_type" : "boolean",
              "multiplicity" : {
                "lowerBound" : 1,
                "upperBound" : 1
              },
              "values" : [ true ]
            } ],
            "parameters" : [ ]
          } ]
        } ],
        "parameters" : [ ]
      },
      "name" : "NonNegativeQuantity"
    }, {
      "functionDefinition" : {
        "_type" : "lambda",
        "body" : [ {
          "_type" : "func",
          "function" : "if",
          "parameters" : [ {
            "_type" : "func",
            "function" : "and",
            "parameters" : [ {
              "_type" : "func",
              "function" : "isNotEmpty",
              "parameters" : [ {
                "_type" : "property",
                "parameters" : [ {
                  "_type" : "property",
                  "parameters" : [ {
                    "_type" : "var",
                    "name" : "this"
                  } ],
                  "property" : "observable"
                } ],
                "property" : "rateOption"
              } ]
            }, {
              "_type" : "func",
              "function" : "isNotEmpty",
              "parameters" : [ {
                "_type" : "property",
                "parameters" : [ {
                  "_type" : "var",
                  "name" : "this"
                } ],
                "property" : "price"
              } ]
            } ]
          }, {
            "_type" : "lambda",
            "body" : [ {
              "_type" : "func",
              "function" : "in",
              "parameters" : [ {
                "_type" : "func",
                "function" : "toOne",
                "parameters" : [ {
                  "_type" : "property",
                  "parameters" : [ {
                    "_type" : "property",
                    "parameters" : [ {
                      "_type" : "var",
                      "name" : "this"
                    } ],
                    "property" : "price"
                  } ],
                  "property" : "priceType"
                } ]
              }, {
                "_type" : "collection",
                "multiplicity" : {
                  "lowerBound" : 4,
                  "upperBound" : 4
                },
                "values" : [ {
                  "_type" : "property",
                  "parameters" : [ {
                    "_type" : "enum",
                    "fullPath" : "cdm::model::PriceTypeEnum"
                  } ],
                  "property" : "Spread"
                }, {
                  "_type" : "property",
                  "parameters" : [ {
                    "_type" : "enum",
                    "fullPath" : "cdm::model::PriceTypeEnum"
                  } ],
                  "property" : "CapRate"
                }, {
                  "_type" : "property",
                  "parameters" : [ {
                    "_type" : "enum",
                    "fullPath" : "cdm::model::PriceTypeEnum"
                  } ],
                  "property" : "FloorRate"
                }, {
                  "_type" : "property",
                  "parameters" : [ {
                    "_type" : "enum",
                    "fullPath" : "cdm::model::PriceTypeEnum"
                  } ],
                  "property" : "MultiplierOfIndexValue"
                } ]
              } ]
            } ],
            "parameters" : [ ]
          }, {
            "_type" : "lambda",
            "body" : [ {
              "_type" : "boolean",
              "multiplicity" : {
                "lowerBound" : 1,
                "upperBound" : 1
              },
              "values" : [ true ]
            } ],
            "parameters" : [ ]
          } ]
        } ],
        "parameters" : [ ]
      },
      "name" : "condition1"
    } ],
    "name" : "PriceQuantity",
    "package" : "cdm::model",
    "properties" : [ {
      "multiplicity" : {
        "lowerBound" : 0
      },
      "name" : "price",
      "stereotypes" : [ {
        "profile" : "cdm::model::metadata",
        "value" : "location"
      } ],
      "taggedValues" : [ {
        "tag" : {
          "profile" : "meta::pure::profiles::doc",
          "value" : "doc"
        },
        "value" : "Specifies a price to be used for trade amounts and other purposes."
      } ],
      "type" : "cdm::model::Price"
    }, {
      "multiplicity" : {
        "lowerBound" : 0
      },
      "name" : "quantity",
      "stereotypes" : [ {
        "profile" : "cdm::model::metadata",
        "value" : "location"
      } ],
      "taggedValues" : [ {
        "tag" : {
          "profile" : "meta::pure::profiles::doc",
          "value" : "doc"
        },
        "value" : "Specifies a quantity to be associated with an event, for example a trade amount."
      } ],
      "type" : "cdm::model::Quantity"
    }, {
      "multiplicity" : {
        "lowerBound" : 0,
        "upperBound" : 1
      },
      "name" : "observable",
      "taggedValues" : [ {
        "tag" : {
          "profile" : "meta::pure::profiles::doc",
          "value" : "doc"
        },
        "value" : "Specifies the object to be observed for a price, it could be an asset or a reference."
      } ],
      "type" : "cdm::model::Observable"
    } ],
    "stereotypes" : [ {
      "profile" : "cdm::model::metadata",
      "value" : "key"
    } ],
    "taggedValues" : [ {
      "tag" : {
        "profile" : "meta::pure::profiles::doc",
        "value" : "doc"
      },
      "value" : "Specifies the price, quantity, and optionally the observable for use in a trade or other purposes."
    } ]
  }
}