{
  "classifierPath" : "meta::pure::metamodel::type::Class",
  "content" : {
    "_type" : "class",
    "constraints" : [ {
      "functionDefinition" : {
        "_type" : "lambda",
        "body" : [ {
          "_type" : "func",
          "function" : "or",
          "parameters" : [ {
            "_type" : "func",
            "function" : "or",
            "parameters" : [ {
              "_type" : "func",
              "function" : "or",
              "parameters" : [ {
                "_type" : "func",
                "function" : "or",
                "parameters" : [ {
                  "_type" : "func",
                  "function" : "or",
                  "parameters" : [ {
                    "_type" : "func",
                    "function" : "or",
                    "parameters" : [ {
                      "_type" : "func",
                      "function" : "and",
                      "parameters" : [ {
                        "_type" : "func",
                        "function" : "and",
                        "parameters" : [ {
                          "_type" : "func",
                          "function" : "and",
                          "parameters" : [ {
                            "_type" : "func",
                            "function" : "and",
                            "parameters" : [ {
                              "_type" : "func",
                              "function" : "and",
                              "parameters" : [ {
                                "_type" : "func",
                                "function" : "and",
                                "parameters" : [ {
                                  "_type" : "func",
                                  "function" : "isNotEmpty",
                                  "parameters" : [ {
                                    "_type" : "property",
                                    "parameters" : [ {
                                      "_type" : "var",
                                      "name" : "this"
                                    } ],
                                    "property" : "execution"
                                  } ]
                                }, {
                                  "_type" : "func",
                                  "function" : "isEmpty",
                                  "parameters" : [ {
                                    "_type" : "property",
                                    "parameters" : [ {
                                      "_type" : "var",
                                      "name" : "this"
                                    } ],
                                    "property" : "contractFormation"
                                  } ]
                                } ]
                              }, {
                                "_type" : "func",
                                "function" : "isEmpty",
                                "parameters" : [ {
                                  "_type" : "property",
                                  "parameters" : [ {
                                    "_type" : "var",
                                    "name" : "this"
                                  } ],
                                  "property" : "split"
                                } ]
                              } ]
                            }, {
                              "_type" : "func",
                              "function" : "isEmpty",
                              "parameters" : [ {
                                "_type" : "property",
                                "parameters" : [ {
                                  "_type" : "var",
                                  "name" : "this"
                                } ],
                                "property" : "quantityChange"
                              } ]
                            } ]
                          }, {
                            "_type" : "func",
                            "function" : "isEmpty",
                            "parameters" : [ {
                              "_type" : "property",
                              "parameters" : [ {
                                "_type" : "var",
                                "name" : "this"
                              } ],
                              "property" : "reset"
                            } ]
                          } ]
                        }, {
                          "_type" : "func",
                          "function" : "isEmpty",
                          "parameters" : [ {
                            "_type" : "property",
                            "parameters" : [ {
                              "_type" : "var",
                              "name" : "this"
                            } ],
                            "property" : "termsChange"
                          } ]
                        } ]
                      }, {
                        "_type" : "func",
                        "function" : "isEmpty",
                        "parameters" : [ {
                          "_type" : "property",
                          "parameters" : [ {
                            "_type" : "var",
                            "name" : "this"
                          } ],
                          "property" : "transfer"
                        } ]
                      } ]
                    }, {
                      "_type" : "func",
                      "function" : "and",
                      "parameters" : [ {
                        "_type" : "func",
                        "function" : "and",
                        "parameters" : [ {
                          "_type" : "func",
                          "function" : "and",
                          "parameters" : [ {
                            "_type" : "func",
                            "function" : "and",
                            "parameters" : [ {
                              "_type" : "func",
                              "function" : "and",
                              "parameters" : [ {
                                "_type" : "func",
                                "function" : "and",
                                "parameters" : [ {
                                  "_type" : "func",
                                  "function" : "isNotEmpty",
                                  "parameters" : [ {
                                    "_type" : "property",
                                    "parameters" : [ {
                                      "_type" : "var",
                                      "name" : "this"
                                    } ],
                                    "property" : "contractFormation"
                                  } ]
                                }, {
                                  "_type" : "func",
                                  "function" : "isEmpty",
                                  "parameters" : [ {
                                    "_type" : "property",
                                    "parameters" : [ {
                                      "_type" : "var",
                                      "name" : "this"
                                    } ],
                                    "property" : "execution"
                                  } ]
                                } ]
                              }, {
                                "_type" : "func",
                                "function" : "isEmpty",
                                "parameters" : [ {
                                  "_type" : "property",
                                  "parameters" : [ {
                                    "_type" : "var",
                                    "name" : "this"
                                  } ],
                                  "property" : "split"
                                } ]
                              } ]
                            }, {
                              "_type" : "func",
                              "function" : "isEmpty",
                              "parameters" : [ {
                                "_type" : "property",
                                "parameters" : [ {
                                  "_type" : "var",
                                  "name" : "this"
                                } ],
                                "property" : "quantityChange"
                              } ]
                            } ]
                          }, {
                            "_type" : "func",
                            "function" : "isEmpty",
                            "parameters" : [ {
                              "_type" : "property",
                              "parameters" : [ {
                                "_type" : "var",
                                "name" : "this"
                              } ],
                              "property" : "reset"
                            } ]
                          } ]
                        }, {
                          "_type" : "func",
                          "function" : "isEmpty",
                          "parameters" : [ {
                            "_type" : "property",
                            "parameters" : [ {
                              "_type" : "var",
                              "name" : "this"
                            } ],
                            "property" : "termsChange"
                          } ]
                        } ]
                      }, {
                        "_type" : "func",
                        "function" : "isEmpty",
                        "parameters" : [ {
                          "_type" : "property",
                          "parameters" : [ {
                            "_type" : "var",
                            "name" : "this"
                          } ],
                          "property" : "transfer"
                        } ]
                      } ]
                    } ]
                  }, {
                    "_type" : "func",
                    "function" : "and",
                    "parameters" : [ {
                      "_type" : "func",
                      "function" : "and",
                      "parameters" : [ {
                        "_type" : "func",
                        "function" : "and",
                        "parameters" : [ {
                          "_type" : "func",
                          "function" : "and",
                          "parameters" : [ {
                            "_type" : "func",
                            "function" : "and",
                            "parameters" : [ {
                              "_type" : "func",
                              "function" : "and",
                              "parameters" : [ {
                                "_type" : "func",
                                "function" : "isNotEmpty",
                                "parameters" : [ {
                                  "_type" : "property",
                                  "parameters" : [ {
                                    "_type" : "var",
                                    "name" : "this"
                                  } ],
                                  "property" : "split"
                                } ]
                              }, {
                                "_type" : "func",
                                "function" : "isEmpty",
                                "parameters" : [ {
                                  "_type" : "property",
                                  "parameters" : [ {
                                    "_type" : "var",
                                    "name" : "this"
                                  } ],
                                  "property" : "execution"
                                } ]
                              } ]
                            }, {
                              "_type" : "func",
                              "function" : "isEmpty",
                              "parameters" : [ {
                                "_type" : "property",
                                "parameters" : [ {
                                  "_type" : "var",
                                  "name" : "this"
                                } ],
                                "property" : "contractFormation"
                              } ]
                            } ]
                          }, {
                            "_type" : "func",
                            "function" : "isEmpty",
                            "parameters" : [ {
                              "_type" : "property",
                              "parameters" : [ {
                                "_type" : "var",
                                "name" : "this"
                              } ],
                              "property" : "quantityChange"
                            } ]
                          } ]
                        }, {
                          "_type" : "func",
                          "function" : "isEmpty",
                          "parameters" : [ {
                            "_type" : "property",
                            "parameters" : [ {
                              "_type" : "var",
                              "name" : "this"
                            } ],
                            "property" : "reset"
                          } ]
                        } ]
                      }, {
                        "_type" : "func",
                        "function" : "isEmpty",
                        "parameters" : [ {
                          "_type" : "property",
                          "parameters" : [ {
                            "_type" : "var",
                            "name" : "this"
                          } ],
                          "property" : "termsChange"
                        } ]
                      } ]
                    }, {
                      "_type" : "func",
                      "function" : "isEmpty",
                      "parameters" : [ {
                        "_type" : "property",
                        "parameters" : [ {
                          "_type" : "var",
                          "name" : "this"
                        } ],
                        "property" : "transfer"
                      } ]
                    } ]
                  } ]
                }, {
                  "_type" : "func",
                  "function" : "and",
                  "parameters" : [ {
                    "_type" : "func",
                    "function" : "and",
                    "parameters" : [ {
                      "_type" : "func",
                      "function" : "and",
                      "parameters" : [ {
                        "_type" : "func",
                        "function" : "and",
                        "parameters" : [ {
                          "_type" : "func",
                          "function" : "and",
                          "parameters" : [ {
                            "_type" : "func",
                            "function" : "and",
                            "parameters" : [ {
                              "_type" : "func",
                              "function" : "isNotEmpty",
                              "parameters" : [ {
                                "_type" : "property",
                                "parameters" : [ {
                                  "_type" : "var",
                                  "name" : "this"
                                } ],
                                "property" : "quantityChange"
                              } ]
                            }, {
                              "_type" : "func",
                              "function" : "isEmpty",
                              "parameters" : [ {
                                "_type" : "property",
                                "parameters" : [ {
                                  "_type" : "var",
                                  "name" : "this"
                                } ],
                                "property" : "execution"
                              } ]
                            } ]
                          }, {
                            "_type" : "func",
                            "function" : "isEmpty",
                            "parameters" : [ {
                              "_type" : "property",
                              "parameters" : [ {
                                "_type" : "var",
                                "name" : "this"
                              } ],
                              "property" : "contractFormation"
                            } ]
                          } ]
                        }, {
                          "_type" : "func",
                          "function" : "isEmpty",
                          "parameters" : [ {
                            "_type" : "property",
                            "parameters" : [ {
                              "_type" : "var",
                              "name" : "this"
                            } ],
                            "property" : "split"
                          } ]
                        } ]
                      }, {
                        "_type" : "func",
                        "function" : "isEmpty",
                        "parameters" : [ {
                          "_type" : "property",
                          "parameters" : [ {
                            "_type" : "var",
                            "name" : "this"
                          } ],
                          "property" : "reset"
                        } ]
                      } ]
                    }, {
                      "_type" : "func",
                      "function" : "isEmpty",
                      "parameters" : [ {
                        "_type" : "property",
                        "parameters" : [ {
                          "_type" : "var",
                          "name" : "this"
                        } ],
                        "property" : "termsChange"
                      } ]
                    } ]
                  }, {
                    "_type" : "func",
                    "function" : "isEmpty",
                    "parameters" : [ {
                      "_type" : "property",
                      "parameters" : [ {
                        "_type" : "var",
                        "name" : "this"
                      } ],
                      "property" : "transfer"
                    } ]
                  } ]
                } ]
              }, {
                "_type" : "func",
                "function" : "and",
                "parameters" : [ {
                  "_type" : "func",
                  "function" : "and",
                  "parameters" : [ {
                    "_type" : "func",
                    "function" : "and",
                    "parameters" : [ {
                      "_type" : "func",
                      "function" : "and",
                      "parameters" : [ {
                        "_type" : "func",
                        "function" : "and",
                        "parameters" : [ {
                          "_type" : "func",
                          "function" : "and",
                          "parameters" : [ {
                            "_type" : "func",
                            "function" : "isNotEmpty",
                            "parameters" : [ {
                              "_type" : "property",
                              "parameters" : [ {
                                "_type" : "var",
                                "name" : "this"
                              } ],
                              "property" : "reset"
                            } ]
                          }, {
                            "_type" : "func",
                            "function" : "isEmpty",
                            "parameters" : [ {
                              "_type" : "property",
                              "parameters" : [ {
                                "_type" : "var",
                                "name" : "this"
                              } ],
                              "property" : "execution"
                            } ]
                          } ]
                        }, {
                          "_type" : "func",
                          "function" : "isEmpty",
                          "parameters" : [ {
                            "_type" : "property",
                            "parameters" : [ {
                              "_type" : "var",
                              "name" : "this"
                            } ],
                            "property" : "contractFormation"
                          } ]
                        } ]
                      }, {
                        "_type" : "func",
                        "function" : "isEmpty",
                        "parameters" : [ {
                          "_type" : "property",
                          "parameters" : [ {
                            "_type" : "var",
                            "name" : "this"
                          } ],
                          "property" : "split"
                        } ]
                      } ]
                    }, {
                      "_type" : "func",
                      "function" : "isEmpty",
                      "parameters" : [ {
                        "_type" : "property",
                        "parameters" : [ {
                          "_type" : "var",
                          "name" : "this"
                        } ],
                        "property" : "quantityChange"
                      } ]
                    } ]
                  }, {
                    "_type" : "func",
                    "function" : "isEmpty",
                    "parameters" : [ {
                      "_type" : "property",
                      "parameters" : [ {
                        "_type" : "var",
                        "name" : "this"
                      } ],
                      "property" : "termsChange"
                    } ]
                  } ]
                }, {
                  "_type" : "func",
                  "function" : "isEmpty",
                  "parameters" : [ {
                    "_type" : "property",
                    "parameters" : [ {
                      "_type" : "var",
                      "name" : "this"
                    } ],
                    "property" : "transfer"
                  } ]
                } ]
              } ]
            }, {
              "_type" : "func",
              "function" : "and",
              "parameters" : [ {
                "_type" : "func",
                "function" : "and",
                "parameters" : [ {
                  "_type" : "func",
                  "function" : "and",
                  "parameters" : [ {
                    "_type" : "func",
                    "function" : "and",
                    "parameters" : [ {
                      "_type" : "func",
                      "function" : "and",
                      "parameters" : [ {
                        "_type" : "func",
                        "function" : "and",
                        "parameters" : [ {
                          "_type" : "func",
                          "function" : "isNotEmpty",
                          "parameters" : [ {
                            "_type" : "property",
                            "parameters" : [ {
                              "_type" : "var",
                              "name" : "this"
                            } ],
                            "property" : "termsChange"
                          } ]
                        }, {
                          "_type" : "func",
                          "function" : "isEmpty",
                          "parameters" : [ {
                            "_type" : "property",
                            "parameters" : [ {
                              "_type" : "var",
                              "name" : "this"
                            } ],
                            "property" : "execution"
                          } ]
                        } ]
                      }, {
                        "_type" : "func",
                        "function" : "isEmpty",
                        "parameters" : [ {
                          "_type" : "property",
                          "parameters" : [ {
                            "_type" : "var",
                            "name" : "this"
                          } ],
                          "property" : "contractFormation"
                        } ]
                      } ]
                    }, {
                      "_type" : "func",
                      "function" : "isEmpty",
                      "parameters" : [ {
                        "_type" : "property",
                        "parameters" : [ {
                          "_type" : "var",
                          "name" : "this"
                        } ],
                        "property" : "split"
                      } ]
                    } ]
                  }, {
                    "_type" : "func",
                    "function" : "isEmpty",
                    "parameters" : [ {
                      "_type" : "property",
                      "parameters" : [ {
                        "_type" : "var",
                        "name" : "this"
                      } ],
                      "property" : "quantityChange"
                    } ]
                  } ]
                }, {
                  "_type" : "func",
                  "function" : "isEmpty",
                  "parameters" : [ {
                    "_type" : "property",
                    "parameters" : [ {
                      "_type" : "var",
                      "name" : "this"
                    } ],
                    "property" : "reset"
                  } ]
                } ]
              }, {
                "_type" : "func",
                "function" : "isEmpty",
                "parameters" : [ {
                  "_type" : "property",
                  "parameters" : [ {
                    "_type" : "var",
                    "name" : "this"
                  } ],
                  "property" : "transfer"
                } ]
              } ]
            } ]
          }, {
            "_type" : "func",
            "function" : "and",
            "parameters" : [ {
              "_type" : "func",
              "function" : "and",
              "parameters" : [ {
                "_type" : "func",
                "function" : "and",
                "parameters" : [ {
                  "_type" : "func",
                  "function" : "and",
                  "parameters" : [ {
                    "_type" : "func",
                    "function" : "and",
                    "parameters" : [ {
                      "_type" : "func",
                      "function" : "and",
                      "parameters" : [ {
                        "_type" : "func",
                        "function" : "isNotEmpty",
                        "parameters" : [ {
                          "_type" : "property",
                          "parameters" : [ {
                            "_type" : "var",
                            "name" : "this"
                          } ],
                          "property" : "transfer"
                        } ]
                      }, {
                        "_type" : "func",
                        "function" : "isEmpty",
                        "parameters" : [ {
                          "_type" : "property",
                          "parameters" : [ {
                            "_type" : "var",
                            "name" : "this"
                          } ],
                          "property" : "execution"
                        } ]
                      } ]
                    }, {
                      "_type" : "func",
                      "function" : "isEmpty",
                      "parameters" : [ {
                        "_type" : "property",
                        "parameters" : [ {
                          "_type" : "var",
                          "name" : "this"
                        } ],
                        "property" : "contractFormation"
                      } ]
                    } ]
                  }, {
                    "_type" : "func",
                    "function" : "isEmpty",
                    "parameters" : [ {
                      "_type" : "property",
                      "parameters" : [ {
                        "_type" : "var",
                        "name" : "this"
                      } ],
                      "property" : "split"
                    } ]
                  } ]
                }, {
                  "_type" : "func",
                  "function" : "isEmpty",
                  "parameters" : [ {
                    "_type" : "property",
                    "parameters" : [ {
                      "_type" : "var",
                      "name" : "this"
                    } ],
                    "property" : "quantityChange"
                  } ]
                } ]
              }, {
                "_type" : "func",
                "function" : "isEmpty",
                "parameters" : [ {
                  "_type" : "property",
                  "parameters" : [ {
                    "_type" : "var",
                    "name" : "this"
                  } ],
                  "property" : "reset"
                } ]
              } ]
            }, {
              "_type" : "func",
              "function" : "isEmpty",
              "parameters" : [ {
                "_type" : "property",
                "parameters" : [ {
                  "_type" : "var",
                  "name" : "this"
                } ],
                "property" : "termsChange"
              } ]
            } ]
          } ]
        } ],
        "parameters" : [ ]
      },
      "name" : "one_of_constraint"
    } ],
    "name" : "PrimitiveEvent",
    "package" : "cdm::model",
    "properties" : [ {
      "multiplicity" : {
        "lowerBound" : 0,
        "upperBound" : 1
      },
      "name" : "execution",
      "type" : "cdm::model::ExecutionPrimitive"
    }, {
      "multiplicity" : {
        "lowerBound" : 0,
        "upperBound" : 1
      },
      "name" : "contractFormation",
      "type" : "cdm::model::ContractFormationPrimitive"
    }, {
      "multiplicity" : {
        "lowerBound" : 0,
        "upperBound" : 1
      },
      "name" : "split",
      "type" : "cdm::model::SplitPrimitive"
    }, {
      "multiplicity" : {
        "lowerBound" : 0,
        "upperBound" : 1
      },
      "name" : "quantityChange",
      "type" : "cdm::model::QuantityChangePrimitive"
    }, {
      "multiplicity" : {
        "lowerBound" : 0,
        "upperBound" : 1
      },
      "name" : "reset",
      "type" : "cdm::model::ResetPrimitive"
    }, {
      "multiplicity" : {
        "lowerBound" : 0,
        "upperBound" : 1
      },
      "name" : "termsChange",
      "type" : "cdm::model::TermsChangePrimitive"
    }, {
      "multiplicity" : {
        "lowerBound" : 0,
        "upperBound" : 1
      },
      "name" : "transfer",
      "type" : "cdm::model::TransferPrimitive"
    } ],
    "taggedValues" : [ {
      "tag" : {
        "profile" : "meta::pure::profiles::doc",
        "value" : "doc"
      },
      "value" : "A primitive event is defined by one and only one atomic change in state of a trade. An example of this is a contract formation where the legal terms of the contact are added to the trade. A Primitive event contains a before and after state where the before is a reference to another after state of a primitive event in order to preserve lineage."
    } ]
  }
}