{
  "classifierPath" : "meta::pure::metamodel::type::Class",
  "content" : {
    "_type" : "class",
    "name" : "ProtectionTerms",
    "package" : "cdm::model",
    "properties" : [ {
      "multiplicity" : {
        "lowerBound" : 0,
        "upperBound" : 1
      },
      "name" : "creditEvents",
      "taggedValues" : [ {
        "tag" : {
          "profile" : "meta::pure::profiles::doc",
          "value" : "doc"
        },
        "value" : "Specifies the applicable Credit Events that would trigger a settlement, as specified in the related Confirmation and defined in the ISDA 2014 Credit Definition article IV section 4.1."
      } ],
      "type" : "cdm::model::CreditEvents"
    }, {
      "multiplicity" : {
        "lowerBound" : 0,
        "upperBound" : 1
      },
      "name" : "obligations",
      "taggedValues" : [ {
        "tag" : {
          "profile" : "meta::pure::profiles::doc",
          "value" : "doc"
        },
        "value" : "The underlying obligations of the reference entity on which you are buying or selling protection. The credit events Failure to Pay, Obligation Acceleration, Obligation Default, Restructuring, Repudiation/Moratorium are defined with respect to these obligations."
      } ],
      "type" : "cdm::model::Obligations"
    }, {
      "multiplicity" : {
        "lowerBound" : 0,
        "upperBound" : 1
      },
      "name" : "floatingAmountEvents",
      "taggedValues" : [ {
        "tag" : {
          "profile" : "meta::pure::profiles::doc",
          "value" : "doc"
        },
        "value" : "This element contains the ISDA terms relating to the floating rate payment events and the implied additional fixed payments, applicable to the credit derivatives transactions on mortgage-backed securities with pay-as-you-go or physical settlement."
      } ],
      "type" : "cdm::model::FloatingAmountEvents"
    } ],
    "stereotypes" : [ {
      "profile" : "cdm::model::metadata",
      "value" : "key"
    } ],
    "superTypes" : [ "cdm::model::PayoutBase" ],
    "taggedValues" : [ {
      "tag" : {
        "profile" : "meta::pure::profiles::doc",
        "value" : "doc"
      },
      "value" : "A class to specify the terms for calculating a payout to protect the buyer of the swap in the case of a qualified credit event. These terms include the notional amount, the applicable credit events, the reference obligation, and in the case of a CDS on mortgage-backed securities, the floatingAmountEvents."
    } ]
  }
}