{
  "classifierPath" : "meta::pure::metamodel::type::Enumeration",
  "content" : {
    "_type" : "Enumeration",
    "name" : "RateTreatmentEnum",
    "package" : "cdm::model",
    "taggedValues" : [ {
      "tag" : {
        "profile" : "meta::pure::profiles::doc",
        "value" : "doc"
      },
      "value" : "The enumerated values to specify the methods for converting rates from one basis to another."
    } ],
    "values" : [ {
      "taggedValues" : [ {
        "tag" : {
          "profile" : "meta::pure::profiles::doc",
          "value" : "doc"
        },
        "value" : "Bond Equivalent Yield. Per Annex to the 2000 ISDA Definitions (June 2000 Version), Section 7.3. Certain General Definitions Relating to Floating Rate Options, paragraph (g)."
      } ],
      "value" : "BondEquivalentYield"
    }, {
      "taggedValues" : [ {
        "tag" : {
          "profile" : "meta::pure::profiles::doc",
          "value" : "doc"
        },
        "value" : "Money Market Yield. Per Annex to the 2000 ISDA Definitions (June 2000 Version), Section 7.3. Certain General Definitions Relating to Floating Rate Options, paragraph (h)."
      } ],
      "value" : "MoneyMarketYield"
    } ]
  }
}