{
  "classifierPath" : "meta::pure::metamodel::type::Class",
  "content" : {
    "_type" : "class",
    "name" : "Regime",
    "package" : "cdm::model",
    "properties" : [ {
      "multiplicity" : {
        "lowerBound" : 1
      },
      "name" : "applicableRegime",
      "taggedValues" : [ {
        "tag" : {
          "profile" : "meta::pure::profiles::doc",
          "value" : "doc"
        },
        "value" : "A class to specify the regime(s) that parties to a legal agreement, such as the ISDA 2016 and 2018 CSA for Initial Margin, might agree to apply to one or both parties when acting as collateral taker, and specific terms associated with that application."
      } ],
      "type" : "cdm::model::ApplicableRegime"
    }, {
      "multiplicity" : {
        "lowerBound" : 0,
        "upperBound" : 1
      },
      "name" : "fallbackToMandatoryMethodDays",
      "taggedValues" : [ {
        "tag" : {
          "profile" : "meta::pure::profiles::doc",
          "value" : "doc"
        },
        "value" : "The specification of the number of days after effective delivery of notice that Mandatory method fallback applies. Specification is only required when one or more Regimes have Fall Back to Mandatory Method elected as a SIMM exception."
      } ],
      "type" : "Float"
    } ],
    "taggedValues" : [ {
      "tag" : {
        "profile" : "meta::pure::profiles::doc",
        "value" : "doc"
      },
      "value" : "A class to specify one or more regimes that may be specified as relevant to a legal agreement. 2016/2018 ISDA Credit Support Annex for Initial Margin: Regime."
    } ]
  }
}