{
  "classifierPath" : "meta::pure::metamodel::type::Class",
  "content" : {
    "_type" : "class",
    "name" : "RegimeTerms",
    "package" : "cdm::model",
    "properties" : [ {
      "multiplicity" : {
        "lowerBound" : 1,
        "upperBound" : 1
      },
      "name" : "party",
      "taggedValues" : [ {
        "tag" : {
          "profile" : "meta::pure::profiles::doc",
          "value" : "doc"
        },
        "value" : "The party for which the regime terms are being specified when acting as collateral taker."
      } ],
      "type" : "cdm::model::CounterpartyRoleEnum"
    }, {
      "multiplicity" : {
        "lowerBound" : 0,
        "upperBound" : 1
      },
      "name" : "isApplicable",
      "taggedValues" : [ {
        "tag" : {
          "profile" : "meta::pure::profiles::doc",
          "value" : "doc"
        },
        "value" : "The specification of whether the regime is elected as applicable to the party when acting as collateral taker."
      } ],
      "type" : "cdm::model::ExceptionEnum"
    }, {
      "multiplicity" : {
        "lowerBound" : 0,
        "upperBound" : 1
      },
      "name" : "asSpecified",
      "taggedValues" : [ {
        "tag" : {
          "profile" : "meta::pure::profiles::doc",
          "value" : "doc"
        },
        "value" : "The bespoke party specific Regime term elections applicable when specified."
      } ],
      "type" : "String"
    }, {
      "multiplicity" : {
        "lowerBound" : 0,
        "upperBound" : 1
      },
      "name" : "simmException",
      "taggedValues" : [ {
        "tag" : {
          "profile" : "meta::pure::profiles::doc",
          "value" : "doc"
        },
        "value" : "The election for SIMM exception to the regulatory regime clause of the ISDA 2016 and 2018 CSA for Initial Margin as either a normalized value specified as part of an enumeration or a customized value specified of type string. ISDA 2016 Credit Support Annex for Initial Margin paragraph 13, Regime: SIMM Exception."
      } ],
      "type" : "cdm::model::SimmException"
    }, {
      "multiplicity" : {
        "lowerBound" : 0,
        "upperBound" : 1
      },
      "name" : "retrospectiveEffect",
      "taggedValues" : [ {
        "tag" : {
          "profile" : "meta::pure::profiles::doc",
          "value" : "doc"
        },
        "value" : "ISDA 2016 CSA for Initial Margin, paragraph 13 (b)(i): if `Retrospective Effect` is specified as applicable to a Regime (a `Retrospective Regime`) then all Covered Transactions (IM) under all other Regimes with an earlier Regime Effective Time will, to the extent that they would have been Covered Transactions (IM) under such Retrospective Regime had such Transactions been entered into at or after the Regime Effective Time of the Retrospective Regime, be deemed to be Covered Transactions (IM) for such Retrospective Regime."
      } ],
      "type" : "cdm::model::RetrospectiveEffect"
    } ],
    "taggedValues" : [ {
      "tag" : {
        "profile" : "meta::pure::profiles::doc",
        "value" : "doc"
      },
      "value" : "A class that is used by the ApplicableRegime and the AdditionalRegime classes to specify the regulatory regime terms which are referred to as part of certain legal agreements, such as such as the ISDA 2016 and 2018 CSA for Initial Margin."
    } ]
  }
}