{
  "classifierPath" : "meta::pure::metamodel::type::Class",
  "content" : {
    "_type" : "class",
    "constraints" : [ {
      "functionDefinition" : {
        "_type" : "lambda",
        "body" : [ {
          "_type" : "func",
          "function" : "if",
          "parameters" : [ {
            "_type" : "func",
            "function" : "greaterThan",
            "parameters" : [ {
              "_type" : "func",
              "function" : "size",
              "parameters" : [ {
                "_type" : "property",
                "parameters" : [ {
                  "_type" : "var",
                  "name" : "this"
                } ],
                "property" : "observations"
              } ]
            }, {
              "_type" : "integer",
              "multiplicity" : {
                "lowerBound" : 1,
                "upperBound" : 1
              },
              "values" : [ 1 ]
            } ]
          }, {
            "_type" : "lambda",
            "body" : [ {
              "_type" : "func",
              "function" : "isNotEmpty",
              "parameters" : [ {
                "_type" : "property",
                "parameters" : [ {
                  "_type" : "var",
                  "name" : "this"
                } ],
                "property" : "aggregationMethodology"
              } ]
            } ],
            "parameters" : [ ]
          }, {
            "_type" : "lambda",
            "body" : [ {
              "_type" : "boolean",
              "multiplicity" : {
                "lowerBound" : 1,
                "upperBound" : 1
              },
              "values" : [ true ]
            } ],
            "parameters" : [ ]
          } ]
        } ],
        "parameters" : [ ]
      },
      "name" : "condition1"
    } ],
    "name" : "Reset",
    "package" : "cdm::model",
    "properties" : [ {
      "multiplicity" : {
        "lowerBound" : 1,
        "upperBound" : 1
      },
      "name" : "resetValue",
      "taggedValues" : [ {
        "tag" : {
          "profile" : "meta::pure::profiles::doc",
          "value" : "doc"
        },
        "value" : "Specifies the reset or fixing value. The fixing value could be a cash price, interest rate, or other value."
      } ],
      "type" : "cdm::model::Price"
    }, {
      "multiplicity" : {
        "lowerBound" : 1,
        "upperBound" : 1
      },
      "name" : "resetDate",
      "taggedValues" : [ {
        "tag" : {
          "profile" : "meta::pure::profiles::doc",
          "value" : "doc"
        },
        "value" : "Specifies the date on which the reset occurred."
      } ],
      "type" : "Date"
    }, {
      "multiplicity" : {
        "lowerBound" : 1
      },
      "name" : "observations",
      "stereotypes" : [ {
        "profile" : "cdm::model::metadata",
        "value" : "reference"
      } ],
      "taggedValues" : [ {
        "tag" : {
          "profile" : "meta::pure::profiles::doc",
          "value" : "doc"
        },
        "value" : "Represents an audit of the observations used to produce the reset value. If multiple observations were necessary to produce the reset value, the aggregation method should be defined on the payout."
      } ],
      "type" : "cdm::model::Observation"
    }, {
      "multiplicity" : {
        "lowerBound" : 0,
        "upperBound" : 1
      },
      "name" : "aggregationMethodology",
      "taggedValues" : [ {
        "tag" : {
          "profile" : "meta::pure::profiles::doc",
          "value" : "doc"
        },
        "value" : "Identifies the aggregation method to use in the case where multiple observations are used to compute the reset value and the method is not defined in a payout."
      } ],
      "type" : "cdm::model::AggregationMethod"
    } ],
    "taggedValues" : [ {
      "tag" : {
        "profile" : "meta::pure::profiles::doc",
        "value" : "doc"
      },
      "value" : "Defines the reset value or fixing value produced in cashflow calculations, during the life-cycle of a financial instrument. The reset process defined in Create_Reset function joins product definition details with observations to compute the reset value."
    } ]
  }
}