{
  "classifierPath" : "meta::pure::metamodel::type::Enumeration",
  "content" : {
    "_type" : "Enumeration",
    "name" : "ResourceTypeEnum",
    "package" : "cdm::model",
    "taggedValues" : [ {
      "tag" : {
        "profile" : "meta::pure::profiles::doc",
        "value" : "doc"
      },
      "value" : "The enumerated values to specify the type of a resource (e.g. document)."
    } ],
    "values" : [ {
      "taggedValues" : [ {
        "tag" : {
          "profile" : "meta::pure::profiles::doc",
          "value" : "doc"
        },
        "value" : "Document describing the legal terms of a transaction."
      } ],
      "value" : "Confirmation"
    }, {
      "taggedValues" : [ {
        "tag" : {
          "profile" : "meta::pure::profiles::doc",
          "value" : "doc"
        },
        "value" : "Document providing supplemental material economic terms to the FpML data representation. The initial intended usage is to fulfill the CFTC Part 45 rule requirement to report ‘Any other terms(s) of the swap matched or affirmed by the counterparties in verifying the swap’ when the reporting is done via the generic FpML representation."
      } ],
      "value" : "SupplementalMaterialEconomicTerms"
    }, {
      "taggedValues" : [ {
        "tag" : {
          "profile" : "meta::pure::profiles::doc",
          "value" : "doc"
        },
        "value" : "Document describing the economic characteristics of a transaction."
      } ],
      "value" : "TermSheet"
    } ]
  }
}