{
  "classifierPath" : "meta::pure::metamodel::type::Enumeration",
  "content" : {
    "_type" : "Enumeration",
    "name" : "RestructuringEnum",
    "package" : "cdm::model",
    "taggedValues" : [ {
      "tag" : {
        "profile" : "meta::pure::profiles::doc",
        "value" : "doc"
      },
      "value" : "The enumerated values to specify the form of the restructuring credit event that is applicable to the credit default swap."
    } ],
    "values" : [ {
      "taggedValues" : [ {
        "tag" : {
          "profile" : "meta::pure::profiles::doc",
          "value" : "doc"
        },
        "value" : "Restructuring (Section 4.7) and Modified Restructuring Maturity Limitation and Conditionally Transferable Obligation (2014 Definitions: Section 3.31, 2003 Definitions: 2.32) apply."
      } ],
      "value" : "ModModR"
    }, {
      "taggedValues" : [ {
        "tag" : {
          "profile" : "meta::pure::profiles::doc",
          "value" : "doc"
        },
        "value" : "Restructuring (Section 4.7) and Restructuring Maturity Limitation and Fully Transferable Obligation (2014 Definitions: Section 3.31, 2003 Definitions: 2.32) apply."
      } ],
      "value" : "ModR"
    }, {
      "taggedValues" : [ {
        "tag" : {
          "profile" : "meta::pure::profiles::doc",
          "value" : "doc"
        },
        "value" : "Restructuring as defined in the applicable ISDA Credit Derivatives Definitions. (2003 or 2014)."
      } ],
      "value" : "R"
    } ]
  }
}