{
  "classifierPath" : "meta::pure::metamodel::type::Class",
  "content" : {
    "_type" : "class",
    "name" : "RightsEvents",
    "package" : "cdm::model",
    "properties" : [ {
      "multiplicity" : {
        "lowerBound" : 1,
        "upperBound" : 1
      },
      "name" : "securityTakerRightsEvent",
      "taggedValues" : [ {
        "tag" : {
          "profile" : "meta::pure::profiles::doc",
          "value" : "doc"
        },
        "value" : "The bespoke provisions that might be specified by the parties to the agreement applicable to a Security Taker Rights Event."
      } ],
      "type" : "cdm::model::SecuredPartyRightsEvent"
    }, {
      "multiplicity" : {
        "lowerBound" : 0,
        "upperBound" : 1
      },
      "name" : "controlAgreementNecEvent",
      "taggedValues" : [ {
        "tag" : {
          "profile" : "meta::pure::profiles::doc",
          "value" : "doc"
        },
        "value" : "The bespoke provisions that might be specified by the parties to the agreement applicable to a Notice of Exclusive Control Event."
      } ],
      "type" : "cdm::model::ControlAgreementNecEvent"
    }, {
      "multiplicity" : {
        "lowerBound" : 1,
        "upperBound" : 1
      },
      "name" : "securityProviderRightsEvent",
      "taggedValues" : [ {
        "tag" : {
          "profile" : "meta::pure::profiles::doc",
          "value" : "doc"
        },
        "value" : "The bespoke provisions that might be specified by the parties to the agreement applicable to a Security Provider Rights Event."
      } ],
      "type" : "cdm::model::SecurityProviderRightsEvent"
    }, {
      "multiplicity" : {
        "lowerBound" : 0,
        "upperBound" : 1
      },
      "name" : "deliveryInLieuRight",
      "taggedValues" : [ {
        "tag" : {
          "profile" : "meta::pure::profiles::doc",
          "value" : "doc"
        },
        "value" : "The specification of whether Delivery In Lieu language is applicable to the agreement (true) or not (false)."
      } ],
      "type" : "Boolean"
    }, {
      "multiplicity" : {
        "lowerBound" : 0,
        "upperBound" : 1
      },
      "name" : "additionalRightsEvent",
      "taggedValues" : [ {
        "tag" : {
          "profile" : "meta::pure::profiles::doc",
          "value" : "doc"
        },
        "value" : "The Additional Rights Event election."
      } ],
      "type" : "cdm::model::AdditionalRightsEvent"
    } ],
    "taggedValues" : [ {
      "tag" : {
        "profile" : "meta::pure::profiles::doc",
        "value" : "doc"
      },
      "value" : "A class to specify the rights of Security Taker and/or Security Provider when an Early Termination or Access Condition event has occurred."
    } ]
  }
}