{
  "classifierPath" : "meta::pure::metamodel::type::Class",
  "content" : {
    "_type" : "class",
    "name" : "Rounding",
    "package" : "cdm::model",
    "properties" : [ {
      "multiplicity" : {
        "lowerBound" : 1,
        "upperBound" : 1
      },
      "name" : "roundingDirection",
      "taggedValues" : [ {
        "tag" : {
          "profile" : "meta::pure::profiles::doc",
          "value" : "doc"
        },
        "value" : "Specifies the rounding rounding rule as up, down, or nearest."
      } ],
      "type" : "cdm::model::RoundingDirectionEnum"
    }, {
      "multiplicity" : {
        "lowerBound" : 0,
        "upperBound" : 1
      },
      "name" : "precision",
      "taggedValues" : [ {
        "tag" : {
          "profile" : "meta::pure::profiles::doc",
          "value" : "doc"
        },
        "value" : "Specifies the rounding precision in terms of a number of decimal places when the number is evaluated in decimal form (not percentage), e.g. 0.09876543 rounded to the nearest 5 decimal places is  0.0987654."
      } ],
      "type" : "Integer"
    } ],
    "taggedValues" : [ {
      "tag" : {
        "profile" : "meta::pure::profiles::doc",
        "value" : "doc"
      },
      "value" : "Defines rounding rules and precision to be used in the rounding of a number."
    } ]
  }
}