{
  "classifierPath" : "meta::pure::metamodel::type::Enumeration",
  "content" : {
    "_type" : "Enumeration",
    "name" : "RoundingModeEnum",
    "package" : "cdm::model",
    "values" : [ {
      "value" : "Down"
    }, {
      "value" : "Up"
    } ]
  }
}