{
  "classifierPath" : "meta::pure::metamodel::type::Class",
  "content" : {
    "_type" : "class",
    "constraints" : [ {
      "functionDefinition" : {
        "_type" : "lambda",
        "body" : [ {
          "_type" : "func",
          "function" : "or",
          "parameters" : [ {
            "_type" : "func",
            "function" : "and",
            "parameters" : [ {
              "_type" : "func",
              "function" : "isNotEmpty",
              "parameters" : [ {
                "_type" : "property",
                "parameters" : [ {
                  "_type" : "var",
                  "name" : "this"
                } ],
                "property" : "settlementAmount"
              } ]
            }, {
              "_type" : "func",
              "function" : "isEmpty",
              "parameters" : [ {
                "_type" : "property",
                "parameters" : [ {
                  "_type" : "var",
                  "name" : "this"
                } ],
                "property" : "settlementCurrency"
              } ]
            } ]
          }, {
            "_type" : "func",
            "function" : "and",
            "parameters" : [ {
              "_type" : "func",
              "function" : "isNotEmpty",
              "parameters" : [ {
                "_type" : "property",
                "parameters" : [ {
                  "_type" : "var",
                  "name" : "this"
                } ],
                "property" : "settlementCurrency"
              } ]
            }, {
              "_type" : "func",
              "function" : "isEmpty",
              "parameters" : [ {
                "_type" : "property",
                "parameters" : [ {
                  "_type" : "var",
                  "name" : "this"
                } ],
                "property" : "settlementAmount"
              } ]
            } ]
          } ]
        } ],
        "parameters" : [ ]
      },
      "name" : "SecurityLegChoice"
    } ],
    "name" : "SecurityLeg",
    "package" : "cdm::model",
    "properties" : [ {
      "multiplicity" : {
        "lowerBound" : 1,
        "upperBound" : 1
      },
      "name" : "buyerSeller",
      "taggedValues" : [ {
        "tag" : {
          "profile" : "meta::pure::profiles::doc",
          "value" : "doc"
        },
        "value" : "Whether the leg is a buyer or seller of security"
      } ],
      "type" : "cdm::model::BuyerSeller"
    }, {
      "multiplicity" : {
        "lowerBound" : 1,
        "upperBound" : 1
      },
      "name" : "settlementDate",
      "taggedValues" : [ {
        "tag" : {
          "profile" : "meta::pure::profiles::doc",
          "value" : "doc"
        },
        "value" : "Settlement or Payment Date for the security leg"
      } ],
      "type" : "cdm::model::AdjustableOrRelativeDate"
    }, {
      "multiplicity" : {
        "lowerBound" : 0,
        "upperBound" : 1
      },
      "name" : "settlementAmount",
      "taggedValues" : [ {
        "tag" : {
          "profile" : "meta::pure::profiles::doc",
          "value" : "doc"
        },
        "value" : "Settlement amount for the security leg"
      } ],
      "type" : "cdm::model::Money"
    }, {
      "multiplicity" : {
        "lowerBound" : 0,
        "upperBound" : 1
      },
      "name" : "settlementCurrency",
      "taggedValues" : [ {
        "tag" : {
          "profile" : "meta::pure::profiles::doc",
          "value" : "doc"
        },
        "value" : "Settlement Currency for use where the Settlement Amount cannot be known in advance."
      } ],
      "type" : "String"
    }, {
      "multiplicity" : {
        "lowerBound" : 0,
        "upperBound" : 1
      },
      "name" : "fxRate",
      "taggedValues" : [ {
        "tag" : {
          "profile" : "meta::pure::profiles::doc",
          "value" : "doc"
        },
        "value" : "FX rate in case when cash settlement amount is in a different currency to the security."
      } ],
      "type" : "cdm::model::ExchangeRate"
    }, {
      "multiplicity" : {
        "lowerBound" : 0,
        "upperBound" : 1
      },
      "name" : "deliveryDate",
      "taggedValues" : [ {
        "tag" : {
          "profile" : "meta::pure::profiles::doc",
          "value" : "doc"
        },
        "value" : "Delivery Date for the transaction. Delivery Date can be populated when it is not equal to the Settlement Date."
      } ],
      "type" : "cdm::model::AdjustableOrRelativeDate"
    }, {
      "multiplicity" : {
        "lowerBound" : 1,
        "upperBound" : 1
      },
      "name" : "deliveryMethod",
      "taggedValues" : [ {
        "tag" : {
          "profile" : "meta::pure::profiles::doc",
          "value" : "doc"
        },
        "value" : "Specifies a delivery method for the security transaction."
      } ],
      "type" : "cdm::model::DeliveryMethodEnum"
    } ],
    "stereotypes" : [ {
      "profile" : "cdm::model::metadata",
      "value" : "key"
    } ],
    "taggedValues" : [ {
      "tag" : {
        "profile" : "meta::pure::profiles::doc",
        "value" : "doc"
      },
      "value" : "Terms defining a security leg in a securities financing transaction, which can either be the near leg or the far leg and is closely modelled onto the nearLeg and farLeg types in FpML"
    } ]
  }
}