{
  "classifierPath" : "meta::pure::metamodel::type::Enumeration",
  "content" : {
    "_type" : "Enumeration",
    "name" : "SecurityTypeEnum",
    "package" : "cdm::model",
    "taggedValues" : [ {
      "tag" : {
        "profile" : "meta::pure::profiles::doc",
        "value" : "doc"
      },
      "value" : "Identifies the type of security."
    } ],
    "values" : [ {
      "taggedValues" : [ {
        "tag" : {
          "profile" : "meta::pure::profiles::doc",
          "value" : "doc"
        },
        "value" : "Identifies a security as a fixed income instrument of debt issued and securitized as a tradable asset."
      } ],
      "value" : "Debt"
    }, {
      "taggedValues" : [ {
        "tag" : {
          "profile" : "meta::pure::profiles::doc",
          "value" : "doc"
        },
        "value" : "Identifies a security as an Equity value of holding of shares in listed company"
      } ],
      "value" : "Equity"
    }, {
      "taggedValues" : [ {
        "tag" : {
          "profile" : "meta::pure::profiles::doc",
          "value" : "doc"
        },
        "value" : "Identifies a security as an Instrument representing holding in an investment fund."
      } ],
      "value" : "Fund"
    }, {
      "taggedValues" : [ {
        "tag" : {
          "profile" : "meta::pure::profiles::doc",
          "value" : "doc"
        },
        "value" : "Identifies a security as a Warrant that give the right, but not the obligation, to buy or sell a security — most commonly an equity — at a certain price before expiration, or to receive the cash equivalent."
      } ],
      "value" : "Warrant"
    }, {
      "taggedValues" : [ {
        "tag" : {
          "profile" : "meta::pure::profiles::doc",
          "value" : "doc"
        },
        "value" : "Identifies a security as one that that offers a derivative-based economic return which is not structured as a bond, an equity or a warrant. Note that this security type is not a Certificate of Deposit (aka CD)."
      } ],
      "value" : "Certificate"
    }, {
      "taggedValues" : [ {
        "tag" : {
          "profile" : "meta::pure::profiles::doc",
          "value" : "doc"
        },
        "value" : "Identifies a security as a letter of credit or documentary credit/ bankers commercial credit.  A payment mechanism used in international trade to provide economic guarantee of payment by a creditworthy issuer for payment of exported goods."
      } ],
      "value" : "LetterOfCredit"
    } ]
  }
}