{
  "classifierPath" : "meta::pure::metamodel::type::Class",
  "content" : {
    "_type" : "class",
    "name" : "SecurityFinancePayout",
    "package" : "cdm::model",
    "properties" : [ {
      "multiplicity" : {
        "lowerBound" : 1
      },
      "name" : "securityFinanceLeg",
      "taggedValues" : [ {
        "tag" : {
          "profile" : "meta::pure::profiles::doc",
          "value" : "doc"
        },
        "value" : "Each SecurityLeg represent a buy/sell at different dates, typically 1 near leg and 1 far leg in a securities financing transaction."
      } ],
      "type" : "cdm::model::SecurityFinanceLeg"
    }, {
      "multiplicity" : {
        "lowerBound" : 1,
        "upperBound" : 1
      },
      "name" : "securityInformation",
      "taggedValues" : [ {
        "tag" : {
          "profile" : "meta::pure::profiles::doc",
          "value" : "doc"
        },
        "value" : "Specifies the reference asset.  This is The base type which all products extend (similar to FpML model). Within SecurityPayout we include a condition which validates that the product must be a Security (see below condition 'ProductMustBeSecurity')."
      } ],
      "type" : "cdm::model::Product"
    }, {
      "multiplicity" : {
        "lowerBound" : 1,
        "upperBound" : 1
      },
      "name" : "durationType",
      "taggedValues" : [ {
        "tag" : {
          "profile" : "meta::pure::profiles::doc",
          "value" : "doc"
        },
        "value" : "Specifies the Duration Terms of the Security Finance transaction. e.g. Open or Term."
      } ],
      "type" : "cdm::model::Duration"
    }, {
      "multiplicity" : {
        "lowerBound" : 0,
        "upperBound" : 1
      },
      "name" : "minimumFee",
      "taggedValues" : [ {
        "tag" : {
          "profile" : "meta::pure::profiles::doc",
          "value" : "doc"
        },
        "value" : "A contractual minimum amount which the borrower will pay, regardless of the duration of the loan. A mechanism for making sure that a trade generates enough income."
      } ],
      "type" : "cdm::model::Money"
    }, {
      "multiplicity" : {
        "lowerBound" : 0,
        "upperBound" : 1
      },
      "name" : "dividendTerms",
      "taggedValues" : [ {
        "tag" : {
          "profile" : "meta::pure::profiles::doc",
          "value" : "doc"
        },
        "value" : "Specifies the terms under which dividends received by the borrower are passed through to the lender."
      } ],
      "type" : "cdm::model::DividendTerms"
    }, {
      "multiplicity" : {
        "lowerBound" : 1,
        "upperBound" : 1
      },
      "name" : "collateralProvisions",
      "taggedValues" : [ {
        "tag" : {
          "profile" : "meta::pure::profiles::doc",
          "value" : "doc"
        },
        "value" : "Specifies collateral provisions for a Security Finance transaction, including Collateral Type and Margin Percentage."
      } ],
      "type" : "cdm::model::CollateralProvisions"
    } ],
    "stereotypes" : [ {
      "profile" : "cdm::model::metadata",
      "value" : "key"
    } ],
    "superTypes" : [ "cdm::model::PayoutBase" ],
    "taggedValues" : [ {
      "tag" : {
        "profile" : "meta::pure::profiles::doc",
        "value" : "doc"
      },
      "value" : "Security payout specification in case the product payout involves some form of security collateral, as in a securities financing transaction."
    } ]
  }
}