{
  "classifierPath" : "meta::pure::metamodel::type::Class",
  "content" : {
    "_type" : "class",
    "name" : "SecurityFinanceLeg",
    "package" : "cdm::model",
    "properties" : [ {
      "multiplicity" : {
        "lowerBound" : 1,
        "upperBound" : 1
      },
      "name" : "payerReceiver",
      "taggedValues" : [ {
        "tag" : {
          "profile" : "meta::pure::profiles::doc",
          "value" : "doc"
        },
        "value" : "Specifies who the buyer (receiver) and seller (payer) of the security movement."
      } ],
      "type" : "cdm::model::PayerReceiver"
    }, {
      "multiplicity" : {
        "lowerBound" : 1,
        "upperBound" : 1
      },
      "name" : "settlementDate",
      "taggedValues" : [ {
        "tag" : {
          "profile" : "meta::pure::profiles::doc",
          "value" : "doc"
        },
        "value" : "Settlement date of the security movement."
      } ],
      "type" : "cdm::model::AdjustableOrRelativeDate"
    }, {
      "multiplicity" : {
        "lowerBound" : 1,
        "upperBound" : 1
      },
      "name" : "deliveryMethod",
      "taggedValues" : [ {
        "tag" : {
          "profile" : "meta::pure::profiles::doc",
          "value" : "doc"
        },
        "value" : "Specifies a delivery method for the security movement."
      } ],
      "type" : "cdm::model::DeliveryMethodEnum"
    } ],
    "stereotypes" : [ {
      "profile" : "cdm::model::metadata",
      "value" : "key"
    } ],
    "taggedValues" : [ {
      "tag" : {
        "profile" : "meta::pure::profiles::doc",
        "value" : "doc"
      },
      "value" : "Defines each security movement of a security financing transaction."
    } ]
  }
}