{
  "classifierPath" : "meta::pure::metamodel::type::Class",
  "content" : {
    "_type" : "class",
    "name" : "SecurityTransferBreakdown",
    "package" : "cdm::model",
    "properties" : [ {
      "multiplicity" : {
        "lowerBound" : 1,
        "upperBound" : 1
      },
      "name" : "transferorTransferee",
      "taggedValues" : [ {
        "tag" : {
          "profile" : "meta::pure::profiles::doc",
          "value" : "doc"
        },
        "value" : "The transferee and transferor party information."
      } ],
      "type" : "cdm::model::TransferorTransferee"
    }, {
      "multiplicity" : {
        "lowerBound" : 1
      },
      "name" : "security",
      "taggedValues" : [ {
        "tag" : {
          "profile" : "meta::pure::profiles::doc",
          "value" : "doc"
        },
        "value" : "The securities that are being transfered"
      } ],
      "type" : "cdm::model::Security"
    }, {
      "multiplicity" : {
        "lowerBound" : 1,
        "upperBound" : 1
      },
      "name" : "quantity",
      "type" : "Float"
    } ]
  }
}