{
  "classifierPath" : "meta::pure::metamodel::type::Class",
  "content" : {
    "_type" : "class",
    "name" : "Sngl",
    "package" : "cdm::model",
    "properties" : [ {
      "multiplicity" : {
        "lowerBound" : 1,
        "upperBound" : 1
      },
      "name" : "isin",
      "type" : "String"
    }, {
      "multiplicity" : {
        "lowerBound" : 1,
        "upperBound" : 1
      },
      "name" : "indx",
      "type" : "cdm::model::Indx"
    } ]
  }
}