{
  "classifierPath" : "meta::pure::metamodel::type::Class",
  "content" : {
    "_type" : "class",
    "name" : "SpreadSchedule",
    "package" : "cdm::model",
    "properties" : [ {
      "multiplicity" : {
        "lowerBound" : 0,
        "upperBound" : 1
      },
      "name" : "spreadScheduleType",
      "stereotypes" : [ {
        "profile" : "cdm::model::metadata",
        "value" : "scheme"
      } ],
      "taggedValues" : [ {
        "tag" : {
          "profile" : "meta::pure::profiles::doc",
          "value" : "doc"
        },
        "value" : "An element which purpose is to identify a long or short spread value."
      } ],
      "type" : "cdm::model::SpreadScheduleTypeEnum"
    } ],
    "superTypes" : [ "cdm::model::RateSchedule" ],
    "taggedValues" : [ {
      "tag" : {
        "profile" : "meta::pure::profiles::doc",
        "value" : "doc"
      },
      "value" : "Adds an optional spread type element to the Schedule to identify a long or short spread value."
    } ]
  }
}