{
  "classifierPath" : "meta::pure::metamodel::type::Enumeration",
  "content" : {
    "_type" : "Enumeration",
    "name" : "SupraNationalIssuerTypeEnum",
    "package" : "cdm::model",
    "values" : [ {
      "taggedValues" : [ {
        "tag" : {
          "profile" : "meta::pure::profiles::doc",
          "value" : "doc"
        },
        "value" : "International Financial Institution"
      } ],
      "value" : "InternationalOrganisation"
    }, {
      "taggedValues" : [ {
        "tag" : {
          "profile" : "meta::pure::profiles::doc",
          "value" : "doc"
        },
        "value" : "Multilateral Bank or Multilateral Development Bank."
      } ],
      "value" : "MultilateralBank"
    } ]
  }
}