{
  "classifierPath" : "meta::pure::metamodel::type::Enumeration",
  "content" : {
    "_type" : "Enumeration",
    "name" : "TaxonomySourceEnum",
    "package" : "cdm::model",
    "taggedValues" : [ {
      "tag" : {
        "profile" : "meta::pure::profiles::doc",
        "value" : "doc"
      },
      "value" : "The enumerated values to specify taxonomy sources."
    } ],
    "values" : [ {
      "taggedValues" : [ {
        "tag" : {
          "profile" : "meta::pure::profiles::doc",
          "value" : "doc"
        },
        "value" : "The ISO 10962 Classification of Financial Instruments code"
      } ],
      "value" : "CFI"
    }, {
      "taggedValues" : [ {
        "tag" : {
          "profile" : "meta::pure::profiles::doc",
          "value" : "doc"
        },
        "value" : "The ISDA product taxonomy"
      } ],
      "value" : "ISDA"
    }, {
      "taggedValues" : [ {
        "tag" : {
          "profile" : "meta::pure::profiles::doc",
          "value" : "doc"
        },
        "value" : "ISDA Collateral Asset Definition Idenifier code."
      } ],
      "value" : "ICAD"
    } ]
  }
}