{
  "classifierPath" : "meta::pure::metamodel::type::Class",
  "content" : {
    "_type" : "class",
    "name" : "TransferCalculation",
    "package" : "cdm::model",
    "properties" : [ {
      "multiplicity" : {
        "lowerBound" : 0,
        "upperBound" : 1
      },
      "name" : "period",
      "taggedValues" : [ {
        "tag" : {
          "profile" : "meta::pure::profiles::doc",
          "value" : "doc"
        },
        "value" : "The period adjusted start and end dates."
      } ],
      "type" : "cdm::model::CalculationPeriodBase"
    }, {
      "multiplicity" : {
        "lowerBound" : 0
      },
      "name" : "lineage",
      "taggedValues" : [ {
        "tag" : {
          "profile" : "meta::pure::profiles::doc",
          "value" : "doc"
        },
        "value" : "The lineage into the components used for the calculation."
      } ],
      "type" : "cdm::model::Lineage"
    }, {
      "multiplicity" : {
        "lowerBound" : 0,
        "upperBound" : 1
      },
      "name" : "calculationOutcome",
      "taggedValues" : [ {
        "tag" : {
          "profile" : "meta::pure::profiles::doc",
          "value" : "doc"
        },
        "value" : "This is a conceptual placeholder for providing the breakdown into the cashflow calculation components, leveraging the fact that the CDM provides calculation components, starting with the FixedAmount and the FloatingAmount. Further evaluation of expected usage needs to take place to confirm and prioritize such implementation."
      } ],
      "type" : "Float"
    } ]
  }
}