{
  "classifierPath" : "meta::pure::metamodel::type::Class",
  "content" : {
    "_type" : "class",
    "name" : "YieldCurveMethod",
    "package" : "cdm::model",
    "properties" : [ {
      "multiplicity" : {
        "lowerBound" : 0,
        "upperBound" : 1
      },
      "name" : "settlementRateSource",
      "taggedValues" : [ {
        "tag" : {
          "profile" : "meta::pure::profiles::doc",
          "value" : "doc"
        },
        "value" : "The method for obtaining a settlement rate. This may be from some information source (e.g. Reuters) or from a set of reference banks."
      } ],
      "type" : "cdm::model::SettlementRateSource"
    }, {
      "multiplicity" : {
        "lowerBound" : 1,
        "upperBound" : 1
      },
      "name" : "quotationRateType",
      "taggedValues" : [ {
        "tag" : {
          "profile" : "meta::pure::profiles::doc",
          "value" : "doc"
        },
        "value" : "Which rate quote is to be observed, either Bid, Mid, Offer or Exercising Party Pays. The meaning of Exercising Party Pays is defined in the 2000 ISDA Definitions, Section 17.2. Certain Definitions Relating to Cash Settlement, paragraph (j)."
      } ],
      "type" : "cdm::model::QuotationRateTypeEnum"
    } ],
    "taggedValues" : [ {
      "tag" : {
        "profile" : "meta::pure::profiles::doc",
        "value" : "doc"
      },
      "value" : "A data defining:  the parameters required for each of the ISDA defined yield curve methods for cash settlement."
    } ]
  }
}