{
  "classifierPath" : "meta::pure::metamodel::type::Class",
  "content" : {
    "_type" : "class",
    "name" : "CalculationAgent",
    "package" : "cdm::synonymSources::fpml",
    "properties" : [ {
      "multiplicity" : {
        "lowerBound" : 1
      },
      "name" : "calculationAgentPartyReference",
      "type" : "cdm::synonymSources::fpml::PartyReference"
    }, {
      "multiplicity" : {
        "lowerBound" : 1,
        "upperBound" : 1
      },
      "name" : "calculationAgentParty",
      "type" : "cdm::synonymSources::fpml::CalculationAgentPartyEnum"
    } ]
  }
}