{
  "classifierPath" : "meta::pure::metamodel::type::Enumeration",
  "content" : {
    "_type" : "Enumeration",
    "name" : "CalculationAgentPartyEnum",
    "package" : "cdm::synonymSources::fpml",
    "values" : [ {
      "taggedValues" : [ {
        "tag" : {
          "profile" : "meta::pure::profiles::doc",
          "value" : "doc"
        },
        "value" : "The party that gives notice of exercise. Per 2000 ISDA Definitions, Section 11.1. Parties, paragraph (d)."
      } ],
      "value" : "ExercisingParty"
    }, {
      "taggedValues" : [ {
        "tag" : {
          "profile" : "meta::pure::profiles::doc",
          "value" : "doc"
        },
        "value" : "The party that is given notice of exercise. Per 2000 ISDA Definitions, Section 11.1. Parties, paragraph (e)."
      } ],
      "value" : "NonExercisingParty"
    }, {
      "taggedValues" : [ {
        "tag" : {
          "profile" : "meta::pure::profiles::doc",
          "value" : "doc"
        },
        "value" : "The Calculation Agent is determined by reference to the relevant master agreement."
      } ],
      "value" : "AsSpecifiedInMasterAgreement"
    }, {
      "taggedValues" : [ {
        "tag" : {
          "profile" : "meta::pure::profiles::doc",
          "value" : "doc"
        },
        "value" : "The Calculation Agent is determined by reference to the relevant standard terms supplement."
      } ],
      "value" : "AsSpecifiedInStandardTermsSupplement"
    }, {
      "taggedValues" : [ {
        "tag" : {
          "profile" : "meta::pure::profiles::doc",
          "value" : "doc"
        },
        "value" : "Both parties with joined rights to be a calculation agent."
      } ],
      "value" : "Both"
    } ]
  }
}