{
  "classifierPath" : "meta::pure::metamodel::type::Enumeration",
  "content" : {
    "_type" : "Enumeration",
    "name" : "CollateralValueAllocationEnum",
    "package" : "cdm::synonymSources::fpml",
    "values" : [ {
      "taggedValues" : [ {
        "tag" : {
          "profile" : "meta::pure::profiles::doc",
          "value" : "doc"
        },
        "value" : "The amount that is being allocated from a buffer account. A buffer account is meant to hold funds that the FCM can use to cover the liability of any client. In effect, the FCM has provided funds that are available to meet its customers’ needs and the DCO may use such collateral to meet a default by a customer to the same extent as if the customer provided the collateral."
      } ],
      "value" : "Buffer"
    }, {
      "taggedValues" : [ {
        "tag" : {
          "profile" : "meta::pure::profiles::doc",
          "value" : "doc"
        },
        "value" : "The full amount is being allocated"
      } ],
      "value" : "Full"
    }, {
      "taggedValues" : [ {
        "tag" : {
          "profile" : "meta::pure::profiles::doc",
          "value" : "doc"
        },
        "value" : "The allocated amount is an excess over the margin requirement"
      } ],
      "value" : "ExcessOverMargin"
    }, {
      "taggedValues" : [ {
        "tag" : {
          "profile" : "meta::pure::profiles::doc",
          "value" : "doc"
        },
        "value" : "The allocated amount for margin requirement"
      } ],
      "value" : "Margin"
    } ]
  }
}