{
  "classifierPath" : "meta::pure::metamodel::type::Class",
  "content" : {
    "_type" : "class",
    "name" : "CollateralValueAllocation",
    "package" : "cdm::synonymSources::fpml",
    "properties" : [ {
      "multiplicity" : {
        "lowerBound" : 1,
        "upperBound" : 1
      },
      "name" : "type",
      "taggedValues" : [ {
        "tag" : {
          "profile" : "meta::pure::profiles::doc",
          "value" : "doc"
        },
        "value" : "The type of allocation e.g. Full or ExcessOverMargin"
      } ],
      "type" : "String"
    }, {
      "multiplicity" : {
        "lowerBound" : 1
      },
      "name" : "value",
      "type" : "cdm::synonymSources::fpml::Money"
    } ]
  }
}