{
  "classifierPath" : "meta::pure::metamodel::type::Class",
  "content" : {
    "_type" : "class",
    "name" : "DateOffset",
    "package" : "cdm::synonymSources::fpml",
    "properties" : [ {
      "multiplicity" : {
        "lowerBound" : 1,
        "upperBound" : 1
      },
      "name" : "businessDayConvention",
      "taggedValues" : [ {
        "tag" : {
          "profile" : "meta::pure::profiles::doc",
          "value" : "doc"
        },
        "value" : "The convention for adjusting a date if it would otherwise fall on a day that is not a business day."
      } ],
      "type" : "String"
    } ],
    "superTypes" : [ "cdm::synonymSources::fpml::Offset" ]
  }
}