{
  "classifierPath" : "meta::pure::metamodel::type::Enumeration",
  "content" : {
    "_type" : "Enumeration",
    "name" : "DiscountingTypeEnum",
    "package" : "cdm::synonymSources::fpml",
    "values" : [ {
      "taggedValues" : [ {
        "tag" : {
          "profile" : "meta::pure::profiles::doc",
          "value" : "doc"
        },
        "value" : "Per ISDA 2000 Definitions, Section 8.4. Discounting, paragraph (a)"
      } ],
      "value" : "Standard"
    }, {
      "taggedValues" : [ {
        "tag" : {
          "profile" : "meta::pure::profiles::doc",
          "value" : "doc"
        },
        "value" : "Per ISDA 2000 Definitions, Section 8.4. Discounting, paragraph (b)"
      } ],
      "value" : "FRA"
    }, {
      "taggedValues" : [ {
        "tag" : {
          "profile" : "meta::pure::profiles::doc",
          "value" : "doc"
        },
        "value" : "Per ISDA 2000 Definitions, Section 8.4. Discounting, paragraph (e)"
      } ],
      "value" : "FRAYield"
    } ]
  }
}