{
  "classifierPath" : "meta::pure::metamodel::type::Enumeration",
  "content" : {
    "_type" : "Enumeration",
    "name" : "EnvironmentalAbandonmentOfSchemeEnum",
    "package" : "cdm::synonymSources::fpml",
    "values" : [ {
      "taggedValues" : [ {
        "tag" : {
          "profile" : "meta::pure::profiles::doc",
          "value" : "doc"
        },
        "value" : "Abandonment of Scheme constitutes an Additional Termination Event."
      } ],
      "value" : "OptionA_1"
    }, {
      "taggedValues" : [ {
        "tag" : {
          "profile" : "meta::pure::profiles::doc",
          "value" : "doc"
        },
        "value" : "Abandonment of Scheme entails no further obligations."
      } ],
      "value" : "OptionA_2"
    }, {
      "taggedValues" : [ {
        "tag" : {
          "profile" : "meta::pure::profiles::doc",
          "value" : "doc"
        },
        "value" : "The applicability of Abandonment of Scheme to Emissions Transactions is set forth in the applicable Confirmation."
      } ],
      "value" : "OptionB"
    }, {
      "taggedValues" : [ {
        "tag" : {
          "profile" : "meta::pure::profiles::doc",
          "value" : "doc"
        },
        "value" : "The applicability of Abandonment of Scheme does not apply."
      } ],
      "value" : "OptionC"
    } ]
  }
}