{
  "classifierPath" : "meta::pure::metamodel::type::Enumeration",
  "content" : {
    "_type" : "Enumeration",
    "name" : "FxBarrierScopeEnum",
    "package" : "cdm::synonymSources::fpml",
    "values" : [ {
      "taggedValues" : [ {
        "tag" : {
          "profile" : "meta::pure::profiles::doc",
          "value" : "doc"
        },
        "value" : "The barrier has effect for the expiry period in which it is triggered, and all subsequent periods."
      } ],
      "value" : "Global"
    }, {
      "taggedValues" : [ {
        "tag" : {
          "profile" : "meta::pure::profiles::doc",
          "value" : "doc"
        },
        "value" : "The barrier has effect only for the expiry period in which it is triggered."
      } ],
      "value" : "PerExpiry"
    } ]
  }
}