{
  "classifierPath" : "meta::pure::metamodel::type::Class",
  "content" : {
    "_type" : "class",
    "name" : "FxSpotRateSource",
    "package" : "cdm::synonymSources::fpml",
    "properties" : [ {
      "multiplicity" : {
        "lowerBound" : 1,
        "upperBound" : 1
      },
      "name" : "primaryRateSource",
      "taggedValues" : [ {
        "tag" : {
          "profile" : "meta::pure::profiles::doc",
          "value" : "doc"
        },
        "value" : "The primary source for where the rate observation will occur. Will typically be either a page or a reference bank published rate."
      } ],
      "type" : "cdm::synonymSources::fpml::InformationSource"
    }, {
      "multiplicity" : {
        "lowerBound" : 0,
        "upperBound" : 1
      },
      "name" : "secondaryRateSource",
      "taggedValues" : [ {
        "tag" : {
          "profile" : "meta::pure::profiles::doc",
          "value" : "doc"
        },
        "value" : "An alternative, or secondary, source for where the rate observation will occur. Will typically be either a page or a reference bank published rate."
      } ],
      "type" : "cdm::synonymSources::fpml::InformationSource"
    }, {
      "multiplicity" : {
        "lowerBound" : 0,
        "upperBound" : 1
      },
      "name" : "fixingTime",
      "taggedValues" : [ {
        "tag" : {
          "profile" : "meta::pure::profiles::doc",
          "value" : "doc"
        },
        "value" : "The time at which the spot currency exchange rate will be observed. It is specified as a time in a business day calendar location, e.g. 11:00am London time."
      } ],
      "type" : "cdm::synonymSources::fpml::BusinessCenterTime"
    } ]
  }
}