{
  "classifierPath" : "meta::pure::metamodel::type::Enumeration",
  "content" : {
    "_type" : "Enumeration",
    "name" : "FxStraddleTypeEnum",
    "package" : "cdm::synonymSources::fpml",
    "values" : [ {
      "taggedValues" : [ {
        "tag" : {
          "profile" : "meta::pure::profiles::doc",
          "value" : "doc"
        },
        "value" : "At the money forward straddle."
      } ],
      "value" : "AtTheMoneyForward"
    }, {
      "taggedValues" : [ {
        "tag" : {
          "profile" : "meta::pure::profiles::doc",
          "value" : "doc"
        },
        "value" : "Delta neutral straddle."
      } ],
      "value" : "DeltaNeutral"
    } ]
  }
}