{
  "classifierPath" : "meta::pure::metamodel::type::Class",
  "content" : {
    "_type" : "class",
    "name" : "IndependentAmount",
    "package" : "cdm::synonymSources::fpml",
    "properties" : [ {
      "multiplicity" : {
        "lowerBound" : 1
      },
      "name" : "paymentDetail",
      "taggedValues" : [ {
        "tag" : {
          "profile" : "meta::pure::profiles::doc",
          "value" : "doc"
        },
        "value" : "A container element allowing a schedule of payments associated with the Independent Amount."
      } ],
      "type" : "cdm::synonymSources::fpml::PaymentDetail"
    } ]
  }
}