{
  "classifierPath" : "meta::pure::metamodel::type::Enumeration",
  "content" : {
    "_type" : "Enumeration",
    "name" : "LoanTradingNonRecurringFeeTypeEnum",
    "package" : "cdm::synonymSources::fpml",
    "values" : [ {
      "taggedValues" : [ {
        "tag" : {
          "profile" : "meta::pure::profiles::doc",
          "value" : "doc"
        },
        "value" : "Calculated as a percentage of the global commitment amount of a facility."
      } ],
      "value" : "Amendment"
    }, {
      "value" : "Consent"
    }, {
      "taggedValues" : [ {
        "tag" : {
          "profile" : "meta::pure::profiles::doc",
          "value" : "doc"
        },
        "value" : "Calculated as a percentage of the unutilized portion of the facility."
      } ],
      "value" : "Facility"
    }, {
      "taggedValues" : [ {
        "tag" : {
          "profile" : "meta::pure::profiles::doc",
          "value" : "doc"
        },
        "value" : "An on-going (accrual) fee paid to the Issuing Bank for a Letter of Credit. This is separate from the basic Letter of Credit Fee paid to the lender group."
      } ],
      "value" : "FacilityExension"
    }, {
      "taggedValues" : [ {
        "tag" : {
          "profile" : "meta::pure::profiles::doc",
          "value" : "doc"
        },
        "value" : "Calculated as a percentage of the utilized portion of the facility. This fee type is subject to banding rules – different portions of the utilization amount may be subject to different percentages."
      } ],
      "value" : "Upfront"
    }, {
      "value" : "Waiver"
    } ]
  }
}