{
  "classifierPath" : "meta::pure::metamodel::type::Enumeration",
  "content" : {
    "_type" : "Enumeration",
    "name" : "LoanTradingTypeEnum",
    "package" : "cdm::synonymSources::fpml",
    "values" : [ {
      "taggedValues" : [ {
        "tag" : {
          "profile" : "meta::pure::profiles::doc",
          "value" : "doc"
        },
        "value" : "Trade is part of a syndication."
      } ],
      "value" : "Primary"
    }, {
      "taggedValues" : [ {
        "tag" : {
          "profile" : "meta::pure::profiles::doc",
          "value" : "doc"
        },
        "value" : "Trade was performed in the secondary (non-syndication) market."
      } ],
      "value" : "Secondary"
    } ]
  }
}