{
  "classifierPath" : "meta::pure::metamodel::type::Class",
  "content" : {
    "_type" : "class",
    "name" : "MasterAgreement",
    "package" : "cdm::synonymSources::fpml",
    "properties" : [ {
      "multiplicity" : {
        "lowerBound" : 0
      },
      "name" : "masterAgreementId",
      "taggedValues" : [ {
        "tag" : {
          "profile" : "meta::pure::profiles::doc",
          "value" : "doc"
        },
        "value" : "An identifier that has been created to identify the master agreement."
      } ],
      "type" : "cdm::synonymSources::fpml::MasterAgreementId"
    }, {
      "multiplicity" : {
        "lowerBound" : 1,
        "upperBound" : 1
      },
      "name" : "masterAgreementType",
      "taggedValues" : [ {
        "tag" : {
          "profile" : "meta::pure::profiles::doc",
          "value" : "doc"
        },
        "value" : "The agreement executed between the parties and intended to govern product-specific derivatives transactions between those parties."
      } ],
      "type" : "cdm::synonymSources::fpml::MasterAgreementType"
    }, {
      "multiplicity" : {
        "lowerBound" : 0,
        "upperBound" : 1
      },
      "name" : "masterAgreementVersion",
      "taggedValues" : [ {
        "tag" : {
          "profile" : "meta::pure::profiles::doc",
          "value" : "doc"
        },
        "value" : "The version of the master agreement."
      } ],
      "type" : "cdm::synonymSources::fpml::MasterAgreementVersion"
    }, {
      "multiplicity" : {
        "lowerBound" : 0,
        "upperBound" : 1
      },
      "name" : "masterAgreementDate",
      "taggedValues" : [ {
        "tag" : {
          "profile" : "meta::pure::profiles::doc",
          "value" : "doc"
        },
        "value" : "The date on which the master agreement was signed."
      } ],
      "type" : "Date"
    } ]
  }
}