{
  "classifierPath" : "meta::pure::metamodel::type::Enumeration",
  "content" : {
    "_type" : "Enumeration",
    "name" : "MetalTitleEnum",
    "package" : "cdm::synonymSources::fpml",
    "values" : [ {
      "taggedValues" : [ {
        "tag" : {
          "profile" : "meta::pure::profiles::doc",
          "value" : "doc"
        },
        "value" : "Transfers with Risk of Loss."
      } ],
      "value" : "TransfersWithRiskOfLoss"
    }, {
      "taggedValues" : [ {
        "tag" : {
          "profile" : "meta::pure::profiles::doc",
          "value" : "doc"
        },
        "value" : "Does Not Transfer with Risk of Loss."
      } ],
      "value" : "DoesNotTransferWithRiskOfLoss"
    } ]
  }
}