{
  "classifierPath" : "meta::pure::metamodel::type::Class",
  "content" : {
    "_type" : "class",
    "name" : "MoneyBase",
    "package" : "cdm::synonymSources::fpml",
    "properties" : [ {
      "multiplicity" : {
        "lowerBound" : 1,
        "upperBound" : 1
      },
      "name" : "currency",
      "taggedValues" : [ {
        "tag" : {
          "profile" : "meta::pure::profiles::doc",
          "value" : "doc"
        },
        "value" : "The currency in which an amount is denominated."
      } ],
      "type" : "cdm::synonymSources::fpml::Currency"
    }, {
      "multiplicity" : {
        "lowerBound" : 0,
        "upperBound" : 1
      },
      "name" : "id",
      "type" : "String"
    } ],
    "stereotypes" : [ {
      "profile" : "meta::pure::profiles::typemodifiers",
      "value" : "abstract"
    } ]
  }
}