{
  "classifierPath" : "meta::pure::metamodel::type::Class",
  "content" : {
    "_type" : "class",
    "name" : "MultipleExercise",
    "package" : "cdm::synonymSources::fpml",
    "properties" : [ {
      "multiplicity" : {
        "lowerBound" : 0,
        "upperBound" : 1
      },
      "name" : "integralMultipleAmount",
      "type" : "Float"
    }, {
      "multiplicity" : {
        "lowerBound" : 1,
        "upperBound" : 1
      },
      "name" : "minimumNotionalAmount",
      "type" : "Float"
    }, {
      "multiplicity" : {
        "lowerBound" : 0,
        "upperBound" : 1
      },
      "name" : "maximumNotionalAmount",
      "type" : "Float"
    }, {
      "multiplicity" : {
        "lowerBound" : 1,
        "upperBound" : 1
      },
      "name" : "minimumNumberOfOptions",
      "type" : "Integer"
    }, {
      "multiplicity" : {
        "lowerBound" : 0,
        "upperBound" : 1
      },
      "name" : "maximumNumberOfOptions",
      "type" : "Float"
    }, {
      "multiplicity" : {
        "lowerBound" : 0
      },
      "name" : "notionalReference",
      "type" : "cdm::synonymSources::fpml::NotionalReference"
    } ]
  }
}