{
  "classifierPath" : "meta::pure::metamodel::type::Enumeration",
  "content" : {
    "_type" : "Enumeration",
    "name" : "NegativeInterestRateTreatmentEnum",
    "package" : "cdm::synonymSources::fpml",
    "values" : [ {
      "taggedValues" : [ {
        "tag" : {
          "profile" : "meta::pure::profiles::doc",
          "value" : "doc"
        },
        "value" : "Negative Interest Rate Method. Per 2000 ISDA Definitions, Section 6.4 Negative Interest Rates, paragraphs (b) and (c)."
      } ],
      "value" : "NegativeInterestRateMethod"
    }, {
      "taggedValues" : [ {
        "tag" : {
          "profile" : "meta::pure::profiles::doc",
          "value" : "doc"
        },
        "value" : "Zero Interest Rate Method. Per 2000 ISDA Definitions, Section 6.4. Negative Interest Rates, paragraphs (d) and (e)."
      } ],
      "value" : "ZeroInterestRateMethod"
    } ]
  }
}