{
  "classifierPath" : "meta::pure::metamodel::type::Enumeration",
  "content" : {
    "_type" : "Enumeration",
    "name" : "ObligationCategoryEnum",
    "package" : "cdm::synonymSources::fpml",
    "values" : [ {
      "taggedValues" : [ {
        "tag" : {
          "profile" : "meta::pure::profiles::doc",
          "value" : "doc"
        },
        "value" : "ISDA term \"Payment\"."
      } ],
      "value" : "Payment"
    }, {
      "taggedValues" : [ {
        "tag" : {
          "profile" : "meta::pure::profiles::doc",
          "value" : "doc"
        },
        "value" : "ISDA term \"Borrowed Money\"."
      } ],
      "value" : "BorrowedMoney"
    }, {
      "taggedValues" : [ {
        "tag" : {
          "profile" : "meta::pure::profiles::doc",
          "value" : "doc"
        },
        "value" : "ISDA term \"Reference Obligations Only\"."
      } ],
      "value" : "ReferenceObligationsOnly"
    }, {
      "taggedValues" : [ {
        "tag" : {
          "profile" : "meta::pure::profiles::doc",
          "value" : "doc"
        },
        "value" : "ISDA term \"Bond\"."
      } ],
      "value" : "Bond"
    }, {
      "taggedValues" : [ {
        "tag" : {
          "profile" : "meta::pure::profiles::doc",
          "value" : "doc"
        },
        "value" : "ISDA term \"Loan\"."
      } ],
      "value" : "Loan"
    }, {
      "taggedValues" : [ {
        "tag" : {
          "profile" : "meta::pure::profiles::doc",
          "value" : "doc"
        },
        "value" : "ISDA term \"Bond or Loan\"."
      } ],
      "value" : "BondOrLoan"
    } ]
  }
}