{
  "classifierPath" : "meta::pure::metamodel::type::Class",
  "content" : {
    "_type" : "class",
    "name" : "OnBehalfOf",
    "package" : "cdm::synonymSources::fpml",
    "properties" : [ {
      "multiplicity" : {
        "lowerBound" : 1,
        "upperBound" : 1
      },
      "name" : "partyReference",
      "taggedValues" : [ {
        "tag" : {
          "profile" : "meta::pure::profiles::doc",
          "value" : "doc"
        },
        "value" : "The party for which the message reciever should work."
      } ],
      "type" : "cdm::synonymSources::fpml::PartyReference"
    }, {
      "multiplicity" : {
        "lowerBound" : 0
      },
      "name" : "accountReference",
      "taggedValues" : [ {
        "tag" : {
          "profile" : "meta::pure::profiles::doc",
          "value" : "doc"
        },
        "value" : "Identifies the account(s) related to the party when they cannot be determined from the party alone, for example in a inter-book trade."
      } ],
      "type" : "cdm::synonymSources::fpml::AccountReference"
    } ]
  }
}