{
  "classifierPath" : "meta::pure::metamodel::type::Class",
  "content" : {
    "_type" : "class",
    "name" : "Party",
    "package" : "cdm::synonymSources::fpml",
    "properties" : [ {
      "multiplicity" : {
        "lowerBound" : 1,
        "upperBound" : 1
      },
      "name" : "id",
      "type" : "String"
    }, {
      "multiplicity" : {
        "lowerBound" : 1
      },
      "name" : "partyId",
      "type" : "cdm::synonymSources::fpml::PartyId"
    }, {
      "multiplicity" : {
        "lowerBound" : 0,
        "upperBound" : 1
      },
      "name" : "partyName",
      "type" : "cdm::synonymSources::fpml::PartyName"
    }, {
      "multiplicity" : {
        "lowerBound" : 0,
        "upperBound" : 1
      },
      "name" : "contactInfo",
      "type" : "cdm::synonymSources::fpml::ContactInformation"
    }, {
      "multiplicity" : {
        "lowerBound" : 0,
        "upperBound" : 1
      },
      "name" : "businessUnit",
      "type" : "cdm::synonymSources::fpml::BusinessUnit"
    }, {
      "multiplicity" : {
        "lowerBound" : 0,
        "upperBound" : 1
      },
      "name" : "person",
      "type" : "cdm::synonymSources::fpml::Person"
    }, {
      "multiplicity" : {
        "lowerBound" : 0
      },
      "name" : "classification",
      "type" : "cdm::synonymSources::fpml::IndustryClassification"
    }, {
      "multiplicity" : {
        "lowerBound" : 0
      },
      "name" : "creditRating",
      "type" : "cdm::synonymSources::fpml::CreditRating"
    }, {
      "multiplicity" : {
        "lowerBound" : 0
      },
      "name" : "country",
      "type" : "cdm::synonymSources::fpml::CountryCode"
    }, {
      "multiplicity" : {
        "lowerBound" : 1,
        "upperBound" : 1
      },
      "name" : "groupType",
      "type" : "cdm::synonymSources::fpml::PartyGroupType"
    } ]
  }
}