{
  "classifierPath" : "meta::pure::metamodel::type::Enumeration",
  "content" : {
    "_type" : "Enumeration",
    "name" : "PremiumQuoteBasisEnum",
    "package" : "cdm::synonymSources::fpml",
    "values" : [ {
      "taggedValues" : [ {
        "tag" : {
          "profile" : "meta::pure::profiles::doc",
          "value" : "doc"
        },
        "value" : "Premium is quoted as a percentage of the callCurrencyAmount."
      } ],
      "value" : "PercentageOfCallCurrencyAmount"
    }, {
      "taggedValues" : [ {
        "tag" : {
          "profile" : "meta::pure::profiles::doc",
          "value" : "doc"
        },
        "value" : "Premium is quoted as a percentage of the putCurrencyAmount."
      } ],
      "value" : "PercentageOfPutCurrencyAmount"
    }, {
      "taggedValues" : [ {
        "tag" : {
          "profile" : "meta::pure::profiles::doc",
          "value" : "doc"
        },
        "value" : "Premium is quoted in the call currency as a percentage of the put currency."
      } ],
      "value" : "CallCurrencyPerPutCurrency"
    }, {
      "taggedValues" : [ {
        "tag" : {
          "profile" : "meta::pure::profiles::doc",
          "value" : "doc"
        },
        "value" : "Premium is quoted in the put currency as a percentage of the call currency."
      } ],
      "value" : "PutCurrencyPerCallCurrency"
    }, {
      "taggedValues" : [ {
        "tag" : {
          "profile" : "meta::pure::profiles::doc",
          "value" : "doc"
        },
        "value" : "Premium is quoted as an explicit amount."
      } ],
      "value" : "Explicit"
    } ]
  }
}