{
  "classifierPath" : "meta::pure::metamodel::type::Enumeration",
  "content" : {
    "_type" : "Enumeration",
    "name" : "PriceExpressionEnum",
    "package" : "cdm::synonymSources::fpml",
    "values" : [ {
      "taggedValues" : [ {
        "tag" : {
          "profile" : "meta::pure::profiles::doc",
          "value" : "doc"
        },
        "value" : "The price is expressed as an absolute amount.>"
      } ],
      "value" : "AbsoluteTerms"
    }, {
      "taggedValues" : [ {
        "tag" : {
          "profile" : "meta::pure::profiles::doc",
          "value" : "doc"
        },
        "value" : "The price is expressed in percentage of the notional amount."
      } ],
      "value" : "PercentageOfNotional"
    } ]
  }
}