{
  "classifierPath" : "meta::pure::metamodel::type::Enumeration",
  "content" : {
    "_type" : "Enumeration",
    "name" : "QuotationRateTypeEnum",
    "package" : "cdm::synonymSources::fpml",
    "values" : [ {
      "taggedValues" : [ {
        "tag" : {
          "profile" : "meta::pure::profiles::doc",
          "value" : "doc"
        },
        "value" : "A bid rate."
      } ],
      "value" : "Bid"
    }, {
      "taggedValues" : [ {
        "tag" : {
          "profile" : "meta::pure::profiles::doc",
          "value" : "doc"
        },
        "value" : "An ask rate."
      } ],
      "value" : "Ask"
    }, {
      "taggedValues" : [ {
        "tag" : {
          "profile" : "meta::pure::profiles::doc",
          "value" : "doc"
        },
        "value" : "A mid-market rate."
      } ],
      "value" : "Mid"
    }, {
      "taggedValues" : [ {
        "tag" : {
          "profile" : "meta::pure::profiles::doc",
          "value" : "doc"
        },
        "value" : "If optional early termination is applicable to a swap transaction, the rate, which may be a bid or ask rate, which would result, if seller is in-the-money, in the higher absolute value of the cash settlement amount, or, is seller is out-of-the-money, in the lower absolute value of the cash settlement amount."
      } ],
      "value" : "ExercisingPartyPays"
    } ]
  }
}