{
  "classifierPath" : "meta::pure::metamodel::type::Class",
  "content" : {
    "_type" : "class",
    "name" : "Reference",
    "package" : "cdm::synonymSources::fpml",
    "stereotypes" : [ {
      "profile" : "meta::pure::profiles::typemodifiers",
      "value" : "abstract"
    } ]
  }
}