{
  "classifierPath" : "meta::pure::metamodel::type::Class",
  "content" : {
    "_type" : "class",
    "name" : "RelatedBusinessUnit",
    "package" : "cdm::synonymSources::fpml",
    "properties" : [ {
      "multiplicity" : {
        "lowerBound" : 1,
        "upperBound" : 1
      },
      "name" : "businessUnitReference",
      "taggedValues" : [ {
        "tag" : {
          "profile" : "meta::pure::profiles::doc",
          "value" : "doc"
        },
        "value" : "The unit that is related to this."
      } ],
      "type" : "cdm::synonymSources::fpml::BusinessUnitReference"
    }, {
      "multiplicity" : {
        "lowerBound" : 1,
        "upperBound" : 1
      },
      "name" : "role",
      "taggedValues" : [ {
        "tag" : {
          "profile" : "meta::pure::profiles::doc",
          "value" : "doc"
        },
        "value" : "The category of the relationship. The related unit performs the role specified in this field for the base party. For example, if the role is \"Trader\", the related unit acts acts or acted as the base party's trading unit."
      } ],
      "type" : "cdm::synonymSources::fpml::BusinessUnitRole"
    } ]
  }
}