{
  "classifierPath" : "meta::pure::metamodel::type::Class",
  "content" : {
    "_type" : "class",
    "name" : "ResetFrequency",
    "package" : "cdm::synonymSources::fpml",
    "properties" : [ {
      "multiplicity" : {
        "lowerBound" : 0,
        "upperBound" : 1
      },
      "name" : "weeklyRollConvention",
      "taggedValues" : [ {
        "tag" : {
          "profile" : "meta::pure::profiles::doc",
          "value" : "doc"
        },
        "value" : "The day of the week on which a weekly reset date occurs. This element must be included if the reset frequency is defined as weekly and not otherwise."
      } ],
      "type" : "String"
    } ],
    "superTypes" : [ "cdm::synonymSources::fpml::Frequency" ]
  }
}