{
  "classifierPath" : "meta::pure::metamodel::type::Enumeration",
  "content" : {
    "_type" : "Enumeration",
    "name" : "ResetRelativeToEnum",
    "package" : "cdm::synonymSources::fpml",
    "values" : [ {
      "taggedValues" : [ {
        "tag" : {
          "profile" : "meta::pure::profiles::doc",
          "value" : "doc"
        },
        "value" : "Resets will occur relative to the first day of each calculation period."
      } ],
      "value" : "CalculationPeriodStartDate"
    }, {
      "taggedValues" : [ {
        "tag" : {
          "profile" : "meta::pure::profiles::doc",
          "value" : "doc"
        },
        "value" : "Resets will occur relative to the last day of each calculation period."
      } ],
      "value" : "CalculationPeriodEndDate"
    } ]
  }
}