{
  "classifierPath" : "meta::pure::metamodel::type::Class",
  "content" : {
    "_type" : "class",
    "name" : "RoutingIdsAndExplicitDetails",
    "package" : "cdm::synonymSources::fpml",
    "properties" : [ {
      "multiplicity" : {
        "lowerBound" : 1
      },
      "name" : "routingIds",
      "taggedValues" : [ {
        "tag" : {
          "profile" : "meta::pure::profiles::doc",
          "value" : "doc"
        },
        "value" : "A set of unique identifiers for a party, eachone identifying the party within a payment system. The assumption is that each party will not have more than one identifier within the same payment system."
      } ],
      "type" : "cdm::synonymSources::fpml::RoutingIds"
    } ]
  }
}