{
  "classifierPath" : "meta::pure::metamodel::type::Enumeration",
  "content" : {
    "_type" : "Enumeration",
    "name" : "StandardSettlementStyleEnum",
    "package" : "cdm::synonymSources::fpml",
    "values" : [ {
      "taggedValues" : [ {
        "tag" : {
          "profile" : "meta::pure::profiles::doc",
          "value" : "doc"
        },
        "value" : "This trade will settle using standard pre-determined funds settlement instructions."
      } ],
      "value" : "Standard"
    }, {
      "taggedValues" : [ {
        "tag" : {
          "profile" : "meta::pure::profiles::doc",
          "value" : "doc"
        },
        "value" : "This trade is a candidate for settlement netting."
      } ],
      "value" : "Net"
    }, {
      "taggedValues" : [ {
        "tag" : {
          "profile" : "meta::pure::profiles::doc",
          "value" : "doc"
        },
        "value" : "This trade will settle using standard pre-determined funds settlement instructions and is a candidate for settlement netting."
      } ],
      "value" : "StandardAndNet"
    } ]
  }
}